#FIG 3.2  Produced by xfig version 3.2.5c
Landscape
Center
Metric
A4      
100.00
Single
-2
1200 2
0 32 #b000ff
2 2 0 2 0 32 70 -1 30 0.000 0 0 -1 0 0 5
	 2250 900 3150 900 3150 1350 2250 1350 2250 900
2 2 0 2 0 20 70 -1 30 0.000 0 0 -1 0 0 5
	 4050 900 4950 900 4950 1350 4050 1350 4050 900
2 2 0 2 0 31 70 -1 25 0.000 0 0 -1 0 0 5
	 5850 900 6750 900 6750 1350 5850 1350 5850 900
2 2 0 2 0 14 70 -1 30 0.000 0 0 -1 0 0 5
	 7650 900 8550 900 8550 1350 7650 1350 7650 900
2 1 0 2 0 7 50 -1 -1 0.000 0 0 -1 0 0 2
	 1350 4950 9000 4950
2 1 1 2 0 7 50 -1 -1 4.500 0 0 -1 0 0 2
	 9000 4950 9675 4950
2 1 0 2 0 7 50 -1 -1 0.000 0 0 -1 0 0 2
	 1350 4050 2700 4950
2 1 1 2 0 7 50 -1 -1 4.500 0 0 -1 0 0 2
	 675 3600 1350 4050
2 1 1 2 0 7 50 -1 -1 4.500 0 0 -1 0 0 2
	 675 4950 1350 4950
2 1 0 2 0 7 50 -1 -1 4.500 0 0 -1 0 0 3
	 3150 3825 3600 3825 4950 4950
2 1 0 2 0 7 50 -1 -1 4.500 0 0 -1 0 0 2
	 3600 3825 7200 4950
2 1 1 2 0 7 50 -1 -1 4.500 0 0 -1 0 0 2
	 2475 3825 3150 3825
2 1 0 2 0 7 50 -1 -1 4.500 0 0 -1 0 0 2
	 5400 3150 8550 4950
2 1 0 2 0 7 50 -1 -1 4.500 0 0 -1 0 0 3
	 4950 3150 5400 3150 7200 4950
2 1 1 2 0 7 50 -1 -1 4.500 0 0 -1 0 0 2
	 4275 3150 4950 3150
2 1 1 2 0 7 50 -1 -1 4.500 0 0 -1 0 0 2
	 5850 2700 6525 2700
2 1 1 2 0 7 50 -1 -1 4.500 0 0 -1 0 0 2
	 7650 2250 8325 2250
2 1 0 2 0 7 50 -1 -1 4.500 0 0 -1 0 0 2
	 8280 2250 9000 2025
2 1 1 2 0 7 50 -1 -1 4.500 0 0 -1 0 0 2
	 9000 2025 9675 1350
2 3 0 0 0 32 70 -1 30 0.000 0 0 -1 0 0 4
	 675 4950 675 3600 2700 4950 675 4950
2 3 0 0 0 20 70 -1 30 0.000 0 0 -1 0 0 6
	 2295 4680 2475 3825 3600 3825 4950 4950 2700 4950 2295 4680
2 3 0 0 0 31 70 -1 20 0.000 0 0 -1 0 0 4
	 3600 3825 7200 4950 4950 4950 3600 3825
2 3 0 0 0 2 70 -1 30 0.000 0 0 -1 0 0 4
	 5400 3150 8550 4950 7200 4950 5400 3150
2 3 0 0 0 31 70 -1 25 0.000 0 0 7 0 0 5
	 4050 3960 4275 3150 5400 3150 7200 4950 4050 3960
2 1 0 3 20 20 50 -1 30 0.000 0 0 -1 1 0 2
	1 1 3.00 90.00 90.00
	 3150 3600 4050 1575
2 1 0 3 31 20 50 -1 30 0.000 0 0 -1 1 0 2
	1 1 3.00 90.00 90.00
	 4950 2925 5850 1575
2 1 0 3 14 14 50 -1 30 0.000 0 0 -1 1 0 2
	1 1 3.00 90.00 90.00
	 6750 2475 7425 1575
2 1 0 3 14 14 50 -1 30 0.000 0 0 -1 1 0 2
	1 1 3.00 90.00 90.00
	 7920 2025 8370 1575
2 1 0 3 32 32 50 -1 30 0.000 0 0 -1 1 0 2
	1 1 3.00 90.00 90.00
	 1350 3600 2475 1575
2 3 0 0 0 14 70 -1 37 0.000 0 0 -1 0 0 8
	 6975 2700 7650 2250 8325 2250 9000 2025 9675 1350 9675 4950
	 8550 4950 6975 2700
2 1 0 2 0 14 50 -1 -1 7.500 0 0 -1 1 0 2
	1 1 2.00 60.00 60.00
	 1350 5400 2475 5400
2 1 0 2 0 14 50 -1 -1 7.500 0 0 -1 1 0 2
	1 1 2.00 60.00 60.00
	 450 4725 450 3600
2 1 0 2 0 14 50 -1 -1 7.500 0 0 -1 0 0 4
	 4950 5085 4950 5175 7200 5175 7200 5085
2 1 0 3 14 14 50 -1 30 0.000 0 0 -1 1 0 2
	1 1 3.00 90.00 90.00
	 9000 1800 9450 1350
2 1 0 3 14 14 50 -1 30 0.000 0 0 -1 1 0 2
	1 1 3.00 90.00 90.00
	 8415 2025 8865 1575
2 1 0 2 0 7 50 -1 -1 4.500 0 0 -1 0 0 3
	 6525 2700 6975 2700 8550 4950
2 3 0 0 0 14 70 -1 30 0.000 0 0 7 0 0 5
	 5805 3375 5850 2700 6975 2700 8550 4950 5805 3375
4 0 0 50 -1 18 18 0.0000 4 285 5835 225 450 Anelok Financing (towards first product)\001
4 1 0 50 -1 18 12 0.0000 4 150 735 2700 1080 Phase 0\001
4 1 0 50 -1 18 12 0.0000 4 150 735 4500 1080 Phase 1\001
4 1 0 50 -1 22 12 0.0000 4 135 735 2700 1305 Research\001
4 1 0 50 -1 22 12 0.0000 4 180 795 4500 1305 Developer\001
4 1 0 50 -1 18 12 0.0000 4 150 735 6300 1080 Phase 2\001
4 1 0 50 -1 18 12 0.0000 4 150 735 8100 1080 Phase 3\001
4 1 0 50 -1 22 12 0.0000 4 135 600 6300 1305 Pioneer\001
4 1 0 50 -1 22 12 0.0000 4 135 585 8100 1305 Masses\001
4 0 0 50 -1 22 12 0.0000 4 135 420 8100 3375 Sales\001
4 0 0 50 -1 22 12 1.0629 4 135 720 1665 2880 Finances\001
4 0 0 50 -1 22 12 0.0000 4 135 390 1575 5355 Time\001
4 1 0 50 -1 22 10 0.0000 4 150 1920 6075 5355 Yield of previous fundraiser\001
4 2 0 50 -1 22 10 0.0000 4 120 285 4905 5220 Low\001
4 0 0 50 -1 22 10 0.0000 4 150 330 7245 5220 High\001
4 0 0 50 -1 22 12 0.0000 4 135 1725 2520 4545 Donations / Founders\001
4 0 0 50 -1 22 12 0.0000 4 135 1050 855 4725 Self-financed\001
4 0 0 50 -1 22 6 0.0000 4 105 2910 450 5850 Time and liquidity not to scale. Sequences are only approximative.\001
4 0 0 50 -1 22 12 1.5708 4 180 705 405 4545 Liquidity\001
4 0 0 50 -1 22 12 0.0000 4 180 1275 4320 3735 Crowdfunding 1\001
4 0 0 50 -1 22 12 0.0000 4 180 780 6120 3420 (optional)\001
4 0 0 50 -1 22 12 0.0000 4 180 1275 5895 3195 Crowdfunding 2\001
