EESchema Schematic File Version 4
EELAYER 26 0
EELAYER END
$Descr A4 11693 8268
encoding utf-8
Sheet 1 10
Title "Anelok Password Safe"
Date "2016-02-05"
Rev ""
Comp "Werner Almesberger"
Comment1 ""
Comment2 ""
Comment3 ""
Comment4 ""
$EndDescr
$Sheet
S 6800 900  2000 1200
U 5235DC63
F0 "Display" 50
F1 "disp.sch" 50
F2 "DISP_VDD" I L 6800 1100 60 
F3 "DISP_nCS" I R 8800 1500 60 
F4 "DISP_nRES" I R 8800 1600 60 
F5 "DISP_DnC" I R 8800 1400 60 
F6 "DISP_SCLK" I R 8800 1300 60 
F7 "DISP_SDIN" I R 8800 1200 60 
$EndSheet
Text Notes 800  7600 0    60   ~ 0
Unless indicated otherwise, all capacitors should be X5R or X6S, or better (X7R, NP0, etc.)\nY5V is cheaper but very sensitive to temperature, ages rapidly, etc.\nIf no voltage is specified, use >= 6.3 V
Text Notes 800  7200 0    60   ~ 0
Capacitor selection
$Sheet
S 3800 2700 2000 2000
U 5566D359
F0 "cMCU" 50
F1 "cmcu.sch" 50
F2 "CMCU_nRESET" I R 5800 4100 60 
F3 "VRF" T L 3800 3300 60 
F4 "USB_nSENSE" I L 3800 3100 60 
F5 "USB_ID" I L 3800 4500 60 
F6 "USB_VBUS" I L 3800 4200 60 
F7 "USB_DP" T L 3800 4300 60 
F8 "USB_DM" T L 3800 4400 60 
F9 "RF_CTRR" O L 3800 3500 60 
F10 "RF_CRRT" I L 3800 3600 60 
F11 "MCU_STCR" I R 5800 3600 60 
F12 "MCU_SRCT" O R 5800 3700 60 
F13 "SWD_CLK" I R 5800 4000 60 
F14 "SWD_DIO" B R 5800 3900 60 
F15 "RF_SWDIO" B L 3800 3900 60 
F16 "RF_SWDCLK" O L 3800 3800 60 
F17 "VBAT_SENSE" I L 3800 2900 60 
F18 "VRF_OFF" O R 5800 2900 60 
$EndSheet
Text Notes 700  1100 0    200  ~ 40
ANELOK Mk 3
$Sheet
S 6800 5100 2000 1250
U 5235DEF3
F0 "Memcard" 50
F1 "memcard.sch" 50
F2 "CARD_SW" O R 8800 5300 60 
F3 "CARD_DAT2" B R 8800 6100 60 
F4 "CARD_DAT3" B R 8800 6200 60 
F5 "CARD_CMD" B R 8800 5700 60 
F6 "CARD_CLK" I R 8800 5800 60 
F7 "CARD_DAT0" T R 8800 5900 60 
F8 "CARD_DAT1" B R 8800 6000 60 
F9 "CARD_VDD" I L 6800 5300 60 
$EndSheet
Entry Wire Line
	9300 4100 9400 4200
Entry Wire Line
	9300 4200 9400 4300
Entry Wire Line
	9300 4300 9400 4400
Entry Wire Line
	9300 4400 9400 4500
Entry Wire Line
	9300 4500 9400 4600
Entry Wire Line
	9300 4600 9400 4700
Entry Wire Line
	9300 5300 9400 5400
Entry Wire Line
	9300 5700 9400 5800
Entry Wire Line
	9300 5800 9400 5900
Entry Wire Line
	9300 5900 9400 6000
Entry Wire Line
	9300 6000 9400 6100
Entry Wire Line
	9300 6100 9400 6200
Entry Wire Line
	9300 6200 9400 6300
Entry Wire Line
	9300 1200 9400 1300
Entry Wire Line
	9300 1300 9400 1400
Entry Wire Line
	9300 1400 9400 1500
Entry Wire Line
	9300 1500 9400 1600
Entry Wire Line
	9300 1600 9400 1700
Entry Wire Line
	9300 2800 9400 2900
Entry Wire Line
	9300 2900 9400 3000
Entry Wire Line
	9300 3000 9400 3100
Entry Wire Line
	9300 3100 9400 3200
Entry Wire Line
	9300 3200 9400 3300
$Sheet
S 3800 5200 2000 1150
U 5567FED6
F0 "USB" 50
F1 "usb.sch" 50
F2 "USB_VBUS" O L 3800 5500 60 
F3 "USB_DM" T L 3800 5700 60 
F4 "USB_DP" T L 3800 5600 60 
F5 "USB_ID" O L 3800 5800 60 
F6 "VBUS_RAW" O L 3800 6000 60 
$EndSheet
Entry Wire Line
	3300 4100 3400 4200
Entry Wire Line
	3300 4200 3400 4300
Entry Wire Line
	3300 4300 3400 4400
Entry Wire Line
	3300 4400 3400 4500
Entry Wire Line
	3300 5400 3400 5500
Entry Wire Line
	3300 5500 3400 5600
Entry Wire Line
	3300 5600 3400 5700
Entry Wire Line
	3300 5700 3400 5800
Text Label 8900 1200 0    60   ~ 0
SDIN
Text Label 8900 1300 0    60   ~ 0
SCLK
Text Label 8900 1400 0    60   ~ 0
DnC
Text Label 8900 1500 0    60   ~ 0
nCS
Text Label 8900 1600 0    60   ~ 0
nRES
Text Label 8900 2800 0    60   ~ 0
SDIN
Text Label 8900 2900 0    60   ~ 0
SCLK
Text Label 8900 3000 0    60   ~ 0
DnC
Text Label 8900 3100 0    60   ~ 0
nCS
Text Label 8900 3200 0    60   ~ 0
nRES
Text Label 8900 3950 0    60   ~ 0
CARD_SW
Text Label 8900 4200 0    60   ~ 0
CLK
Text Label 8900 4100 0    60   ~ 0
CMD
Text Label 8900 4300 0    60   ~ 0
DAT0
Text Label 8900 4400 0    60   ~ 0
DAT1
Text Label 8900 4500 0    60   ~ 0
DAT2
Text Label 8900 4600 0    60   ~ 0
DAT3
Text Label 8900 5300 0    60   ~ 0
CARD_SW
Text Label 8900 5800 0    60   ~ 0
CLK
Text Label 8900 5700 0    60   ~ 0
CMD
Text Label 8900 5900 0    60   ~ 0
DAT0
Text Label 8900 6000 0    60   ~ 0
DAT1
Text Label 8900 6100 0    60   ~ 0
DAT2
Text Label 8900 6200 0    60   ~ 0
DAT3
Text Label 3500 4200 0    60   ~ 0
VBUS
Text Label 3500 4300 0    60   ~ 0
DP
Text Label 3500 4400 0    60   ~ 0
DM
Text Label 3500 4500 0    60   ~ 0
ID
Text Label 3500 5500 0    60   ~ 0
VBUS
Text Label 3500 5600 0    60   ~ 0
DP
Text Label 3500 5700 0    60   ~ 0
DM
Text Label 3500 5800 0    60   ~ 0
ID
Entry Wire Line
	9300 3950 9400 4050
$Sheet
S 4900 900  900  1300
U 5699999E
F0 "Power2" 50
F1 "power2.sch" 50
F2 "CARD_ON" I R 5800 1600 60 
F3 "DISP_ON" I R 5800 1500 60 
F4 "DISP_VDD" O R 5800 1100 60 
F5 "CARD_VDD" O R 5800 1800 60 
F6 "VRF" T R 5800 2100 60 
F7 "VRF_OFF" I R 5800 2000 60 
$EndSheet
$Sheet
S 3800 900  850  1300
U 5235E128
F0 "Power1" 50
F1 "power1.sch" 50
F2 "USB_nSENSE" O L 3800 1600 60 
F3 "VBUS_RAW" I L 3800 1400 60 
F4 "VBAT_SENSE" O L 3800 1800 60 
F5 "VHIGH" I L 3800 2000 60 
$EndSheet
Wire Notes Line
	800  7250 1700 7250
Wire Wire Line
	9300 4300 8800 4300
Wire Wire Line
	8800 4400 9300 4400
Wire Wire Line
	9300 4500 8800 4500
Wire Wire Line
	8800 4600 9300 4600
Wire Wire Line
	8800 5300 9300 5300
Wire Wire Line
	8800 5700 9300 5700
Wire Wire Line
	8800 5800 9300 5800
Wire Wire Line
	8800 5900 9300 5900
Wire Wire Line
	8800 6000 9300 6000
Wire Wire Line
	8800 6100 9300 6100
Wire Wire Line
	9300 6200 8800 6200
Wire Wire Line
	6800 5300 6200 5300
Wire Wire Line
	8800 3550 9800 3550
Wire Wire Line
	9800 3650 8800 3650
Wire Wire Line
	8800 4100 9300 4100
Wire Wire Line
	8800 4200 9300 4200
Wire Wire Line
	8800 1200 9300 1200
Wire Wire Line
	8800 1300 9300 1300
Wire Wire Line
	8800 1400 9300 1400
Wire Wire Line
	8800 1500 9300 1500
Wire Wire Line
	8800 1600 9300 1600
Wire Wire Line
	8800 2800 9300 2800
Wire Wire Line
	8800 2900 9300 2900
Wire Wire Line
	8800 3000 9300 3000
Wire Wire Line
	8800 3100 9300 3100
Wire Wire Line
	8800 3200 9300 3200
Wire Wire Line
	2800 3300 2950 3300
Wire Wire Line
	3400 4200 3800 4200
Wire Wire Line
	3400 4300 3800 4300
Wire Wire Line
	3400 4400 3800 4400
Wire Wire Line
	3800 4500 3400 4500
Wire Wire Line
	3400 5500 3800 5500
Wire Wire Line
	3400 5600 3800 5600
Wire Wire Line
	3400 5700 3800 5700
Wire Wire Line
	3400 5800 3800 5800
Wire Wire Line
	3100 6000 3800 6000
Wire Wire Line
	3100 1400 3100 6000
Wire Wire Line
	3800 3100 3300 3100
Wire Wire Line
	3300 3100 3300 1600
Connection ~ 2950 3300
Wire Wire Line
	5800 4100 6800 4100
Wire Wire Line
	8800 3400 9800 3400
Wire Wire Line
	2800 3600 3800 3600
Wire Wire Line
	2800 3500 3800 3500
Wire Wire Line
	8800 3950 9300 3950
Wire Wire Line
	8800 3750 9800 3750
Wire Wire Line
	5800 1100 6800 1100
Wire Wire Line
	6800 3200 6300 3200
Wire Wire Line
	6800 3100 6400 3100
Wire Wire Line
	6200 5300 6200 1800
Wire Wire Line
	6200 1800 5800 1800
Wire Wire Line
	6300 3200 6300 1600
Wire Wire Line
	6300 1600 5800 1600
Wire Wire Line
	6400 3100 6400 1500
Wire Wire Line
	6400 1500 5800 1500
$Sheet
S 6800 2700 2000 2000
U 5566D583
F0 "sMCU" 50
F1 "smcu.sch" 50
F2 "CARD_SW" I R 8800 3950 60 
F3 "DISP_DnC" O R 8800 3000 60 
F4 "DISP_nRES" O R 8800 3200 60 
F5 "DISP_nCS" O R 8800 3100 60 
F6 "DISP_ON" O L 6800 3100 60 
F7 "CARD_ON" O L 6800 3200 60 
F8 "CARD_DAT0" T R 8800 4300 60 
F9 "CARD_DAT1" T R 8800 4400 60 
F10 "LED" O R 8800 3400 60 
F11 "DISP_SCLK" O R 8800 2900 60 
F12 "DISP_SDIN" O R 8800 2800 60 
F13 "CARD_DAT2" T R 8800 4500 60 
F14 "CARD_DAT3" T R 8800 4600 60 
F15 "CARD_CMD" T R 8800 4100 60 
F16 "CARD_CLK" O R 8800 4200 60 
F17 "CMCU_nRESET" O L 6800 4100 60 
F18 "MCU_SRCT" I L 6800 3700 60 
F19 "MCU_STCR" O L 6800 3600 60 
F20 "SWD_CLK" O L 6800 4000 60 
F21 "SWD_DIO" B L 6800 3900 60 
F22 "CAP_A" I R 8800 3550 60 
F23 "CAP_B" I R 8800 3650 60 
F24 "CAP_C" I R 8800 3750 60 
F25 "VHIGH" O L 6800 3400 60 
$EndSheet
$Sheet
S 9800 2700 1000 2000
U 5371C006
F0 "Buttons" 50
F1 "buttons.sch" 50
F2 "LED" I L 9800 3400 60 
F3 "CAP_A" O L 9800 3550 60 
F4 "CAP_B" O L 9800 3650 60 
F5 "CAP_C" O L 9800 3750 60 
$EndSheet
$Sheet
S 800  2700 2000 2000
U 56B440FB
F0 "RF" 60
F1 "rf.sch" 60
F2 "RF_CRRT" O R 2800 3600 60 
F3 "RF_CTRR" I R 2800 3500 60 
F4 "RF_SWDIO" T R 2800 3900 60 
F5 "RF_SWDCLK" I R 2800 3800 60 
F6 "VRF" I R 2800 3300 60 
$EndSheet
Wire Wire Line
	2800 3800 3800 3800
Wire Wire Line
	2800 3900 3800 3900
Wire Wire Line
	3800 2900 3400 2900
Wire Wire Line
	3400 2900 3400 1800
Wire Wire Line
	3400 1800 3800 1800
Wire Wire Line
	3300 1600 3800 1600
Wire Wire Line
	3100 1400 3800 1400
Wire Wire Line
	5800 2100 6000 2100
Wire Wire Line
	6000 2100 6000 2400
Wire Wire Line
	6000 2400 2950 2400
Wire Wire Line
	2950 2400 2950 3300
Wire Wire Line
	6800 3400 6000 3400
Wire Wire Line
	6000 3400 6000 2500
Wire Wire Line
	6000 2500 3600 2500
Wire Wire Line
	3600 2500 3600 2000
Wire Wire Line
	3600 2000 3800 2000
Wire Wire Line
	5800 2900 6100 2900
Wire Wire Line
	6100 2900 6100 2000
Wire Wire Line
	6100 2000 5800 2000
Wire Wire Line
	5800 3600 6100 3600
Wire Wire Line
	6800 3700 6500 3700
Wire Wire Line
	6800 3900 6600 3900
Wire Wire Line
	6600 3900 6600 3600
Connection ~ 6600 3600
Wire Wire Line
	6800 4000 6500 4000
Wire Wire Line
	6500 4000 6500 3700
Connection ~ 6500 3700
Wire Wire Line
	5800 3900 6000 3900
Wire Wire Line
	6000 3900 6000 3700
Connection ~ 6000 3700
Wire Wire Line
	5800 4000 6100 4000
Wire Wire Line
	6100 4000 6100 3600
Connection ~ 6100 3600
Text Notes 800  6700 0    60   ~ 0
Resistor selection
Wire Notes Line
	800  6750 1650 6750
Text Notes 800  7000 0    60   ~ 0
Unless indicated otherwise, all resistors should have a tolerance\nof 1% or better, and a power rating of at least 1/16 W.
Wire Wire Line
	2950 3300 3800 3300
Wire Wire Line
	6600 3600 6800 3600
Wire Wire Line
	6500 3700 6000 3700
Wire Wire Line
	6000 3700 5800 3700
Wire Wire Line
	6100 3600 6600 3600
Wire Bus Line
	3300 4100 3300 5700
Wire Bus Line
	9400 1300 9400 3300
Wire Bus Line
	9400 4050 9400 6300
$EndSCHEMATC
