EESchema Schematic File Version 4
EELAYER 26 0
EELAYER END
$Descr A4 11693 8268
encoding utf-8
Sheet 9 10
Title "Anelok Password Safe"
Date "2016-02-05"
Rev ""
Comp "Werner Almesberger"
Comment1 ""
Comment2 ""
Comment3 ""
Comment4 ""
$EndDescr
Text Notes 1250 1450 0    200  ~ 40
Buttons
$Comp
L led:LED D1
U 1 1 5566D721
P 7500 2800
F 0 "D1" H 7500 2900 60  0000 C CNN
F 1 "LTST-C193KRKT-5A" H 7500 2650 60  0000 C CNN
F 2 "stdpass:0603P" H 7500 2800 60  0001 C CNN
F 3 "" H 7500 2800 60  0000 C CNN
	1    7500 2800
	0    -1   1    0   
$EndComp
Text Notes 6750 2150 0    60   ~ 0
5 mA @ 3.3 V
Text HLabel 3200 2400 0    60   Output ~ 0
CAP_A
Text HLabel 3200 3500 0    60   Output ~ 0
CAP_B
Text HLabel 6250 2400 0    60   Input ~ 0
LED
Wire Wire Line
	3200 2400 4400 2400
Wire Wire Line
	3200 3500 4400 3500
$Comp
L r:R R11
U 1 1 556923C4
P 7050 2400
F 0 "R11" V 7150 2500 60  0000 C CNN
F 1 "270" V 7050 2400 60  0000 C CNN
F 2 "stdpass:0402" H 7050 2400 60  0001 C CNN
F 3 "" H 7050 2400 60  0000 C CNN
	1    7050 2400
	0    -1   -1   0   
$EndComp
Wire Wire Line
	6250 2400 6800 2400
Text HLabel 3200 4600 0    60   Output ~ 0
CAP_C
Wire Wire Line
	3200 4600 4400 4600
$Comp
L sw4:SW4 SW2
U 1 1 5695BF9C
P 4600 2200
F 0 "SW2" V 4200 2200 60  0000 C CNN
F 1 "TL3315NF160" V 4306 2200 60  0000 C CNN
F 2 "tact-4-rect-smt:TL3315" H 4600 2200 60  0001 C CNN
F 3 "" H 4600 2200 60  0000 C CNN
	1    4600 2200
	0    1    1    0   
$EndComp
$Comp
L sw4:SW4 SW3
U 1 1 5695C007
P 4600 3300
F 0 "SW3" V 4200 3300 60  0000 C CNN
F 1 "TL3315NF160" V 4306 3300 60  0000 C CNN
F 2 "tact-4-rect-smt:TL3315" H 4600 3300 60  0001 C CNN
F 3 "" H 4600 3300 60  0000 C CNN
	1    4600 3300
	0    1    1    0   
$EndComp
$Comp
L sw4:SW4 SW4
U 1 1 5695C043
P 4600 4400
F 0 "SW4" V 4200 4400 60  0000 C CNN
F 1 "TL3315NF160" V 4306 4400 60  0000 C CNN
F 2 "tact-4-rect-smt:TL3315" H 4600 4400 60  0001 C CNN
F 3 "" H 4600 4400 60  0000 C CNN
	1    4600 4400
	0    1    1    0   
$EndComp
NoConn ~ 4400 2000
NoConn ~ 4400 3100
NoConn ~ 4400 4200
$Comp
L pwr:GND #PWR074
U 1 1 5695C43E
P 7500 3200
F 0 "#PWR074" H 7500 3200 30  0001 C CNN
F 1 "GND" H 7500 3130 30  0001 C CNN
F 2 "" H 7500 3200 60  0000 C CNN
F 3 "" H 7500 3200 60  0000 C CNN
	1    7500 3200
	1    0    0    -1  
$EndComp
$Comp
L pwr:GND #PWR075
U 1 1 5695C45F
P 5000 2600
F 0 "#PWR075" H 5000 2600 30  0001 C CNN
F 1 "GND" H 5000 2530 30  0001 C CNN
F 2 "" H 5000 2600 60  0000 C CNN
F 3 "" H 5000 2600 60  0000 C CNN
	1    5000 2600
	1    0    0    -1  
$EndComp
$Comp
L pwr:GND #PWR076
U 1 1 5695C479
P 5000 3700
F 0 "#PWR076" H 5000 3700 30  0001 C CNN
F 1 "GND" H 5000 3630 30  0001 C CNN
F 2 "" H 5000 3700 60  0000 C CNN
F 3 "" H 5000 3700 60  0000 C CNN
	1    5000 3700
	1    0    0    -1  
$EndComp
$Comp
L pwr:GND #PWR077
U 1 1 5695C49D
P 5000 4800
F 0 "#PWR077" H 5000 4800 30  0001 C CNN
F 1 "GND" H 5000 4730 30  0001 C CNN
F 2 "" H 5000 4800 60  0000 C CNN
F 3 "" H 5000 4800 60  0000 C CNN
	1    5000 4800
	1    0    0    -1  
$EndComp
Wire Wire Line
	4800 2000 5000 2000
Wire Wire Line
	5000 2000 5000 2600
Wire Wire Line
	4800 2400 5000 2400
Connection ~ 5000 2400
Wire Wire Line
	4800 3100 5000 3100
Wire Wire Line
	5000 3100 5000 3700
Wire Wire Line
	4800 3500 5000 3500
Connection ~ 5000 3500
Wire Wire Line
	4800 4200 5000 4200
Wire Wire Line
	5000 4200 5000 4800
Wire Wire Line
	4800 4600 5000 4600
Connection ~ 5000 4600
Wire Wire Line
	7300 2400 7500 2400
Wire Wire Line
	7500 2400 7500 2600
Wire Wire Line
	7500 3000 7500 3200
$Comp
L varistor:EZJ-Z0V80010 V8
U 1 1 5695C578
P 3400 2750
F 0 "V8" H 3478 2803 60  0000 L CNN
F 1 "EZJP0V080GA" H 3478 2697 60  0000 L CNN
F 2 "stdpass:0402" H 3400 2750 60  0001 C CNN
F 3 "" H 3400 2750 60  0000 C CNN
	1    3400 2750
	1    0    0    -1  
$EndComp
$Comp
L varistor:EZJ-Z0V80010 V9
U 1 1 5695C70B
P 3400 3850
F 0 "V9" H 3478 3903 60  0000 L CNN
F 1 "EZJP0V080GA" H 3478 3797 60  0000 L CNN
F 2 "stdpass:0402" H 3400 3850 60  0001 C CNN
F 3 "" H 3400 3850 60  0000 C CNN
	1    3400 3850
	1    0    0    -1  
$EndComp
$Comp
L varistor:EZJ-Z0V80010 V10
U 1 1 5695C746
P 3400 4950
F 0 "V10" H 3478 5003 60  0000 L CNN
F 1 "EZJP0V080GA" H 3478 4897 60  0000 L CNN
F 2 "stdpass:0402" H 3400 4950 60  0001 C CNN
F 3 "" H 3400 4950 60  0000 C CNN
	1    3400 4950
	1    0    0    -1  
$EndComp
$Comp
L pwr:GND #PWR078
U 1 1 5695C788
P 3400 4200
F 0 "#PWR078" H 3400 4200 30  0001 C CNN
F 1 "GND" H 3400 4130 30  0001 C CNN
F 2 "" H 3400 4200 60  0000 C CNN
F 3 "" H 3400 4200 60  0000 C CNN
	1    3400 4200
	1    0    0    -1  
$EndComp
$Comp
L pwr:GND #PWR079
U 1 1 5695C7AB
P 3400 3100
F 0 "#PWR079" H 3400 3100 30  0001 C CNN
F 1 "GND" H 3400 3030 30  0001 C CNN
F 2 "" H 3400 3100 60  0000 C CNN
F 3 "" H 3400 3100 60  0000 C CNN
	1    3400 3100
	1    0    0    -1  
$EndComp
$Comp
L pwr:GND #PWR080
U 1 1 5695C7CE
P 3400 5300
F 0 "#PWR080" H 3400 5300 30  0001 C CNN
F 1 "GND" H 3400 5230 30  0001 C CNN
F 2 "" H 3400 5300 60  0000 C CNN
F 3 "" H 3400 5300 60  0000 C CNN
	1    3400 5300
	1    0    0    -1  
$EndComp
Wire Wire Line
	3400 2600 3400 2400
Connection ~ 3400 2400
Wire Wire Line
	3400 2900 3400 3100
Wire Wire Line
	3400 3700 3400 3500
Connection ~ 3400 3500
Wire Wire Line
	3400 4000 3400 4200
Wire Wire Line
	3400 4800 3400 4600
Connection ~ 3400 4600
Wire Wire Line
	3400 5100 3400 5300
$Comp
L varistor:EZJ-Z0V80010 V11
U 1 1 57513D0C
P 6500 2800
F 0 "V11" H 6578 2853 60  0000 L CNN
F 1 "EZJP0V080GA" H 6578 2747 60  0000 L CNN
F 2 "stdpass:0402" H 6500 2800 60  0001 C CNN
F 3 "" H 6500 2800 60  0000 C CNN
	1    6500 2800
	1    0    0    -1  
$EndComp
$Comp
L pwr:GND #PWR081
U 1 1 57513D9C
P 6500 3200
F 0 "#PWR081" H 6500 3200 30  0001 C CNN
F 1 "GND" H 6500 3130 30  0001 C CNN
F 2 "" H 6500 3200 60  0000 C CNN
F 3 "" H 6500 3200 60  0000 C CNN
	1    6500 3200
	1    0    0    -1  
$EndComp
Wire Wire Line
	6500 2650 6500 2400
Connection ~ 6500 2400
Wire Wire Line
	6500 2950 6500 3200
$EndSCHEMATC
