EESchema Schematic File Version 4
EELAYER 26 0
EELAYER END
$Descr A4 11693 8268
encoding utf-8
Sheet 3 10
Title "Anelok Password Safe"
Date "2016-02-05"
Rev ""
Comp "Werner Almesberger"
Comment1 ""
Comment2 ""
Comment3 ""
Comment4 ""
$EndDescr
$Comp
L c:C C16
U 1 1 5566D46F
P 2300 4600
F 0 "C16" H 2350 4700 60  0000 L CNN
F 1 "1uF" H 2350 4500 60  0000 L CNN
F 2 "stdpass:0402" H 2300 4600 60  0001 C CNN
F 3 "" H 2300 4600 60  0000 C CNN
	1    2300 4600
	1    0    0    -1  
$EndComp
$Comp
L c:C C17
U 1 1 5566D475
P 2800 4600
F 0 "C17" H 2850 4700 60  0000 L CNN
F 1 "2.2uF" H 2850 4500 60  0000 L CNN
F 2 "stdpass:0603" H 2950 4400 60  0001 C CNN
F 3 "" H 2800 4600 60  0000 C CNN
F 4 "0603" H 2850 4400 60  0000 L CNN "Field4"
	1    2800 4600
	1    0    0    -1  
$EndComp
$Comp
L c:C C19
U 1 1 5566D47B
P 6600 6100
F 0 "C19" H 6650 6200 60  0000 L CNN
F 1 "1uF" H 6650 6000 60  0000 L CNN
F 2 "stdpass:0402" H 6600 6100 60  0001 C CNN
F 3 "" H 6600 6100 60  0000 C CNN
	1    6600 6100
	1    0    0    -1  
$EndComp
$Comp
L pwr:GND #PWR08
U 1 1 5566D49F
P 6600 6500
F 0 "#PWR08" H 6600 6500 30  0001 C CNN
F 1 "GND" H 6600 6430 30  0001 C CNN
F 2 "" H 6600 6500 60  0000 C CNN
F 3 "" H 6600 6500 60  0000 C CNN
	1    6600 6500
	1    0    0    -1  
$EndComp
$Comp
L pwr:GND #PWR09
U 1 1 5566D4A5
P 5950 5450
F 0 "#PWR09" H 5950 5450 30  0001 C CNN
F 1 "GND" H 5950 5380 30  0001 C CNN
F 2 "" H 5950 5450 60  0000 C CNN
F 3 "" H 5950 5450 60  0000 C CNN
	1    5950 5450
	1    0    0    -1  
$EndComp
$Comp
L c:C C18
U 1 1 5566D4AC
P 3300 4600
F 0 "C18" H 3350 4700 60  0000 L CNN
F 1 "100nF" H 3350 4500 60  0000 L CNN
F 2 "stdpass:0402" H 3300 4600 60  0001 C CNN
F 3 "" H 3300 4600 60  0000 C CNN
	1    3300 4600
	1    0    0    -1  
$EndComp
$Comp
L pwr:GND #PWR010
U 1 1 5566D4BE
P 3700 5000
F 0 "#PWR010" H 3700 5000 30  0001 C CNN
F 1 "GND" H 3700 4930 30  0001 C CNN
F 2 "" H 3700 5000 60  0000 C CNN
F 3 "" H 3700 5000 60  0000 C CNN
	1    3700 5000
	1    0    0    -1  
$EndComp
$Comp
L testpoint:TESTPOINT TP7
U 1 1 5566D4CF
P 8400 3800
F 0 "TP7" V 8300 3950 60  0000 C CNN
F 1 "TESTPOINT" H 8400 3750 60  0001 C CNN
F 2 "pads:PAD_C_80x80" H 8400 3800 60  0001 C CNN
F 3 "" H 8400 3800 60  0000 C CNN
	1    8400 3800
	0    1    1    0   
$EndComp
$Comp
L testpoint:TESTPOINT TP9
U 1 1 5566D4D5
P 5700 6200
F 0 "TP9" H 5700 6450 60  0000 C CNN
F 1 "TESTPOINT" H 5700 6150 60  0001 C CNN
F 2 "pads:PAD_C_80x80" H 5700 6200 60  0001 C CNN
F 3 "" H 5700 6200 60  0000 C CNN
	1    5700 6200
	-1   0    0    1   
$EndComp
$Comp
L testpoint:TESTPOINT TP8
U 1 1 5566D4DB
P 4850 6200
F 0 "TP8" H 4850 6450 60  0000 C CNN
F 1 "TESTPOINT" H 4850 6150 60  0001 C CNN
F 2 "pads:PAD_C_80x80" H 4850 6200 60  0001 C CNN
F 3 "" H 4850 6200 60  0000 C CNN
	1    4850 6200
	-1   0    0    1   
$EndComp
Text Notes 4900 6550 3    60   ~ 0
SWD_CLK
Text Notes 5750 6550 3    60   ~ 0
SWD_DIO
Text Notes 8650 3850 0    60   ~ 0
nRESET
$Comp
L pwr:GND #PWR011
U 1 1 5566D4F3
P 6250 5450
F 0 "#PWR011" H 6250 5450 30  0001 C CNN
F 1 "GND" H 6250 5380 30  0001 C CNN
F 2 "" H 6250 5450 60  0000 C CNN
F 3 "" H 6250 5450 60  0000 C CNN
	1    6250 5450
	1    0    0    -1  
$EndComp
$Comp
L r:R R14
U 1 1 5566D4FD
P 2350 3650
F 0 "R14" V 2400 3900 60  0000 C CNN
F 1 "33" V 2350 3650 60  0000 C CNN
F 2 "stdpass:0402" H 2350 3650 60  0001 C CNN
F 3 "" H 2350 3650 60  0000 C CNN
	1    2350 3650
	0    -1   -1   0   
$EndComp
$Comp
L r:R R13
U 1 1 5566D503
P 2350 3500
F 0 "R13" V 2400 3750 60  0000 C CNN
F 1 "33" V 2350 3500 60  0000 C CNN
F 2 "stdpass:0402" H 2350 3500 60  0001 C CNN
F 3 "" H 2350 3500 60  0000 C CNN
	1    2350 3500
	0    -1   -1   0   
$EndComp
Text Label 3000 3500 0    60   ~ 0
MCU_DP
Text Label 3000 3650 0    60   ~ 0
MCU_DM
$Comp
L pwr:3V3 #PWR012
U 1 1 5566D56B
P 2800 2400
F 0 "#PWR012" H 2800 2360 30  0001 C CNN
F 1 "3V3" H 2800 2550 60  0000 C CNN
F 2 "" H 2800 2400 60  0000 C CNN
F 3 "" H 2800 2400 60  0000 C CNN
	1    2800 2400
	1    0    0    -1  
$EndComp
Text HLabel 5950 2000 1    60   Output ~ 0
RF_CTRR
Text HLabel 7300 3200 2    60   Input ~ 0
RF_CRRT
Text HLabel 7300 3350 2    60   BiDi ~ 0
RF_SWDIO
Text HLabel 8400 3950 2    60   Input ~ 0
CMCU_nRESET
$Comp
L led:LED D2
U 1 1 5566DF8B
P 9600 2500
F 0 "D2" H 9600 2600 60  0000 C CNN
F 1 "LTST-C193KRKT-5A" H 9600 2350 60  0000 C CNN
F 2 "stdpass:0603P" H 9600 2500 60  0001 C CNN
F 3 "" H 9600 2500 60  0000 C CNN
	1    9600 2500
	0    -1   1    0   
$EndComp
$Comp
L r:R R12
U 1 1 5566DF91
P 9600 1850
F 0 "R12" H 9730 1900 60  0000 C CNN
F 1 "270" H 9750 1800 60  0000 C CNN
F 2 "stdpass:0402" H 9600 1850 60  0001 C CNN
F 3 "" H 9600 1850 60  0000 C CNN
	1    9600 1850
	1    0    0    -1  
$EndComp
$Comp
L pwr:GND #PWR013
U 1 1 5566DF98
P 9600 2900
F 0 "#PWR013" H 9600 2900 30  0001 C CNN
F 1 "GND" H 9600 2830 30  0001 C CNN
F 2 "" H 9600 2900 60  0000 C CNN
F 3 "" H 9600 2900 60  0000 C CNN
	1    9600 2900
	1    0    0    -1  
$EndComp
Text Notes 10000 1900 0    60   ~ 0
5 mA @ 3.3 V
Text Notes 1000 1100 0    200  ~ 40
Communications MCU
Text HLabel 7300 3800 2    60   3State ~ 0
VRF
Text HLabel 5800 2000 1    60   Input ~ 0
USB_nSENSE
Text HLabel 1800 3200 0    60   Input ~ 0
USB_ID
Text HLabel 1800 3950 0    60   Input ~ 0
USB_VBUS
Text HLabel 1800 3500 0    60   3State ~ 0
USB_DP
Text HLabel 1800 3650 0    60   3State ~ 0
USB_DM
Text HLabel 5200 6200 3    60   Input ~ 0
MCU_STCR
Text HLabel 5350 6200 3    60   Output ~ 0
MCU_SRCT
Text HLabel 5050 6200 3    60   Input ~ 0
SWD_CLK
Text HLabel 5500 6200 3    60   BiDi ~ 0
SWD_DIO
$Comp
L xtal-4:XTAL-4 X1
U 1 1 5568B0DD
P 8250 4700
F 0 "X1" H 8250 5050 60  0000 C CNN
F 1 "16MHz" H 8250 4950 60  0000 C CNN
F 2 "xtal-4:xtal4-3.2mmx2.5mm" H 8250 4700 60  0001 C CNN
F 3 "" H 8250 4700 60  0000 C CNN
F 4 "8pF" H 8000 3700 60  0000 L CNN "Field4"
F 5 "40ppm" H 8000 3600 60  0000 L CNN "Field5"
F 6 "ESR<=60R" H 8000 3500 60  0000 L CNN "Field6"
	1    8250 4700
	1    0    0    -1  
$EndComp
$Comp
L c:C C21
U 1 1 5568B0E3
P 8900 5100
F 0 "C21" H 8950 5200 60  0000 L CNN
F 1 "12pF" H 8950 5000 60  0000 L CNN
F 2 "stdpass:0402" H 8900 5100 60  0001 C CNN
F 3 "" H 8900 5100 60  0000 C CNN
	1    8900 5100
	1    0    0    -1  
$EndComp
$Comp
L c:C C20
U 1 1 5568B0E9
P 7600 5100
F 0 "C20" H 7650 5200 60  0000 L CNN
F 1 "12pF" H 7650 5000 60  0000 L CNN
F 2 "stdpass:0402" H 7600 5100 60  0001 C CNN
F 3 "" H 7600 5100 60  0000 C CNN
	1    7600 5100
	1    0    0    -1  
$EndComp
$Comp
L pwr:GND #PWR014
U 1 1 5568B0EF
P 7600 5500
F 0 "#PWR014" H 7600 5500 30  0001 C CNN
F 1 "GND" H 7600 5430 30  0001 C CNN
F 2 "" H 7600 5500 60  0000 C CNN
F 3 "" H 7600 5500 60  0000 C CNN
	1    7600 5500
	1    0    0    -1  
$EndComp
$Comp
L pwr:GND #PWR015
U 1 1 5568B0F5
P 8900 5500
F 0 "#PWR015" H 8900 5500 30  0001 C CNN
F 1 "GND" H 8900 5430 30  0001 C CNN
F 2 "" H 8900 5500 60  0000 C CNN
F 3 "" H 8900 5500 60  0000 C CNN
	1    8900 5500
	1    0    0    -1  
$EndComp
$Comp
L pwr:GND #PWR016
U 1 1 5568B0FB
P 8100 5500
F 0 "#PWR016" H 8100 5500 30  0001 C CNN
F 1 "GND" H 8100 5430 30  0001 C CNN
F 2 "" H 8100 5500 60  0000 C CNN
F 3 "" H 8100 5500 60  0000 C CNN
	1    8100 5500
	1    0    0    -1  
$EndComp
$Comp
L pwr:GND #PWR017
U 1 1 5568B101
P 8400 5500
F 0 "#PWR017" H 8400 5500 30  0001 C CNN
F 1 "GND" H 8400 5430 30  0001 C CNN
F 2 "" H 8400 5500 60  0000 C CNN
F 3 "" H 8400 5500 60  0000 C CNN
	1    8400 5500
	1    0    0    -1  
$EndComp
$Comp
L pwr:GND #PWR018
U 1 1 5568B8E2
P 3300 5000
F 0 "#PWR018" H 3300 5000 30  0001 C CNN
F 1 "GND" H 3300 4930 30  0001 C CNN
F 2 "" H 3300 5000 60  0000 C CNN
F 3 "" H 3300 5000 60  0000 C CNN
	1    3300 5000
	1    0    0    -1  
$EndComp
$Comp
L pwr:GND #PWR019
U 1 1 5568B8E8
P 2800 5000
F 0 "#PWR019" H 2800 5000 30  0001 C CNN
F 1 "GND" H 2800 4930 30  0001 C CNN
F 2 "" H 2800 5000 60  0000 C CNN
F 3 "" H 2800 5000 60  0000 C CNN
	1    2800 5000
	1    0    0    -1  
$EndComp
$Comp
L pwr:GND #PWR020
U 1 1 5568B989
P 2300 5000
F 0 "#PWR020" H 2300 5000 30  0001 C CNN
F 1 "GND" H 2300 4930 30  0001 C CNN
F 2 "" H 2300 5000 60  0000 C CNN
F 3 "" H 2300 5000 60  0000 C CNN
	1    2300 5000
	1    0    0    -1  
$EndComp
NoConn ~ 5650 5250
$Comp
L pwr:3V3 #PWR021
U 1 1 5568BAEF
P 6600 5500
F 0 "#PWR021" H 6600 5460 30  0001 C CNN
F 1 "3V3" H 6600 5650 60  0000 C CNN
F 2 "" H 6600 5500 60  0000 C CNN
F 3 "" H 6600 5500 60  0000 C CNN
	1    6600 5500
	1    0    0    -1  
$EndComp
Text Label 8900 1400 0    60   ~ 0
CMCU_LED
Text Label 5050 1400 3    60   ~ 0
CMCU_LED
Text Notes 8000 6050 0    60   ~ 0
NX3225SA or CX3225GB
NoConn ~ 5500 2200
Wire Wire Line
	2100 3650 1800 3650
Wire Wire Line
	1800 3500 2100 3500
Wire Wire Line
	6250 5250 6250 5450
Wire Wire Line
	5950 2000 5950 2200
Wire Wire Line
	6950 3950 8400 3950
Wire Wire Line
	5500 5250 5500 6200
Wire Wire Line
	5050 5250 5050 6200
Wire Wire Line
	6600 6300 6600 6500
Wire Wire Line
	5950 5250 5950 5450
Wire Wire Line
	9600 2100 9600 2300
Wire Wire Line
	9600 2700 9600 2900
Wire Wire Line
	8900 1400 9600 1400
Wire Wire Line
	9600 1400 9600 1600
Wire Wire Line
	8900 4100 8900 4900
Wire Wire Line
	8700 4700 8900 4700
Connection ~ 8900 4700
Wire Wire Line
	7600 4250 7600 4900
Connection ~ 7600 4700
Wire Wire Line
	7600 5300 7600 5500
Wire Wire Line
	8900 5300 8900 5500
Wire Wire Line
	8400 5100 8400 5500
Wire Wire Line
	8100 5100 8100 5500
Wire Wire Line
	3700 3350 3700 5000
Wire Wire Line
	3700 3350 3900 3350
Wire Wire Line
	3900 4250 3700 4250
Connection ~ 3700 4250
Wire Wire Line
	3300 3800 3300 4400
Wire Wire Line
	2800 3800 3900 3800
Wire Wire Line
	3900 4100 3300 4100
Connection ~ 3300 4100
Wire Wire Line
	2800 2400 2800 4400
Connection ~ 3300 3800
Wire Wire Line
	3300 4800 3300 5000
Wire Wire Line
	2800 4800 2800 5000
Wire Wire Line
	1800 3950 3900 3950
Wire Wire Line
	2300 4800 2300 5000
Wire Wire Line
	2300 4400 2300 3950
Connection ~ 2300 3950
Connection ~ 2800 3800
Wire Wire Line
	2600 3500 3900 3500
Wire Wire Line
	2600 3650 3900 3650
Wire Wire Line
	6600 5500 6600 5900
Wire Wire Line
	5800 5250 5800 5700
Wire Wire Line
	5800 5700 6600 5700
Connection ~ 6600 5700
Wire Wire Line
	5700 6200 5700 6000
Wire Wire Line
	5700 6000 5500 6000
Connection ~ 5500 6000
Wire Wire Line
	4850 6200 4850 6000
Wire Wire Line
	4850 6000 5050 6000
Connection ~ 5050 6000
Wire Wire Line
	1800 3200 3900 3200
Wire Wire Line
	7600 4700 7800 4700
Wire Wire Line
	6950 4100 8900 4100
Wire Wire Line
	6950 4250 7600 4250
Wire Wire Line
	5800 2000 5800 2200
Wire Wire Line
	8200 3950 8200 3800
Wire Wire Line
	8200 3800 8400 3800
Connection ~ 8200 3950
Wire Wire Line
	7300 3800 6950 3800
Text HLabel 7300 3500 2    60   Output ~ 0
RF_SWDCLK
NoConn ~ 4900 2200
Wire Wire Line
	6950 3350 7300 3350
Wire Wire Line
	7300 3500 6950 3500
Wire Wire Line
	6950 3200 7300 3200
NoConn ~ 5650 2200
Wire Wire Line
	5050 1400 5050 2200
Text HLabel 4700 5700 0    60   Input ~ 0
VBAT_SENSE
Wire Wire Line
	4900 5250 4900 5700
Wire Wire Line
	4900 5700 4700 5700
Text Label 7100 4100 0    60   ~ 0
CXTALO
Text Label 7100 4250 0    60   ~ 0
CXTALI
$Comp
L kl25-32:KL25-32 U3
U 1 1 5566DE8E
P 5400 3700
F 0 "U3" H 4250 4950 60  0000 C CNN
F 1 "MKL26Z128VFM4" H 5400 3700 60  0000 C CNN
F 2 "qfn:QFN32-Freescale" H 6200 3550 60  0001 C CNN
F 3 "~" H 6200 3550 60  0000 C CNN
	1    5400 3700
	1    0    0    -1  
$EndComp
Text HLabel 7300 3650 2    60   Output ~ 0
VRF_OFF
Wire Wire Line
	6950 3650 7300 3650
Wire Wire Line
	5200 5250 5200 6200
Wire Wire Line
	5350 6200 5350 5250
NoConn ~ 5350 2200
NoConn ~ 5200 2200
$EndSCHEMATC
