EESchema Schematic File Version 4
EELAYER 26 0
EELAYER END
$Descr A4 11693 8268
encoding utf-8
Sheet 2 10
Title "Anelok Password Safe"
Date "2016-02-05"
Rev ""
Comp "Werner Almesberger"
Comment1 ""
Comment2 ""
Comment3 ""
Comment4 ""
$EndDescr
Wire Wire Line
	6000 2100 5800 2100
Wire Wire Line
	5800 2100 5800 5200
$Comp
L pwr:GND #PWR01
U 1 1 5235E2BE
P 5800 5200
F 0 "#PWR01" H 5800 5200 30  0001 C CNN
F 1 "GND" H 5800 5130 30  0001 C CNN
F 2 "" H 5800 5200 60  0000 C CNN
F 3 "" H 5800 5200 60  0000 C CNN
	1    5800 5200
	1    0    0    -1  
$EndComp
Wire Wire Line
	6000 2800 5800 2800
Connection ~ 5800 2800
Wire Wire Line
	6000 3000 5800 3000
Connection ~ 5800 3000
Wire Wire Line
	6000 3100 5800 3100
Connection ~ 5800 3100
Wire Wire Line
	6000 3200 5800 3200
Connection ~ 5800 3200
Wire Wire Line
	6000 4900 5800 4900
Connection ~ 5800 4900
NoConn ~ 6000 4000
Wire Wire Line
	6000 4100 5800 4100
Connection ~ 5800 4100
Wire Wire Line
	6000 4200 5800 4200
Connection ~ 5800 4200
Wire Wire Line
	6000 4300 5800 4300
Connection ~ 5800 4300
Wire Wire Line
	6000 4400 5800 4400
Connection ~ 5800 4400
Wire Wire Line
	6000 4500 5800 4500
Connection ~ 5800 4500
$Comp
L r:R R7
U 1 1 5235E35C
P 5100 5250
F 0 "R7" H 5200 5300 60  0000 L CNN
F 1 "82k/1%" H 5200 5200 60  0000 L CNN
F 2 "stdpass:0402" H 5100 5250 60  0001 C CNN
F 3 "" H 5100 5250 60  0000 C CNN
	1    5100 5250
	1    0    0    -1  
$EndComp
$Comp
L r:R R8
U 1 1 5235E36B
P 5100 5950
F 0 "R8" H 5200 6000 60  0000 L CNN
F 1 "680k/1%" H 5200 5900 60  0000 L CNN
F 2 "stdpass:0402" H 5100 5950 60  0001 C CNN
F 3 "" H 5100 5950 60  0000 C CNN
	1    5100 5950
	1    0    0    -1  
$EndComp
$Comp
L pwr:GND #PWR02
U 1 1 5235E396
P 5100 6400
F 0 "#PWR02" H 5100 6400 30  0001 C CNN
F 1 "GND" H 5100 6330 30  0001 C CNN
F 2 "" H 5100 6400 60  0000 C CNN
F 3 "" H 5100 6400 60  0000 C CNN
	1    5100 6400
	1    0    0    -1  
$EndComp
Wire Wire Line
	6000 4600 5100 4600
Wire Wire Line
	5100 4600 5100 5000
Wire Wire Line
	5100 5500 5100 5700
Wire Wire Line
	5100 6200 5100 6400
Wire Wire Line
	6000 3600 5800 3600
Connection ~ 5800 3600
Wire Wire Line
	6000 3700 5800 3700
Connection ~ 5800 3700
$Comp
L c:C C14
U 1 1 5235E437
P 4000 5200
F 0 "C14" H 4050 5300 60  0000 L CNN
F 1 "4.7uF" H 4050 5100 60  0000 L CNN
F 2 "stdpass:0805" H 4150 4900 60  0001 C CNN
F 3 "" H 4000 5200 60  0000 C CNN
F 4 "16V" H 4050 5000 60  0000 L CNN "V"
F 5 "0805" H 4050 4900 60  0000 L CNN "Field5"
	1    4000 5200
	1    0    0    -1  
$EndComp
Wire Wire Line
	6000 4800 4500 4800
Wire Wire Line
	4500 4600 4500 5000
Wire Wire Line
	6000 4700 4000 4700
Wire Wire Line
	4000 4700 4000 5000
$Comp
L pwr:GND #PWR03
U 1 1 5235E47D
P 4500 5600
F 0 "#PWR03" H 4500 5600 30  0001 C CNN
F 1 "GND" H 4500 5530 30  0001 C CNN
F 2 "" H 4500 5600 60  0000 C CNN
F 3 "" H 4500 5600 60  0000 C CNN
	1    4500 5600
	1    0    0    -1  
$EndComp
$Comp
L pwr:GND #PWR04
U 1 1 5235E483
P 4000 5600
F 0 "#PWR04" H 4000 5600 30  0001 C CNN
F 1 "GND" H 4000 5530 30  0001 C CNN
F 2 "" H 4000 5600 60  0000 C CNN
F 3 "" H 4000 5600 60  0000 C CNN
	1    4000 5600
	1    0    0    -1  
$EndComp
Wire Wire Line
	4000 5400 4000 5600
Wire Wire Line
	4500 5400 4500 5600
$Comp
L c:C C15
U 1 1 5235E51A
P 4500 5200
F 0 "C15" H 4550 5300 60  0000 L CNN
F 1 "2.2uF" H 4550 5100 60  0000 L CNN
F 2 "stdpass:0603" H 4650 4900 60  0001 C CNN
F 3 "" H 4500 5200 60  0000 C CNN
F 4 "16V" H 4550 5000 60  0000 L CNN "V"
F 5 "0603" H 4550 4900 60  0000 L CNN "Field5"
	1    4500 5200
	1    0    0    -1  
$EndComp
Wire Wire Line
	5600 3800 6000 3800
Wire Wire Line
	5600 3950 5700 3950
Wire Wire Line
	5700 3950 5700 3900
Wire Wire Line
	5700 3900 6000 3900
Wire Wire Line
	5600 3400 6000 3400
Wire Wire Line
	5600 3250 5700 3250
Wire Wire Line
	5700 3250 5700 3300
Wire Wire Line
	5700 3300 6000 3300
Wire Wire Line
	5600 3550 5700 3550
Wire Wire Line
	5700 3550 5700 3500
Wire Wire Line
	5700 3500 6000 3500
$Comp
L c:C C10
U 1 1 5235E5FB
P 4850 2000
F 0 "C10" H 4900 2100 60  0000 L CNN
F 1 "1uF" H 4900 1900 60  0000 L CNN
F 2 "stdpass:0402" H 4850 2000 60  0001 C CNN
F 3 "" H 4850 2000 60  0000 C CNN
	1    4850 2000
	1    0    0    -1  
$EndComp
$Comp
L c:C C11
U 1 1 5235E614
P 4300 2200
F 0 "C11" H 4350 2300 60  0000 L CNN
F 1 "1uF" H 4350 2100 60  0000 L CNN
F 2 "stdpass:0402" H 4300 2200 60  0001 C CNN
F 3 "" H 4300 2200 60  0000 C CNN
	1    4300 2200
	1    0    0    -1  
$EndComp
Wire Wire Line
	6000 2200 5150 2200
Wire Wire Line
	5150 2200 5150 1700
Wire Wire Line
	5150 1700 4850 1700
Wire Wire Line
	4850 1700 4850 1800
Wire Wire Line
	6000 2300 4850 2300
Wire Wire Line
	4850 2300 4850 2200
Wire Wire Line
	6000 2400 4600 2400
Wire Wire Line
	4600 2400 4600 1900
Wire Wire Line
	4600 1900 4300 1900
Wire Wire Line
	4300 1900 4300 2000
Wire Wire Line
	6000 2500 4300 2500
Wire Wire Line
	4300 2500 4300 2400
$Comp
L c:C C13
U 1 1 5235E707
P 4000 3300
F 0 "C13" H 4050 3400 60  0000 L CNN
F 1 "1uF" H 4050 3200 60  0000 L CNN
F 2 "stdpass:0402" H 4000 3300 60  0001 C CNN
F 3 "" H 4000 3300 60  0000 C CNN
	1    4000 3300
	1    0    0    -1  
$EndComp
$Comp
L c:C C12
U 1 1 5235E723
P 3600 3300
F 0 "C12" H 3650 3400 60  0000 L CNN
F 1 "1uF" H 3650 3200 60  0000 L CNN
F 2 "stdpass:0402" H 3600 3300 60  0001 C CNN
F 3 "" H 3600 3300 60  0000 C CNN
	1    3600 3300
	1    0    0    -1  
$EndComp
Wire Wire Line
	6000 2900 4000 2900
Wire Wire Line
	6000 2600 3600 2600
Wire Wire Line
	3600 1800 3600 3100
$Comp
L pwr:GND #PWR05
U 1 1 5235E7AF
P 4000 3600
F 0 "#PWR05" H 4000 3600 30  0001 C CNN
F 1 "GND" H 4000 3530 30  0001 C CNN
F 2 "" H 4000 3600 60  0000 C CNN
F 3 "" H 4000 3600 60  0000 C CNN
	1    4000 3600
	1    0    0    -1  
$EndComp
$Comp
L pwr:GND #PWR06
U 1 1 5235E7B5
P 3600 3600
F 0 "#PWR06" H 3600 3600 30  0001 C CNN
F 1 "GND" H 3600 3530 30  0001 C CNN
F 2 "" H 3600 3600 60  0000 C CNN
F 3 "" H 3600 3600 60  0000 C CNN
	1    3600 3600
	1    0    0    -1  
$EndComp
Wire Wire Line
	4000 3500 4000 3600
Wire Wire Line
	3600 3500 3600 3600
Connection ~ 3600 2600
Text Notes 900  1150 0    200  ~ 40
Display
$Comp
L er-oled-fpc30:ER-OLED-FPC30 CON3
U 1 1 5236C9B8
P 6300 3550
F 0 "CON3" H 6400 5200 60  0000 C CNN
F 1 "ER-OLED013-1" H 6450 1900 60  0000 C CNN
F 2 "er-oled-fpc30:ER-OLED-FPC30" H 6400 3550 60  0001 C CNN
F 3 "~" H 6400 3550 60  0000 C CNN
	1    6300 3550
	1    0    0    -1  
$EndComp
Wire Wire Line
	6000 5000 5800 5000
Connection ~ 5800 5000
$Comp
L powered:POWERED #FLG07
U 1 1 523D3752
P 4500 4400
F 0 "#FLG07" H 4700 4300 60  0001 C CNN
F 1 "POWERED" H 4500 4450 60  0000 C CNN
F 2 "" H 4500 4400 60  0000 C CNN
F 3 "" H 4500 4400 60  0000 C CNN
	1    4500 4400
	1    0    0    -1  
$EndComp
Connection ~ 4500 4800
Wire Wire Line
	4000 1800 4000 3100
Connection ~ 4000 2900
Text HLabel 3400 1800 0    60   Input ~ 0
DISP_VDD
Text HLabel 5600 3250 0    60   Input ~ 0
DISP_nCS
Text HLabel 5600 3400 0    60   Input ~ 0
DISP_nRES
Text HLabel 5600 3550 0    60   Input ~ 0
DISP_DnC
Text HLabel 5600 3800 0    60   Input ~ 0
DISP_SCLK
Text HLabel 5600 3950 0    60   Input ~ 0
DISP_SDIN
Wire Wire Line
	3400 1800 4000 1800
Connection ~ 3600 1800
Text Label 5300 2200 0    60   ~ 0
C2P
Text Label 5300 2300 0    60   ~ 0
C2N
Text Label 5300 2400 0    60   ~ 0
C1P
Text Label 5300 2500 0    60   ~ 0
C1N
Text Label 5300 4700 0    60   ~ 0
VCOMH
Text Label 5300 4600 0    60   ~ 0
IREF
Text Label 5300 4800 0    60   ~ 0
VCC
$EndSCHEMATC
