EESchema Schematic File Version 4
EELAYER 26 0
EELAYER END
$Descr A4 11693 8268
encoding utf-8
Sheet 4 10
Title "Anelok Password Safe"
Date "2016-02-05"
Rev ""
Comp "Werner Almesberger"
Comment1 ""
Comment2 ""
Comment3 ""
Comment4 ""
$EndDescr
$Comp
L memcard8:MEMCARD8-SHIELD3-SW1 CON5
U 1 1 5235E012
P 7050 3100
F 0 "CON5" H 6950 3600 60  0000 L CNN
F 1 "047309-3351" H 7300 2650 60  0000 C CNN
F 2 "memcard8-molex-47309:MEMCARD8-MOLEX-47309" H 7050 3100 60  0001 C CNN
F 3 "" H 7050 3100 60  0000 C CNN
	1    7050 3100
	1    0    0    -1  
$EndComp
$Comp
L pwr:GND #PWR022
U 1 1 5235EA65
P 4200 3600
F 0 "#PWR022" H 4200 3600 30  0001 C CNN
F 1 "GND" H 4200 3530 30  0001 C CNN
F 2 "" H 4200 3600 60  0000 C CNN
F 3 "" H 4200 3600 60  0000 C CNN
	1    4200 3600
	1    0    0    -1  
$EndComp
Wire Wire Line
	4200 3200 6700 3200
Wire Wire Line
	4200 3200 4200 3600
Wire Wire Line
	3500 3100 5000 3100
Wire Wire Line
	5000 3100 6700 3100
Wire Wire Line
	3500 3250 3700 3250
Wire Wire Line
	3700 3250 3700 3300
Wire Wire Line
	3700 3300 6200 3300
Wire Wire Line
	6200 3300 6700 3300
Wire Wire Line
	3500 3400 6300 3400
Wire Wire Line
	6300 3400 6700 3400
Wire Wire Line
	3500 2950 3700 2950
Wire Wire Line
	3700 2950 3700 2900
Wire Wire Line
	3700 2900 4800 2900
Wire Wire Line
	4800 2900 6700 2900
Wire Wire Line
	3500 2800 4700 2800
Wire Wire Line
	4700 2800 6700 2800
Wire Wire Line
	3500 2650 3700 2650
Wire Wire Line
	3700 2650 3700 2700
Wire Wire Line
	3700 2700 6400 2700
Wire Wire Line
	6400 2700 6700 2700
Wire Wire Line
	7950 2700 8600 2700
Wire Wire Line
	8600 2700 8900 2700
Text Notes 850  1200 0    200  ~ 40
Memory card
Text Notes 7800 5150 0    60   ~ 0
CON5
Text HLabel 8900 2700 2    60   Output ~ 0
CARD_SW
Text HLabel 3500 2650 0    60   BiDi ~ 0
CARD_DAT2
Text HLabel 3500 2800 0    60   BiDi ~ 0
CARD_DAT3
Text HLabel 3500 2950 0    60   BiDi ~ 0
CARD_CMD
Text HLabel 3500 3100 0    60   Input ~ 0
CARD_CLK
Text HLabel 3500 3250 0    60   3State ~ 0
CARD_DAT0
Text HLabel 3500 3400 0    60   BiDi ~ 0
CARD_DAT1
Text HLabel 4000 2250 0    60   Input ~ 0
CARD_VDD
Wire Wire Line
	4200 3000 4900 3000
Wire Wire Line
	4900 3000 6700 3000
Wire Wire Line
	4200 3000 4200 2250
Wire Wire Line
	4200 2250 4000 2250
Connection ~ 8600 2700
$Comp
L pwr:GND #PWR023
U 1 1 55688644
P 8100 3600
F 0 "#PWR023" H 8100 3600 30  0001 C CNN
F 1 "GND" H 8100 3530 30  0001 C CNN
F 2 "" H 8100 3600 60  0000 C CNN
F 3 "" H 8100 3600 60  0000 C CNN
	1    8100 3600
	1    0    0    -1  
$EndComp
Wire Wire Line
	8100 3200 8100 3300
Wire Wire Line
	8100 3300 8100 3400
Wire Wire Line
	8100 3400 8100 3600
Wire Wire Line
	8100 3200 7950 3200
Wire Wire Line
	7950 3300 8100 3300
Connection ~ 8100 3300
Wire Notes Line
	7800 5200 9150 5200
Wire Notes Line
	8700 5050 8700 5400
$Comp
L tvs8:TVS8 U6
U 1 1 569BC3AA
P 5600 4500
F 0 "U6" H 5350 5000 60  0000 L CNN
F 1 "TPD8E003DQD" H 5650 4000 60  0000 L CNN
F 2 "dfn:DFN-8-0.4mm" H 5600 4500 60  0001 C CNN
F 3 "" H 5600 4500 60  0000 C CNN
	1    5600 4500
	1    0    0    -1  
$EndComp
Wire Wire Line
	5100 4200 5000 4200
Wire Wire Line
	5100 4400 4900 4400
Wire Wire Line
	4800 4600 5100 4600
Wire Wire Line
	4700 4750 5100 4750
Wire Wire Line
	6100 4200 6200 4200
Wire Wire Line
	6100 4400 6300 4400
Wire Wire Line
	6100 4600 8600 4600
Wire Wire Line
	8600 4600 8600 2700
$Comp
L pwr:GND #PWR024
U 1 1 569BC5B3
P 5600 5300
F 0 "#PWR024" H 5600 5300 30  0001 C CNN
F 1 "GND" H 5600 5230 30  0001 C CNN
F 2 "" H 5600 5300 60  0000 C CNN
F 3 "" H 5600 5300 60  0000 C CNN
	1    5600 5300
	1    0    0    -1  
$EndComp
Wire Wire Line
	5600 5100 5600 5300
Wire Wire Line
	6200 4200 6200 3300
Connection ~ 6200 3300
Wire Wire Line
	6300 4400 6300 3400
Connection ~ 6300 3400
Wire Wire Line
	6100 4750 6400 4750
Wire Wire Line
	6400 4750 6400 2700
Connection ~ 6400 2700
Wire Wire Line
	4700 2800 4700 4750
Connection ~ 4700 2800
Wire Wire Line
	4800 2900 4800 4600
Connection ~ 4800 2900
Wire Wire Line
	5000 4200 5000 3100
Connection ~ 5000 3100
Wire Wire Line
	4900 4400 4900 3000
Connection ~ 4900 3000
Wire Wire Line
	7950 3400 8100 3400
Connection ~ 8100 3400
Text Notes 8750 5150 0    60   ~ 0
CARD_SW
Text Notes 7800 5350 0    60   ~ 0
047309-3351
Text Notes 8750 5350 0    60   ~ 0
closes
$EndSCHEMATC
