EESchema Schematic File Version 4
EELAYER 26 0
EELAYER END
$Descr A4 11693 8268
encoding utf-8
Sheet 6 10
Title "Anelok Password Safe"
Date "2016-02-05"
Rev ""
Comp "Werner Almesberger"
Comment1 ""
Comment2 ""
Comment3 ""
Comment4 ""
$EndDescr
$Comp
L aat4282:AAT4282 U2
U 1 1 56999EB2
P 5500 2700
F 0 "U2" H 5200 3150 60  0000 C CNN
F 1 "AAT4282B" H 5500 2700 60  0000 C CNN
F 2 "dfn:DFN-8" H 5500 2700 60  0001 C CNN
F 3 "~" H 5500 2700 60  0000 C CNN
	1    5500 2700
	1    0    0    -1  
$EndComp
Text HLabel 3900 2800 0    60   Input ~ 0
CARD_ON
Text HLabel 3900 2600 0    60   Input ~ 0
DISP_ON
$Comp
L c:C C3
U 1 1 56999EBB
P 6700 3400
F 0 "C3" H 6750 3500 60  0000 L CNN
F 1 "100nF" H 6750 3300 60  0000 L CNN
F 2 "stdpass:0402" H 6700 3400 60  0001 C CNN
F 3 "" H 6700 3400 60  0000 C CNN
	1    6700 3400
	1    0    0    -1  
$EndComp
$Comp
L pwr:GND #PWR033
U 1 1 56999EC2
P 5500 3800
F 0 "#PWR033" H 5500 3800 30  0001 C CNN
F 1 "GND" H 5500 3730 30  0001 C CNN
F 2 "" H 5500 3800 60  0000 C CNN
F 3 "" H 5500 3800 60  0000 C CNN
	1    5500 3800
	1    0    0    -1  
$EndComp
$Comp
L pwr:GND #PWR034
U 1 1 56999EC8
P 6400 3800
F 0 "#PWR034" H 6400 3800 30  0001 C CNN
F 1 "GND" H 6400 3730 30  0001 C CNN
F 2 "" H 6400 3800 60  0000 C CNN
F 3 "" H 6400 3800 60  0000 C CNN
	1    6400 3800
	1    0    0    -1  
$EndComp
$Comp
L c:C C6
U 1 1 56999ECE
P 7100 3400
F 0 "C6" H 7150 3500 60  0000 L CNN
F 1 "100nF" H 7150 3300 60  0000 L CNN
F 2 "stdpass:0402" H 7100 3400 60  0001 C CNN
F 3 "" H 7100 3400 60  0000 C CNN
	1    7100 3400
	1    0    0    -1  
$EndComp
$Comp
L c:C C2
U 1 1 56999ED5
P 4600 3400
F 0 "C2" H 4650 3500 60  0000 L CNN
F 1 "1uF" H 4650 3300 60  0000 L CNN
F 2 "stdpass:0402" H 4600 3400 60  0001 C CNN
F 3 "" H 4600 3400 60  0000 C CNN
	1    4600 3400
	1    0    0    -1  
$EndComp
$Comp
L c:C C1
U 1 1 56999EDC
P 4200 3400
F 0 "C1" H 4250 3500 60  0000 L CNN
F 1 "1uF" H 4250 3300 60  0000 L CNN
F 2 "stdpass:0402" H 4200 3400 60  0001 C CNN
F 3 "" H 4200 3400 60  0000 C CNN
	1    4200 3400
	1    0    0    -1  
$EndComp
$Comp
L pwr:3V3 #PWR035
U 1 1 56999EE3
P 4200 2200
F 0 "#PWR035" H 4200 2160 30  0001 C CNN
F 1 "3V3" H 4200 2350 60  0000 C CNN
F 2 "" H 4200 2200 60  0000 C CNN
F 3 "" H 4200 2200 60  0000 C CNN
	1    4200 2200
	1    0    0    -1  
$EndComp
Wire Wire Line
	4200 2200 4200 2400
Wire Wire Line
	4200 2400 4200 3200
Wire Wire Line
	4800 2400 4200 2400
Connection ~ 4200 2400
Wire Wire Line
	4600 2200 4600 3000
Wire Wire Line
	4600 3000 4600 3200
Connection ~ 4600 3000
Wire Wire Line
	3900 2600 4800 2600
Wire Wire Line
	3900 2800 4800 2800
$Comp
L pwr:GND #PWR036
U 1 1 56999EF0
P 4200 3800
F 0 "#PWR036" H 4200 3800 30  0001 C CNN
F 1 "GND" H 4200 3730 30  0001 C CNN
F 2 "" H 4200 3800 60  0000 C CNN
F 3 "" H 4200 3800 60  0000 C CNN
	1    4200 3800
	1    0    0    -1  
$EndComp
$Comp
L pwr:GND #PWR037
U 1 1 56999EF6
P 4600 3800
F 0 "#PWR037" H 4600 3800 30  0001 C CNN
F 1 "GND" H 4600 3730 30  0001 C CNN
F 2 "" H 4600 3800 60  0000 C CNN
F 3 "" H 4600 3800 60  0000 C CNN
	1    4600 3800
	1    0    0    -1  
$EndComp
$Comp
L pwr:GND #PWR038
U 1 1 56999EFC
P 7100 3800
F 0 "#PWR038" H 7100 3800 30  0001 C CNN
F 1 "GND" H 7100 3730 30  0001 C CNN
F 2 "" H 7100 3800 60  0000 C CNN
F 3 "" H 7100 3800 60  0000 C CNN
	1    7100 3800
	1    0    0    -1  
$EndComp
$Comp
L pwr:GND #PWR039
U 1 1 56999F02
P 6700 3800
F 0 "#PWR039" H 6700 3800 30  0001 C CNN
F 1 "GND" H 6700 3730 30  0001 C CNN
F 2 "" H 6700 3800 60  0000 C CNN
F 3 "" H 6700 3800 60  0000 C CNN
	1    6700 3800
	1    0    0    -1  
$EndComp
Wire Wire Line
	4200 3600 4200 3800
Wire Wire Line
	4600 3600 4600 3800
Wire Wire Line
	5500 3400 5500 3800
Wire Wire Line
	6400 2600 6400 2800
Wire Wire Line
	6400 2800 6400 3800
Wire Wire Line
	6400 2600 6200 2600
Wire Wire Line
	6200 2800 6400 2800
Connection ~ 6400 2800
Wire Wire Line
	6200 3000 7100 3000
Wire Wire Line
	7100 3000 7800 3000
Wire Wire Line
	6200 2400 6700 2400
Wire Wire Line
	6700 2400 7800 2400
Wire Wire Line
	6700 3200 6700 2400
Connection ~ 6700 2400
Wire Wire Line
	7100 3200 7100 3000
Connection ~ 7100 3000
Wire Wire Line
	6700 3600 6700 3800
Wire Wire Line
	7100 3600 7100 3800
Wire Wire Line
	4600 3000 4800 3000
$Comp
L pwr:3V3 #PWR040
U 1 1 56999F18
P 4600 2200
F 0 "#PWR040" H 4600 2160 30  0001 C CNN
F 1 "3V3" H 4600 2350 60  0000 C CNN
F 2 "" H 4600 2200 60  0000 C CNN
F 3 "" H 4600 2200 60  0000 C CNN
	1    4600 2200
	1    0    0    -1  
$EndComp
Text HLabel 7800 2400 2    60   Output ~ 0
DISP_VDD
Text HLabel 7800 3000 2    60   Output ~ 0
CARD_VDD
Text Notes 5100 2000 0    60   ~ 0
See file OPTIONS
Text Notes 750  1200 0    200  ~ 40
Power 2
$Comp
L powered:POWERED #FLG041
U 1 1 56D5CF51
P 3200 6300
F 0 "#FLG041" H 3400 6200 60  0001 C CNN
F 1 "POWERED" H 3200 6350 60  0000 C CNN
F 2 "" H 3200 6300 60  0000 C CNN
F 3 "" H 3200 6300 60  0000 C CNN
	1    3200 6300
	1    0    0    -1  
$EndComp
Wire Wire Line
	3200 6700 3200 6500
$Comp
L pwr:3V3 #PWR042
U 1 1 56D5CF59
P 3900 4900
F 0 "#PWR042" H 3900 4860 30  0001 C CNN
F 1 "3V3" H 3900 5050 60  0000 C CNN
F 2 "" H 3900 4900 60  0000 C CNN
F 3 "" H 3900 4900 60  0000 C CNN
	1    3900 4900
	1    0    0    -1  
$EndComp
Text HLabel 2400 6700 0    60   Output ~ 0
VRF
$Comp
L c:C C37
U 1 1 56D5CF62
P 3200 5450
F 0 "C37" H 3250 5550 60  0000 L CNN
F 1 "10uF" H 3250 5350 60  0000 L CNN
F 2 "stdpass:0805" H 3350 5250 60  0001 C CNN
F 3 "" H 3200 5450 60  0000 C CNN
F 4 "Height < 1.0 mm" H 3100 5300 60  0000 R CNN "Field4"
F 5 "0805" H 3250 5250 60  0000 L CNN "Field5"
	1    3200 5450
	1    0    0    -1  
$EndComp
$Comp
L pwr:GND #PWR043
U 1 1 56D5CF69
P 3200 5800
F 0 "#PWR043" H 3200 5800 30  0001 C CNN
F 1 "GND" H 3200 5730 30  0001 C CNN
F 2 "" H 3200 5800 60  0000 C CNN
F 3 "" H 3200 5800 60  0000 C CNN
	1    3200 5800
	1    0    0    -1  
$EndComp
Wire Wire Line
	3200 5650 3200 5800
$Comp
L pmosfet-gsd:PMOSFET-GSD Q3
U 1 1 58B21580
P 4000 6000
F 0 "Q3" H 3900 5700 60  0000 C CNN
F 1 "DMG1013T" H 3500 6300 60  0000 L CNN
F 2 "sot:SOT-523" H 3200 6350 60  0001 C CNN
F 3 "" H -6850 2750 60  0001 C CNN
	1    4000 6000
	-1   0    0    1   
$EndComp
Wire Wire Line
	3900 4900 3900 5100
Wire Wire Line
	3900 5100 3900 5600
Wire Wire Line
	2400 6700 2600 6700
Wire Wire Line
	2600 6700 3200 6700
Wire Wire Line
	3200 6700 3900 6700
Wire Wire Line
	3900 6700 3900 6400
Text HLabel 5050 6000 2    60   3State ~ 0
VRF_OFF
Connection ~ 3200 6700
Wire Wire Line
	3200 5250 3200 5100
Wire Wire Line
	3200 5100 3900 5100
Connection ~ 3900 5100
Wire Wire Line
	4300 6000 4750 6000
Wire Wire Line
	4750 6000 5050 6000
$Comp
L r:R R19
U 1 1 58B23322
P 4750 5550
F 0 "R19" H 4880 5600 60  0000 C CNN
F 1 "1M" H 4900 5500 60  0000 C CNN
F 2 "stdpass:0402" H 4750 5550 60  0001 C CNN
F 3 "" H 4750 5550 60  0000 C CNN
	1    4750 5550
	1    0    0    -1  
$EndComp
Connection ~ 4750 6000
Wire Wire Line
	4750 5800 4750 6000
$Comp
L pwr:3V3 #PWR044
U 1 1 58B276B8
P 4750 4950
F 0 "#PWR044" H 4750 4910 30  0001 C CNN
F 1 "3V3" H 4750 5100 60  0000 C CNN
F 2 "" H 4750 4950 60  0000 C CNN
F 3 "" H 4750 4950 60  0000 C CNN
	1    4750 4950
	1    0    0    -1  
$EndComp
Wire Wire Line
	4750 4950 4750 5300
$Comp
L testpoint:TESTPOINT TP6
U 1 1 58B5BCBC
P 2600 6500
F 0 "TP6" H 2600 6750 60  0000 C CNN
F 1 "TESTPOINT" H 2600 6450 60  0001 C CNN
F 2 "pads:PAD_C_80x80" H 2600 6500 60  0001 C CNN
F 3 "" H 2600 6500 60  0000 C CNN
	1    2600 6500
	1    0    0    -1  
$EndComp
Text Notes 2500 6400 2    60   ~ 0
VRF
Wire Wire Line
	2600 6500 2600 6700
Connection ~ 2600 6700
Text Notes 1450 5350 0    60   ~ 0
Place C37 only if RF uses DC-DC.\nSee file OPTIONS.
$EndSCHEMATC
