EESchema Schematic File Version 4
EELAYER 26 0
EELAYER END
$Descr A4 11693 8268
encoding utf-8
Sheet 7 10
Title "Anelok Password Safe"
Date "2016-02-05"
Rev ""
Comp "Werner Almesberger"
Comment1 ""
Comment2 ""
Comment3 ""
Comment4 ""
$EndDescr
$Comp
L inductor:INDUCTOR L1
U 1 1 5236564B
P 4250 2550
F 0 "L1" H 4250 2700 60  0000 C CNN
F 1 "NR6028T100M" H 4250 2450 60  0000 C CNN
F 2 "inductor-2p:INDUCTOR-2P-6mmx6mm" H 4250 2250 60  0001 C CNN
F 3 "" H 4250 2550 60  0000 C CNN
F 4 "Imax>=600mA" H 4250 2250 60  0000 C CNN "Imax"
F 5 "DCR<=150mR" H 4250 2150 60  0000 C CNN "Field5"
F 6 "L>=10uH" H 4250 2350 60  0000 C CNN "Field6"
F 7 "Height <= 3 mm" H 4250 2050 60  0000 C CNN "Field7"
	1    4250 2550
	1    0    0    -1  
$EndComp
Text Notes 1400 1300 0    200  ~ 40
Power 1
$Comp
L testpoint:TESTPOINT TP3
U 1 1 524DAF24
P 10300 6150
F 0 "TP3" H 10300 6400 60  0000 C CNN
F 1 "TESTPOINT" H 10300 6100 60  0001 C CNN
F 2 "pads:PAD_C_80x80" H 10300 6150 60  0001 C CNN
F 3 "" H 10300 6150 60  0000 C CNN
	1    10300 6150
	1    0    0    -1  
$EndComp
$Comp
L pwr:GND #PWR045
U 1 1 524DAF33
P 10300 6400
F 0 "#PWR045" H 10300 6400 30  0001 C CNN
F 1 "GND" H 10300 6330 30  0001 C CNN
F 2 "" H 10300 6400 60  0000 C CNN
F 3 "" H 10300 6400 60  0000 C CNN
	1    10300 6400
	1    0    0    -1  
$EndComp
$Comp
L pwr:GND #PWR046
U 1 1 536CFC64
P 3200 6800
F 0 "#PWR046" H 3200 6800 30  0001 C CNN
F 1 "GND" H 3200 6730 30  0001 C CNN
F 2 "" H 3200 6800 60  0000 C CNN
F 3 "" H 3200 6800 60  0000 C CNN
	1    3200 6800
	1    0    0    -1  
$EndComp
$Comp
L powered:POWERED #FLG047
U 1 1 536E4E18
P 9800 6000
F 0 "#FLG047" H 10000 5900 60  0001 C CNN
F 1 "POWERED" H 9800 6050 60  0000 C CNN
F 2 "" H 9800 6000 60  0000 C CNN
F 3 "" H 9800 6000 60  0000 C CNN
	1    9800 6000
	1    0    0    -1  
$EndComp
$Comp
L pwr:GND #PWR048
U 1 1 536D4105
P 9800 6400
F 0 "#PWR048" H 9800 6400 30  0001 C CNN
F 1 "GND" H 9800 6330 30  0001 C CNN
F 2 "" H 9800 6400 60  0000 C CNN
F 3 "" H 9800 6400 60  0000 C CNN
	1    9800 6400
	1    0    0    -1  
$EndComp
Wire Wire Line
	2900 2000 5000 2000
Wire Wire Line
	10300 6150 10300 6400
Wire Wire Line
	3200 6600 3200 6800
Wire Wire Line
	9800 6200 9800 6400
$Comp
L r:R R3
U 1 1 55672982
P 3200 6350
F 0 "R3" H 3330 6400 60  0000 C CNN
F 1 "82k" H 3350 6300 60  0000 C CNN
F 2 "stdpass:0402" H 3200 6350 60  0001 C CNN
F 3 "" H 3200 6350 60  0000 C CNN
	1    3200 6350
	1    0    0    -1  
$EndComp
Text HLabel 1300 5700 0    60   Input ~ 0
VBUS_RAW
$Comp
L pwr:3V3 #PWR049
U 1 1 55672C24
P 10100 2250
F 0 "#PWR049" H 10100 2210 30  0001 C CNN
F 1 "3V3" H 10100 2400 60  0000 C CNN
F 2 "" H 10100 2250 60  0000 C CNN
F 3 "" H 10100 2250 60  0000 C CNN
	1    10100 2250
	1    0    0    -1  
$EndComp
Wire Wire Line
	10100 2550 10100 2250
$Comp
L testpoint:TESTPOINT TP2
U 1 1 55673648
P 9800 2350
F 0 "TP2" H 9800 2600 60  0000 C CNN
F 1 "TESTPOINT" H 9800 2300 60  0001 C CNN
F 2 "pads:PAD_C_80x80" H 9800 2350 60  0001 C CNN
F 3 "" H 9800 2350 60  0000 C CNN
	1    9800 2350
	1    0    0    -1  
$EndComp
$Comp
L gencon:CONN_1 CON1
U 1 1 55673089
P 2500 2000
F 0 "CON1" H 2500 2100 60  0000 C CNN
F 1 "120x60mil" H 2500 1900 60  0000 C CNN
F 2 "pads:PAD_R_120x60" H 2500 2000 60  0001 C CNN
F 3 "" H 2500 2000 60  0000 C CNN
	1    2500 2000
	-1   0    0    -1  
$EndComp
$Comp
L gencon:CONN_1 CON2
U 1 1 556730BD
P 2500 3500
F 0 "CON2" H 2500 3600 60  0000 C CNN
F 1 "120x60mil" H 2500 3400 60  0000 C CNN
F 2 "pads:PAD_R_120x60" H 2500 3500 60  0001 C CNN
F 3 "" H 2500 3500 60  0000 C CNN
	1    2500 3500
	-1   0    0    -1  
$EndComp
$Comp
L pwr:GND #PWR050
U 1 1 556730C3
P 3100 4400
F 0 "#PWR050" H 3100 4400 30  0001 C CNN
F 1 "GND" H 3100 4330 30  0001 C CNN
F 2 "" H 3100 4400 60  0000 C CNN
F 3 "" H 3100 4400 60  0000 C CNN
	1    3100 4400
	-1   0    0    -1  
$EndComp
Wire Wire Line
	3100 2900 3100 4400
Wire Wire Line
	3100 3500 2900 3500
$Comp
L varistor:VARISTOR V3
U 1 1 55673166
P 3100 2750
F 0 "V3" V 3000 2750 60  0000 C CNN
F 1 "EZJP0V080GA" V 3200 2750 60  0000 C CNN
F 2 "stdpass:0402" H 3100 2750 60  0001 C CNN
F 3 "" H 3100 2750 60  0000 C CNN
	1    3100 2750
	-1   0    0    -1  
$EndComp
Wire Wire Line
	3100 2600 3100 2000
Connection ~ 3100 2000
Connection ~ 3100 3500
$Comp
L testpoint:TESTPOINT TP4
U 1 1 556732AE
P 3400 1800
F 0 "TP4" H 3400 2050 60  0000 C CNN
F 1 "TESTPOINT" H 3400 1750 60  0001 C CNN
F 2 "pads:PAD_C_80x80" H 3400 1800 60  0001 C CNN
F 3 "" H 3400 1800 60  0000 C CNN
	1    3400 1800
	1    0    0    -1  
$EndComp
Text HLabel 5500 6650 2    60   Output ~ 0
USB_nSENSE
Text Label 4200 2000 0    60   ~ 0
VBAT
$Comp
L r:R R15
U 1 1 56D35B86
P 5250 1700
F 0 "R15" V 5150 1700 60  0000 C CNN
F 1 "270" V 5250 1700 60  0000 C CNN
F 2 "stdpass:0402" H 5250 1700 60  0001 C CNN
F 3 "" H 5250 1700 60  0000 C CNN
	1    5250 1700
	0    1    1    0   
$EndComp
Text HLabel 5700 1700 2    60   Output ~ 0
VBAT_SENSE
Wire Wire Line
	5500 1700 5700 1700
Text Label 3400 5850 0    60   ~ 0
USB_PRESENT
$Comp
L por:POR-809 U7
U 1 1 56D3FF46
P 2600 5850
F 0 "U7" H 2400 6200 60  0000 L CNN
F 1 "APX809-40SAG" H 2600 5500 60  0000 C CNN
F 2 "sot23:SOT23" H 2600 5850 60  0001 C CNN
F 3 "" H 2600 5850 60  0000 C CNN
	1    2600 5850
	1    0    0    -1  
$EndComp
Wire Wire Line
	9800 2550 9800 2350
Connection ~ 9800 2550
Wire Wire Line
	1300 5700 2200 5700
$Comp
L pwr:GND #PWR051
U 1 1 56D407FB
P 2000 6200
F 0 "#PWR051" H 2000 6200 30  0001 C CNN
F 1 "GND" H 2000 6130 30  0001 C CNN
F 2 "" H 2000 6200 60  0000 C CNN
F 3 "" H 2000 6200 60  0000 C CNN
	1    2000 6200
	1    0    0    -1  
$EndComp
Wire Wire Line
	2000 6200 2000 6000
Wire Wire Line
	2000 6000 2200 6000
$Comp
L c:C C36
U 1 1 56D40CEC
P 1500 6100
F 0 "C36" H 1550 6200 60  0000 L CNN
F 1 "100nF" H 1550 6000 60  0000 L CNN
F 2 "stdpass:0402" H 1650 5900 60  0001 C CNN
F 3 "" H 1500 6100 60  0000 C CNN
	1    1500 6100
	1    0    0    -1  
$EndComp
$Comp
L pwr:GND #PWR052
U 1 1 56D40DE2
P 1500 6800
F 0 "#PWR052" H 1500 6800 30  0001 C CNN
F 1 "GND" H 1500 6730 30  0001 C CNN
F 2 "" H 1500 6800 60  0000 C CNN
F 3 "" H 1500 6800 60  0000 C CNN
	1    1500 6800
	1    0    0    -1  
$EndComp
Wire Wire Line
	1500 5900 1500 5700
Connection ~ 1500 5700
Wire Wire Line
	1500 6300 1500 6800
Wire Wire Line
	3200 6100 3200 5850
Connection ~ 3200 5850
$Comp
L pwr:GND #PWR053
U 1 1 56D42B67
P 5100 6800
F 0 "#PWR053" H 5100 6800 30  0001 C CNN
F 1 "GND" H 5100 6730 30  0001 C CNN
F 2 "" H 5100 6800 60  0000 C CNN
F 3 "" H 5100 6800 60  0000 C CNN
	1    5100 6800
	1    0    0    -1  
$EndComp
Wire Wire Line
	5100 5650 5100 6800
$Comp
L tps6102x:TPS6102x U1
U 1 1 56FDE636
P 5700 2700
F 0 "U1" H 5950 3150 60  0000 R CNN
F 1 "TPS61025" H 5700 2050 60  0000 C CNN
F 2 "vson-powerpad:VSON-POWERPAD-10" H 5700 2700 60  0001 C CNN
F 3 "" H 5700 2700 60  0000 C CNN
	1    5700 2700
	-1   0    0    -1  
$EndComp
$Comp
L pwr:GND #PWR054
U 1 1 56FDEAC4
P 6400 3300
F 0 "#PWR054" H 6400 3300 30  0001 C CNN
F 1 "GND" H 6400 3230 30  0001 C CNN
F 2 "" H 6400 3300 60  0000 C CNN
F 3 "" H 6400 3300 60  0000 C CNN
	1    6400 3300
	1    0    0    -1  
$EndComp
$Comp
L r:R R5
U 1 1 56FDED36
P 7200 3050
F 0 "R5" H 7300 3100 60  0000 L CNN
F 1 "1M/1%" H 7300 3000 60  0000 L CNN
F 2 "stdpass:0402" H 7200 3050 60  0001 C CNN
F 3 "" H 7200 3050 60  0000 C CNN
F 4 "DNP" H 7300 2900 60  0000 L CNN "Field4"
	1    7200 3050
	1    0    0    -1  
$EndComp
$Comp
L r:R R6
U 1 1 56FDED94
P 7200 3950
F 0 "R6" H 7300 4000 60  0000 L CNN
F 1 "180k/1%" H 7300 3900 60  0000 L CNN
F 2 "stdpass:0402" H 7200 3950 60  0001 C CNN
F 3 "" H 7200 3950 60  0000 C CNN
F 4 "DNP" H 7300 3800 60  0000 L CNN "Field4"
	1    7200 3950
	1    0    0    -1  
$EndComp
$Comp
L pwr:GND #PWR055
U 1 1 56FDF1A6
P 7200 4400
F 0 "#PWR055" H 7200 4400 30  0001 C CNN
F 1 "GND" H 7200 4330 30  0001 C CNN
F 2 "" H 7200 4400 60  0000 C CNN
F 3 "" H 7200 4400 60  0000 C CNN
	1    7200 4400
	1    0    0    -1  
$EndComp
Wire Wire Line
	7200 3300 7200 3700
Wire Wire Line
	7200 4200 7200 4400
Connection ~ 7200 3500
$Comp
L c:C C9
U 1 1 56FDF51A
P 9600 3950
F 0 "C9" H 9650 4050 60  0000 L CNN
F 1 "22uF" H 9650 3850 60  0000 L CNN
F 2 "stdpass:0805P" H 9600 3950 60  0001 C CNN
F 3 "" H 9600 3950 60  0000 C CNN
F 4 "0805" H 9650 3750 60  0000 L CNN "Field4"
	1    9600 3950
	1    0    0    -1  
$EndComp
$Comp
L pwr:GND #PWR056
U 1 1 56FE173E
P 5000 3300
F 0 "#PWR056" H 5000 3300 30  0001 C CNN
F 1 "GND" H 5000 3230 30  0001 C CNN
F 2 "" H 5000 3300 60  0000 C CNN
F 3 "" H 5000 3300 60  0000 C CNN
	1    5000 3300
	1    0    0    -1  
$EndComp
Wire Wire Line
	5000 2400 5000 3300
Wire Wire Line
	5000 2400 5200 2400
Wire Wire Line
	5200 2700 5000 2700
Connection ~ 5000 2700
Wire Wire Line
	5200 2850 5000 2850
Connection ~ 5000 2850
NoConn ~ 6200 2850
Wire Wire Line
	6400 3000 6400 3300
Wire Wire Line
	6400 3150 6200 3150
Wire Wire Line
	6400 3000 6200 3000
Connection ~ 6400 3150
Wire Wire Line
	6700 2000 6700 5650
Wire Wire Line
	6200 2400 6700 2400
Connection ~ 6700 2400
Wire Wire Line
	7200 2550 7200 2800
Wire Wire Line
	6200 2700 6900 2700
Wire Wire Line
	6900 2700 6900 3500
Wire Wire Line
	6900 3500 7200 3500
Wire Wire Line
	3700 3000 5200 3000
Wire Wire Line
	3700 2000 3700 3750
Wire Wire Line
	3700 2550 3900 2550
Wire Wire Line
	4600 2550 5200 2550
$Comp
L r:R R16
U 1 1 56FE21F0
P 9600 3050
F 0 "R16" H 9700 3100 60  0000 L CNN
F 1 "330mR" H 9700 3000 60  0000 L CNN
F 2 "stdpass:0402" H 9600 3050 60  0001 C CNN
F 3 "" H 9600 3050 60  0000 C CNN
	1    9600 3050
	1    0    0    -1  
$EndComp
$Comp
L pwr:GND #PWR057
U 1 1 56FE22DC
P 9600 4400
F 0 "#PWR057" H 9600 4400 30  0001 C CNN
F 1 "GND" H 9600 4330 30  0001 C CNN
F 2 "" H 9600 4400 60  0000 C CNN
F 3 "" H 9600 4400 60  0000 C CNN
	1    9600 4400
	1    0    0    -1  
$EndComp
$Comp
L c:C C5
U 1 1 56FE2373
P 9100 3950
F 0 "C5" H 9150 4050 60  0000 L CNN
F 1 "2.2uF" H 9150 3850 60  0000 L CNN
F 2 "stdpass:0603" H 9100 3950 60  0001 C CNN
F 3 "" H 9100 3950 60  0000 C CNN
F 4 "0603" H 9150 3750 60  0000 L CNN "Field4"
	1    9100 3950
	1    0    0    -1  
$EndComp
$Comp
L pwr:GND #PWR058
U 1 1 56FE24A8
P 9100 4400
F 0 "#PWR058" H 9100 4400 30  0001 C CNN
F 1 "GND" H 9100 4330 30  0001 C CNN
F 2 "" H 9100 4400 60  0000 C CNN
F 3 "" H 9100 4400 60  0000 C CNN
	1    9100 4400
	1    0    0    -1  
$EndComp
Wire Wire Line
	9600 2550 9600 2800
Connection ~ 7200 2550
Wire Wire Line
	9600 3300 9600 3750
Wire Wire Line
	9100 2550 9100 3750
Connection ~ 9100 2550
Wire Wire Line
	9100 4150 9100 4400
Wire Wire Line
	9600 4150 9600 4400
$Comp
L r:R R4
U 1 1 56FE2809
P 5250 2000
F 0 "R4" V 5150 2000 60  0000 C CNN
F 1 "1M" V 5250 2000 60  0000 C CNN
F 2 "stdpass:0402" H 5250 2000 60  0001 C CNN
F 3 "" H 5250 2000 60  0000 C CNN
	1    5250 2000
	0    1    1    0   
$EndComp
Wire Wire Line
	5500 2000 6700 2000
Connection ~ 3700 2550
$Comp
L c:C C4
U 1 1 56FE2B0F
P 3700 3950
F 0 "C4" H 3750 4050 60  0000 L CNN
F 1 "10uF" H 3750 3850 60  0000 L CNN
F 2 "stdpass:0805" H 3700 3950 60  0001 C CNN
F 3 "" H 3700 3950 60  0000 C CNN
F 4 "0805" H 3750 3750 60  0000 L CNN "Field4"
	1    3700 3950
	1    0    0    -1  
$EndComp
$Comp
L pwr:GND #PWR059
U 1 1 56FE2BC0
P 3700 4400
F 0 "#PWR059" H 3700 4400 30  0001 C CNN
F 1 "GND" H 3700 4330 30  0001 C CNN
F 2 "" H 3700 4400 60  0000 C CNN
F 3 "" H 3700 4400 60  0000 C CNN
	1    3700 4400
	1    0    0    -1  
$EndComp
Connection ~ 3700 3000
Wire Wire Line
	3700 4150 3700 4400
Connection ~ 9600 2550
Text Label 4700 2550 0    60   ~ 0
SW
Text Label 5800 2000 0    60   ~ 0
BOOST_EN
Text Label 6350 2700 0    60   ~ 0
FB
Connection ~ 3700 2000
Wire Wire Line
	3400 1800 3400 2000
Connection ~ 3400 2000
Wire Wire Line
	4800 2000 4800 1700
Wire Wire Line
	4800 1700 5000 1700
Connection ~ 4800 2000
$Comp
L pwr:GND #PWR060
U 1 1 56FE42D8
P 6700 6250
F 0 "#PWR060" H 6700 6250 30  0001 C CNN
F 1 "GND" H 6700 6180 30  0001 C CNN
F 2 "" H 6700 6250 60  0000 C CNN
F 3 "" H 6700 6250 60  0000 C CNN
	1    6700 6250
	1    0    0    -1  
$EndComp
Wire Notes Line
	9350 4500 9350 4600
Wire Notes Line
	9350 4600 9850 4600
Wire Notes Line
	9850 4600 9850 4500
Text Notes 7550 6350 0    60   ~ 0
See file OPTIONS
Text Notes 9400 4750 0    60   ~ 0
See file
Text Notes 9400 4850 0    60   ~ 0
OPTIONS
Text Notes 6600 1400 0    60   ~ 0
Design for continuous output current of 120 mA.
Text Notes 6600 1500 0    60   ~ 0
L1 is slightly over-dimensioned for better ESR.
Text Notes 1100 2050 0    60   ~ 0
Keystone 5225
Text Notes 1100 3550 0    60   ~ 0
Keystone 5203
Wire Notes Line
	2300 2000 1850 2000
Wire Notes Line
	2300 3500 1850 3500
$Comp
L r:R R2
U 1 1 56FF0A51
P 4450 5850
F 0 "R2" V 4350 5850 60  0000 C CNN
F 1 "82k" V 4450 5850 60  0000 C CNN
F 2 "stdpass:0402" H 4450 5850 60  0001 C CNN
F 3 "" H 4450 5850 60  0000 C CNN
	1    4450 5850
	0    1    1    0   
$EndComp
$Comp
L dualbjt:DUALNPN Q1
U 1 1 5704FDCC
P 5900 5850
F 0 "Q1" H 5850 6200 60  0000 C CNN
F 1 "Dual BC846/847" H 5900 5500 60  0000 C CNN
F 2 "sot:SOT-363" H 5900 5850 60  0001 C CNN
F 3 "" H 5900 5850 60  0000 C CNN
	1    5900 5850
	1    0    0    -1  
$EndComp
Wire Wire Line
	6700 5650 6300 5650
Wire Wire Line
	6300 6050 6700 6050
Wire Wire Line
	6700 6050 6700 6250
Wire Wire Line
	3000 5850 4200 5850
Wire Wire Line
	4700 5850 5500 5850
Wire Wire Line
	6300 5850 6500 5850
Wire Wire Line
	6500 5850 6500 5300
Wire Wire Line
	6500 5300 4900 5300
Wire Wire Line
	4900 5300 4900 5850
Connection ~ 4900 5850
Wire Wire Line
	5500 6650 5300 6650
Wire Wire Line
	5300 6650 5300 6050
Wire Wire Line
	5300 6050 5500 6050
Wire Wire Line
	5500 5650 5100 5650
Wire Wire Line
	6200 2550 10100 2550
$Comp
L powered:POWERED #FLG061
U 1 1 5705A155
P 3900 1600
F 0 "#FLG061" H 4100 1500 60  0001 C CNN
F 1 "POWERED" H 3900 1650 60  0000 C CNN
F 2 "" H 3900 1600 60  0000 C CNN
F 3 "" H 3900 1600 60  0000 C CNN
	1    3900 1600
	1    0    0    -1  
$EndComp
Wire Wire Line
	3900 1800 3900 2000
Connection ~ 3900 2000
$Comp
L r:R R17
U 1 1 57D46632
P 7900 3950
F 0 "R17" H 8000 4000 60  0000 L CNN
F 1 "330k/1%" H 8000 3900 60  0000 L CNN
F 2 "stdpass:0402" H 7900 3950 60  0001 C CNN
F 3 "" H 7900 3950 60  0000 C CNN
F 4 "DNP" H 8000 3800 60  0000 L CNN "Field4"
	1    7900 3950
	1    0    0    -1  
$EndComp
Wire Wire Line
	7200 3600 7900 3600
Wire Wire Line
	7900 3600 7900 3700
Connection ~ 7200 3600
$Comp
L nmosfet-gsd:NMOSFET-GSD Q2
U 1 1 57D45083
P 8000 5100
F 0 "Q2" H 7850 5425 60  0000 C CNN
F 1 "DMG1012T" H 8750 4950 60  0000 R CNN
F 2 "sot:SOT-523" H 8000 5100 60  0001 C CNN
F 3 "" H 8000 5100 60  0001 C CNN
F 4 "DNP" H 8750 4850 60  0000 R CNN "Field4"
	1    8000 5100
	-1   0    0    -1  
$EndComp
$Comp
L pwr:GND #PWR062
U 1 1 57D4512A
P 7900 6000
F 0 "#PWR062" H 7900 6000 30  0001 C CNN
F 1 "GND" H 7900 5930 30  0001 C CNN
F 2 "" H 7900 6000 60  0000 C CNN
F 3 "" H 7900 6000 60  0000 C CNN
	1    7900 6000
	1    0    0    -1  
$EndComp
Wire Wire Line
	7900 4700 7900 4200
Wire Wire Line
	7900 6000 7900 5500
$Comp
L r:R R18
U 1 1 57D456DD
P 8500 5550
F 0 "R18" H 8600 5600 60  0000 L CNN
F 1 "1M" H 8600 5500 60  0000 L CNN
F 2 "stdpass:0402" H 8500 5550 60  0001 C CNN
F 3 "" H 8500 5550 60  0000 C CNN
F 4 "DNP" H 8600 5400 60  0000 L CNN "Field4"
	1    8500 5550
	1    0    0    -1  
$EndComp
$Comp
L pwr:GND #PWR063
U 1 1 57D4575A
P 8500 6000
F 0 "#PWR063" H 8500 6000 30  0001 C CNN
F 1 "GND" H 8500 5930 30  0001 C CNN
F 2 "" H 8500 6000 60  0000 C CNN
F 3 "" H 8500 6000 60  0000 C CNN
	1    8500 6000
	1    0    0    -1  
$EndComp
Wire Wire Line
	8300 5100 9300 5100
Wire Wire Line
	8500 5100 8500 5300
Wire Wire Line
	8500 5800 8500 6000
Wire Notes Line
	7000 2400 8900 2400
Wire Notes Line
	8900 2400 8900 6200
Wire Notes Line
	8900 6200 7000 6200
Wire Notes Line
	7000 6200 7000 2400
Text HLabel 9300 5100 2    60   Input ~ 0
VHIGH
Connection ~ 8500 5100
Text Label 5100 5300 0    60   ~ 0
USB_PRESENT_R
$EndSCHEMATC
