EESchema Schematic File Version 4
EELAYER 26 0
EELAYER END
$Descr A4 11693 8268
encoding utf-8
Sheet 10 10
Title "Anelok Password Safe"
Date "2016-02-05"
Rev ""
Comp "Werner Almesberger"
Comment1 ""
Comment2 ""
Comment3 ""
Comment4 ""
$EndDescr
$Comp
L nrf51822:nRF51822 U5
U 1 1 56B446E2
P 5200 4600
F 0 "U5" H 3750 6200 60  0000 L CNN
F 1 "nRF51822-QFAC" H 5200 4550 60  0000 C CNN
F 2 "qfn:QFN48-nRF51" H 6000 4450 60  0001 C CNN
F 3 "" H 6000 4450 60  0000 C CNN
	1    5200 4600
	1    0    0    -1  
$EndComp
Text Notes 950  1150 0    200  ~ 40
RF
$Comp
L led:LED D4
U 1 1 56B45CA9
P 9800 2700
F 0 "D4" H 9800 2800 60  0000 C CNN
F 1 "LTST-C190KRKT" H 9800 2550 60  0000 C CNN
F 2 "stdpass:0603P" H 9800 2700 60  0001 C CNN
F 3 "" H 9800 2700 60  0000 C CNN
	1    9800 2700
	0    -1   1    0   
$EndComp
$Comp
L r:R R9
U 1 1 56B45CB0
P 9800 2050
F 0 "R9" H 9930 2100 60  0000 C CNN
F 1 "270" H 9950 2000 60  0000 C CNN
F 2 "stdpass:0402" H 9800 2050 60  0001 C CNN
F 3 "" H 9800 2050 60  0000 C CNN
	1    9800 2050
	1    0    0    -1  
$EndComp
Wire Wire Line
	9800 2300 9800 2500
$Comp
L pwr:GND #PWR082
U 1 1 56B45CB8
P 9800 3100
F 0 "#PWR082" H 9800 3100 30  0001 C CNN
F 1 "GND" H 9800 3030 30  0001 C CNN
F 2 "" H 9800 3100 60  0000 C CNN
F 3 "" H 9800 3100 60  0000 C CNN
	1    9800 3100
	1    0    0    -1  
$EndComp
Wire Wire Line
	9800 2900 9800 3100
Wire Wire Line
	9200 1600 9800 1600
Wire Wire Line
	9800 1600 9800 1800
Text Notes 10200 2100 0    60   ~ 0
5 mA @ 3.3 V
Text Label 9300 1600 0    60   ~ 0
RF_LED
NoConn ~ 7050 5450
NoConn ~ 7050 5300
NoConn ~ 7050 5150
NoConn ~ 7050 5000
$Comp
L c:C C33
U 1 1 56B4635E
P 7350 5800
F 0 "C33" H 7400 5900 60  0000 L CNN
F 1 "100nF" H 7400 5700 60  0000 L CNN
F 2 "stdpass:0402" H 7350 5800 60  0001 C CNN
F 3 "" H 7350 5800 60  0000 C CNN
	1    7350 5800
	1    0    0    -1  
$EndComp
$Comp
L pwr:GND #PWR083
U 1 1 56B463FE
P 7350 6200
F 0 "#PWR083" H 7350 6200 30  0001 C CNN
F 1 "GND" H 7350 6130 30  0001 C CNN
F 2 "" H 7350 6200 60  0000 C CNN
F 3 "" H 7350 6200 60  0000 C CNN
	1    7350 6200
	1    0    0    -1  
$EndComp
Wire Wire Line
	7050 4850 7350 4850
Wire Wire Line
	7350 4850 7350 5600
Wire Wire Line
	7350 6000 7350 6200
$Comp
L c:C C32
U 1 1 56B46521
P 7700 3900
F 0 "C32" H 7750 4000 60  0000 L CNN
F 1 "2.2nF" H 7750 3800 60  0000 L CNN
F 2 "stdpass:0402" H 7700 3900 60  0001 C CNN
F 3 "" H 7700 3900 60  0000 C CNN
	1    7700 3900
	1    0    0    -1  
$EndComp
Wire Wire Line
	7200 3950 7050 3950
Wire Wire Line
	7200 3650 7200 3800
Connection ~ 7200 3800
$Comp
L pwr:GND #PWR084
U 1 1 56B466C2
P 7700 6200
F 0 "#PWR084" H 7700 6200 30  0001 C CNN
F 1 "GND" H 7700 6130 30  0001 C CNN
F 2 "" H 7700 6200 60  0000 C CNN
F 3 "" H 7700 6200 60  0000 C CNN
	1    7700 6200
	1    0    0    -1  
$EndComp
Wire Wire Line
	7050 4100 7200 4100
Wire Wire Line
	7200 4100 7200 4250
Connection ~ 7200 4250
$Comp
L 2450bm14e0003:2450BM14E0003 B1
U 1 1 56B4610B
P 8600 4550
F 0 "B1" H 8300 4950 60  0000 L CNN
F 1 "2450BM14E0003" H 8600 4150 60  0000 C CNN
F 2 "0805-6:0603-6" H 8600 4550 60  0001 C CNN
F 3 "" H 8600 4550 60  0000 C CNN
	1    8600 4550
	1    0    0    -1  
$EndComp
Wire Wire Line
	7050 4400 8100 4400
Wire Wire Line
	8100 4550 7050 4550
Wire Wire Line
	7050 4700 7900 4700
$Comp
L c:C C34
U 1 1 56B46386
P 7900 5800
F 0 "C34" H 7950 5900 60  0000 L CNN
F 1 "2.2nF" H 7950 5700 60  0000 L CNN
F 2 "stdpass:0402" H 7900 5800 60  0001 C CNN
F 3 "" H 7900 5800 60  0000 C CNN
	1    7900 5800
	1    0    0    -1  
$EndComp
$Comp
L pwr:GND #PWR085
U 1 1 56B46403
P 7900 6200
F 0 "#PWR085" H 7900 6200 30  0001 C CNN
F 1 "GND" H 7900 6130 30  0001 C CNN
F 2 "" H 7900 6200 60  0000 C CNN
F 3 "" H 7900 6200 60  0000 C CNN
	1    7900 6200
	1    0    0    -1  
$EndComp
Wire Wire Line
	7900 5600 7900 4700
Connection ~ 7900 4700
Wire Wire Line
	7900 6000 7900 6200
$Comp
L pwr:GND #PWR086
U 1 1 56B465D5
P 9200 5200
F 0 "#PWR086" H 9200 5200 30  0001 C CNN
F 1 "GND" H 9200 5130 30  0001 C CNN
F 2 "" H 9200 5200 60  0000 C CNN
F 3 "" H 9200 5200 60  0000 C CNN
	1    9200 5200
	1    0    0    -1  
$EndComp
Wire Wire Line
	9200 4550 9200 4700
Wire Wire Line
	9200 4550 9100 4550
Wire Wire Line
	9100 4700 9200 4700
Connection ~ 9200 4700
$Comp
L c:C C35
U 1 1 56B46859
P 9700 4800
F 0 "C35" H 9750 4900 60  0000 L CNN
F 1 "DNP" H 9750 4700 60  0000 L CNN
F 2 "stdpass:0402" H 9700 4800 60  0001 C CNN
F 3 "" H 9700 4800 60  0000 C CNN
	1    9700 4800
	1    0    0    -1  
$EndComp
$Comp
L r:R R10
U 1 1 56B4685F
P 10050 4400
F 0 "R10" V 10150 4400 60  0000 C CNN
F 1 "0" V 10050 4400 60  0000 C CNN
F 2 "stdpass:0402" H 10050 4400 60  0001 C CNN
F 3 "" H 10050 4400 60  0000 C CNN
	1    10050 4400
	0    -1   -1   0   
$EndComp
$Comp
L pwr:GND #PWR087
U 1 1 56B46865
P 9700 5200
F 0 "#PWR087" H 9700 5200 30  0001 C CNN
F 1 "GND" H 9700 5130 30  0001 C CNN
F 2 "" H 9700 5200 60  0000 C CNN
F 3 "" H 9700 5200 60  0000 C CNN
	1    9700 5200
	1    0    0    -1  
$EndComp
$Comp
L antenna:ANTENNA ANT1
U 1 1 56B4686B
P 10900 4450
F 0 "ANT1" H 10900 4700 60  0000 C CNN
F 1 "ANTENNA" H 10900 4200 60  0000 C CNN
F 2 "meander-2450MHz:MEANDER-2450MHz-right-0.8mm" H 10900 4450 60  0001 C CNN
F 3 "" H 10900 4450 60  0000 C CNN
	1    10900 4450
	-1   0    0    -1  
$EndComp
$Comp
L pwr:GND #PWR088
U 1 1 56B46871
P 10400 4700
F 0 "#PWR088" H 10400 4700 30  0001 C CNN
F 1 "GND" H 10400 4630 30  0001 C CNN
F 2 "" H 10400 4700 60  0000 C CNN
F 3 "" H 10400 4700 60  0000 C CNN
	1    10400 4700
	1    0    0    -1  
$EndComp
Text Label 9300 4400 0    60   ~ 0
ANT
Wire Wire Line
	9100 4400 9700 4400
Wire Wire Line
	9700 4600 9700 4400
Connection ~ 9700 4400
Wire Wire Line
	9700 5000 9700 5200
Wire Wire Line
	10300 4400 10600 4400
Wire Wire Line
	10400 4700 10400 4500
Wire Wire Line
	10400 4500 10600 4500
Text Notes 9500 5650 0    60   ~ 0
See file OPTIONS
$Comp
L pwr:GND #PWR089
U 1 1 56B47135
P 6400 6700
F 0 "#PWR089" H 6400 6700 30  0001 C CNN
F 1 "GND" H 6400 6630 30  0001 C CNN
F 2 "" H 6400 6700 60  0000 C CNN
F 3 "" H 6400 6700 60  0000 C CNN
	1    6400 6700
	1    0    0    -1  
$EndComp
$Comp
L c:C C26
U 1 1 56B471AC
P 3100 5800
F 0 "C26" H 3150 5900 60  0000 L CNN
F 1 "100nF" H 3150 5700 60  0000 L CNN
F 2 "stdpass:0402" H 3100 5800 60  0001 C CNN
F 3 "" H 3100 5800 60  0000 C CNN
	1    3100 5800
	1    0    0    -1  
$EndComp
$Comp
L c:C C25
U 1 1 56B4727F
P 2500 4150
F 0 "C25" H 2550 4250 60  0000 L CNN
F 1 "4.7uF" H 2550 4050 60  0000 L CNN
F 2 "stdpass:0603" H 2500 4150 60  0001 C CNN
F 3 "" H 2500 4150 60  0000 C CNN
F 4 "0603" H 2550 3950 60  0000 L CNN "Field4"
	1    2500 4150
	1    0    0    -1  
$EndComp
Wire Wire Line
	2500 3600 2500 3800
Wire Wire Line
	2500 3800 3400 3800
Wire Wire Line
	3100 4900 3100 5450
Wire Wire Line
	3100 5450 3400 5450
Wire Wire Line
	6400 6450 6400 6700
$Comp
L pwr:GND #PWR090
U 1 1 56B47517
P 3100 6200
F 0 "#PWR090" H 3100 6200 30  0001 C CNN
F 1 "GND" H 3100 6130 30  0001 C CNN
F 2 "" H 3100 6200 60  0000 C CNN
F 3 "" H 3100 6200 60  0000 C CNN
	1    3100 6200
	1    0    0    -1  
$EndComp
$Comp
L pwr:GND #PWR091
U 1 1 56B47576
P 2500 4550
F 0 "#PWR091" H 2500 4550 30  0001 C CNN
F 1 "GND" H 2500 4480 30  0001 C CNN
F 2 "" H 2500 4550 60  0000 C CNN
F 3 "" H 2500 4550 60  0000 C CNN
	1    2500 4550
	1    0    0    -1  
$EndComp
Wire Wire Line
	3100 6000 3100 6200
Wire Wire Line
	2500 4350 2500 4550
$Comp
L pwr:GND #PWR092
U 1 1 56B4770C
P 4400 6700
F 0 "#PWR092" H 4400 6700 30  0001 C CNN
F 1 "GND" H 4400 6630 30  0001 C CNN
F 2 "" H 4400 6700 60  0000 C CNN
F 3 "" H 4400 6700 60  0000 C CNN
	1    4400 6700
	1    0    0    -1  
$EndComp
Wire Wire Line
	4400 6450 4400 6700
$Comp
L xtal-4:XTAL-4 X4
U 1 1 56B47AFF
P 6900 1650
F 0 "X4" V 6800 2450 60  0000 R CNN
F 1 "16MHz" V 6900 2450 60  0000 R CNN
F 2 "xtal-4:xtal4-3.2mmx2.5mm" H 6900 1650 60  0001 C CNN
F 3 "" H 6900 1650 60  0000 C CNN
F 4 "8pF" V 7050 2450 60  0000 R CNN "Field4"
F 5 "40ppm" V 7150 2450 60  0000 R CNN "Field5"
F 6 "ESR<=100R" V 7250 2450 60  0000 R CNN "Field6"
	1    6900 1650
	0    -1   1    0   
$EndComp
$Comp
L c:C C31
U 1 1 56B47CA4
P 7400 2400
F 0 "C31" V 7350 2300 60  0000 R CNN
F 1 "12pF" V 7500 2500 60  0000 L CNN
F 2 "stdpass:0402" H 7400 2400 60  0001 C CNN
F 3 "" H 7400 2400 60  0000 C CNN
	1    7400 2400
	0    1    1    0   
$EndComp
Wire Notes Line
	9500 5400 9500 5500
Wire Notes Line
	9500 5500 10300 5500
Wire Notes Line
	10300 5500 10300 5400
NoConn ~ 4550 6450
NoConn ~ 4850 6450
NoConn ~ 5000 6450
NoConn ~ 5150 6450
NoConn ~ 5300 6450
NoConn ~ 5450 6450
NoConn ~ 5600 6450
NoConn ~ 5750 6450
$Comp
L pwr:GND #PWR093
U 1 1 56B493D4
P 7900 2600
F 0 "#PWR093" H 7900 2600 30  0001 C CNN
F 1 "GND" H 7900 2530 30  0001 C CNN
F 2 "" H 7900 2600 60  0000 C CNN
F 3 "" H 7900 2600 60  0000 C CNN
	1    7900 2600
	1    0    0    -1  
$EndComp
Wire Wire Line
	6900 1200 6900 1000
Wire Wire Line
	5900 1000 6900 1000
Wire Wire Line
	6050 2800 6050 2400
Wire Wire Line
	6050 2400 6900 2400
Wire Wire Line
	6900 2100 6900 2400
Connection ~ 6900 2400
Wire Wire Line
	5900 2800 5900 1000
Connection ~ 6900 1000
Wire Wire Line
	7900 1000 7900 1500
Wire Wire Line
	7900 1000 7500 1000
Wire Wire Line
	7600 2400 7900 2400
Connection ~ 7900 2400
Wire Wire Line
	7300 1500 7900 1500
Connection ~ 7900 1500
Wire Wire Line
	7300 1800 7900 1800
Connection ~ 7900 1800
NoConn ~ 5000 2800
NoConn ~ 5150 2800
NoConn ~ 5300 2800
NoConn ~ 5450 2800
NoConn ~ 5600 2800
NoConn ~ 4400 2800
NoConn ~ 4550 2800
$Comp
L c:C C30
U 1 1 56B4B91A
P 7300 1000
F 0 "C30" V 7250 900 60  0000 R CNN
F 1 "12pF" V 7400 1100 60  0000 L CNN
F 2 "stdpass:0402" H 7300 1000 60  0001 C CNN
F 3 "" H 7300 1000 60  0000 C CNN
	1    7300 1000
	0    1    1    0   
$EndComp
$Comp
L crystal:CRYSTAL X3
U 1 1 56B4C44B
P 4100 1550
F 0 "X3" V 3900 1700 60  0000 L CNN
F 1 "32.768kHz" V 4000 1700 60  0000 L CNN
F 2 "stdpass:xtal2-3.2mmx1.5mm" H 4100 1550 60  0001 C CNN
F 3 "" H 4100 1550 60  0000 C CNN
F 4 "9pF" V 4150 1700 60  0000 L CNN "Field4"
F 5 "250ppm" V 4250 1700 60  0000 L CNN "Field5"
F 6 "ESR<=80k" V 4350 1700 60  0000 L CNN "Field6"
	1    4100 1550
	0    1    1    0   
$EndComp
$Comp
L c:C C27
U 1 1 56B4C6B2
P 3700 1100
F 0 "C27" V 3650 1000 60  0000 R CNN
F 1 "12pF" V 3800 1200 60  0000 L CNN
F 2 "stdpass:0402" H 3700 1100 60  0001 C CNN
F 3 "" H 3700 1100 60  0000 C CNN
	1    3700 1100
	0    1    1    0   
$EndComp
$Comp
L c:C C28
U 1 1 56B4C75B
P 3700 2200
F 0 "C28" V 3650 2100 60  0000 R CNN
F 1 "12pF" V 3800 2300 60  0000 L CNN
F 2 "stdpass:0402" H 3700 2200 60  0001 C CNN
F 3 "" H 3700 2200 60  0000 C CNN
	1    3700 2200
	0    1    1    0   
$EndComp
Wire Wire Line
	4850 1100 4850 2800
Wire Wire Line
	3900 1100 4100 1100
Wire Wire Line
	4100 1250 4100 1100
Connection ~ 4100 1100
Wire Wire Line
	4100 1850 4100 2200
Connection ~ 4100 2200
Wire Wire Line
	3900 2200 4100 2200
Wire Wire Line
	4700 2200 4700 2800
$Comp
L pwr:GND #PWR094
U 1 1 56B4CCC5
P 3300 2400
F 0 "#PWR094" H 3300 2400 30  0001 C CNN
F 1 "GND" H 3300 2330 30  0001 C CNN
F 2 "" H 3300 2400 60  0000 C CNN
F 3 "" H 3300 2400 60  0000 C CNN
	1    3300 2400
	1    0    0    -1  
$EndComp
Wire Wire Line
	3300 1100 3300 2200
Wire Wire Line
	3300 1100 3500 1100
Wire Wire Line
	3500 2200 3300 2200
Connection ~ 3300 2200
$Comp
L inductor:INDUCTOR L3
U 1 1 56B4EA54
P 2050 3200
F 0 "L3" H 2050 3350 60  0000 C CNN
F 1 "10uH/20%" H 2050 3100 60  0000 C CNN
F 2 "stdpass:0603" H 2050 3200 60  0001 C CNN
F 3 "" H 2050 3200 60  0000 C CNN
F 4 "50mA" H 2050 3000 60  0000 C CNN "Field4"
	1    2050 3200
	1    0    0    -1  
$EndComp
$Comp
L inductor:INDUCTOR L2
U 1 1 56B4EB13
P 1250 3200
F 0 "L2" H 1250 3350 60  0000 C CNN
F 1 "15nH" H 1250 3100 60  0000 C CNN
F 2 "stdpass:0402" H 1250 3200 60  0001 C CNN
F 3 "" H 1250 3200 60  0000 C CNN
	1    1250 3200
	1    0    0    -1  
$EndComp
$Comp
L c:C C24
U 1 1 56B4ED01
P 800 3600
F 0 "C24" H 850 3700 60  0000 L CNN
F 1 "1uF" H 850 3500 60  0000 L CNN
F 2 "stdpass:0402" H 800 3600 60  0001 C CNN
F 3 "" H 800 3600 60  0000 C CNN
	1    800  3600
	1    0    0    -1  
$EndComp
$Comp
L pwr:GND #PWR095
U 1 1 56B4EDF1
P 800 4000
F 0 "#PWR095" H 800 4000 30  0001 C CNN
F 1 "GND" H 800 3930 30  0001 C CNN
F 2 "" H 800 4000 60  0000 C CNN
F 3 "" H 800 4000 60  0000 C CNN
	1    800  4000
	1    0    0    -1  
$EndComp
Wire Wire Line
	800  2950 800  3200
Wire Wire Line
	800  3200 900  3200
Wire Wire Line
	1600 3200 1700 3200
Wire Wire Line
	800  3800 800  4000
Wire Wire Line
	3400 3950 3200 3950
Wire Wire Line
	3200 3950 3200 3200
Wire Wire Line
	3200 3200 2400 3200
Text Notes 1200 3900 0    60   ~ 0
See file OPTIONS
Text HLabel 2800 5150 0    60   Output ~ 0
RF_CRRT
Text HLabel 2800 5300 0    60   Input ~ 0
RF_CTRR
Text HLabel 5900 6900 3    60   BiDi ~ 0
RF_SWDIO
Text HLabel 6050 6900 3    60   Input ~ 0
RF_SWDCLK
Wire Wire Line
	5900 6450 5900 6700
Wire Wire Line
	6050 6450 6050 6700
Wire Wire Line
	2800 5150 3400 5150
Wire Wire Line
	2800 5300 3400 5300
NoConn ~ 3400 5000
NoConn ~ 3400 4850
NoConn ~ 3400 4700
NoConn ~ 3400 4550
NoConn ~ 3400 4400
NoConn ~ 3400 4250
NoConn ~ 3400 4100
Text Notes 6100 2200 0    60   ~ 0
NX3225SA
Connection ~ 2500 3800
Wire Notes Line
	600  4700 2900 4700
Connection ~ 3100 5450
Text HLabel 7700 3400 1    60   Input ~ 0
VRF
Text HLabel 2500 3600 1    60   Input ~ 0
VRF
Text HLabel 3100 4900 1    60   Input ~ 0
VRF
Text HLabel 800  2950 1    60   Input ~ 0
VRF
Wire Notes Line
	600  4700 600  2600
Wire Notes Line
	600  2600 2900 2600
Wire Notes Line
	2900 2600 2900 4700
Connection ~ 800  3200
Wire Notes Line
	3100 2600 5000 2600
Text Notes 3650 750  0    60   ~ 0
See file OPTIONS
Wire Wire Line
	4700 7200 4700 6450
Text Label 4700 7100 1    60   ~ 0
RF_LED
Text Notes 4250 2000 0    60   ~ 0
CM315D
Text Notes 6950 6550 0    60   ~ 0
Reference design has 47nF for C33.
$Comp
L c:C C29
U 1 1 56B66C9D
P 5300 2100
F 0 "C29" H 5350 2200 60  0000 L CNN
F 1 "100nF" H 5350 2000 60  0000 L CNN
F 2 "stdpass:0402" H 5300 2100 60  0001 C CNN
F 3 "" H 5300 2100 60  0000 C CNN
	1    5300 2100
	1    0    0    -1  
$EndComp
$Comp
L pwr:GND #PWR096
U 1 1 56B66D95
P 5300 2500
F 0 "#PWR096" H 5300 2500 30  0001 C CNN
F 1 "GND" H 5300 2430 30  0001 C CNN
F 2 "" H 5300 2500 60  0000 C CNN
F 3 "" H 5300 2500 60  0000 C CNN
	1    5300 2500
	1    0    0    -1  
$EndComp
Wire Wire Line
	5750 2800 5750 1700
Wire Wire Line
	5750 1700 5300 1700
Wire Wire Line
	5300 1700 5300 1900
Wire Wire Line
	5300 2300 5300 2500
Text Notes 8100 3850 0    60   ~ 0
Reference design has 1nF for C32.
Wire Wire Line
	7050 4250 7200 4250
Wire Wire Line
	7700 4100 7700 4250
Connection ~ 7700 4250
Wire Wire Line
	7200 3800 7050 3800
Wire Wire Line
	7700 3400 7700 3650
Wire Wire Line
	7200 3650 7700 3650
Connection ~ 7700 3650
Text Label 6200 1000 0    60   ~ 0
XC2
Text Label 6200 2400 0    60   ~ 0
XC1
Wire Notes Line
	3100 800  5000 800 
Wire Notes Line
	5000 800  5000 2600
Wire Notes Line
	3100 800  3100 2600
Text Label 4400 2200 0    60   ~ 0
XL1
Text Label 4400 1100 0    60   ~ 0
XL2
Text Label 2500 3200 0    60   ~ 0
DCC
Text Label 7200 4400 0    60   ~ 0
ANT1
Text Label 7200 4550 0    60   ~ 0
ANT2
Text Label 7100 4850 0    60   ~ 0
DEC2
Text Label 7200 4700 0    60   ~ 0
VDD_PA
Text Label 5400 1700 0    60   ~ 0
DEC1
$Comp
L testpoint:TESTPOINT TP1
U 1 1 58B5AEB4
P 5700 6900
F 0 "TP1" H 5850 7050 60  0000 C CNN
F 1 "TESTPOINT" H 5700 6850 60  0001 C CNN
F 2 "pads:PAD_C_80x80" H 5700 6900 60  0001 C CNN
F 3 "" H 5700 6900 60  0000 C CNN
	1    5700 6900
	-1   0    0    1   
$EndComp
Text Notes 5750 7150 3    60   ~ 0
RF_SWDIO
$Comp
L testpoint:TESTPOINT TP5
U 1 1 58B5B061
P 6250 6900
F 0 "TP5" H 6100 7050 60  0000 C CNN
F 1 "TESTPOINT" H 6250 6850 60  0001 C CNN
F 2 "pads:PAD_C_80x80" H 6250 6900 60  0001 C CNN
F 3 "" H 6250 6900 60  0000 C CNN
	1    6250 6900
	-1   0    0    1   
$EndComp
Wire Wire Line
	5700 6900 5700 6700
Wire Wire Line
	5700 6700 5900 6700
Connection ~ 5900 6700
Wire Wire Line
	6250 6900 6250 6700
Wire Wire Line
	6250 6700 6050 6700
Connection ~ 6050 6700
Text Notes 6300 7150 3    60   ~ 0
RF_SWDCLK
Wire Wire Line
	7200 3800 7200 3950
Wire Wire Line
	7200 4250 7700 4250
Wire Wire Line
	7900 4700 8100 4700
Wire Wire Line
	9200 4700 9200 5200
Wire Wire Line
	9700 4400 9800 4400
Wire Wire Line
	6900 2400 7200 2400
Wire Wire Line
	6900 1000 7100 1000
Wire Wire Line
	7900 2400 7900 2600
Wire Wire Line
	7900 1500 7900 1800
Wire Wire Line
	7900 1800 7900 2400
Wire Wire Line
	4100 1100 4850 1100
Wire Wire Line
	4100 2200 4700 2200
Wire Wire Line
	3300 2200 3300 2400
Wire Wire Line
	2500 3800 2500 3950
Wire Wire Line
	3100 5450 3100 5600
Wire Wire Line
	800  3200 800  3400
Wire Wire Line
	7700 4250 7700 6200
Wire Wire Line
	7700 3650 7700 3700
Wire Wire Line
	5900 6700 5900 6900
Wire Wire Line
	6050 6700 6050 6900
$EndSCHEMATC
