EESchema Schematic File Version 4
EELAYER 26 0
EELAYER END
$Descr A4 11693 8268
encoding utf-8
Sheet 8 10
Title "Anelok Password Safe"
Date "2016-02-05"
Rev ""
Comp "Werner Almesberger"
Comment1 ""
Comment2 ""
Comment3 ""
Comment4 ""
$EndDescr
$Comp
L c:C C22
U 1 1 5566D589
P 3800 4500
F 0 "C22" H 3850 4600 60  0000 L CNN
F 1 "100nF" H 3850 4400 60  0000 L CNN
F 2 "stdpass:0402" H 3800 4500 60  0001 C CNN
F 3 "" H 3800 4500 60  0000 C CNN
	1    3800 4500
	1    0    0    -1  
$EndComp
$Comp
L c:C C23
U 1 1 5566D59E
P 7200 6100
F 0 "C23" H 7250 6200 60  0000 L CNN
F 1 "1uF" H 7250 6000 60  0000 L CNN
F 2 "stdpass:0402" H 7200 6100 60  0001 C CNN
F 3 "" H 7200 6100 60  0000 C CNN
	1    7200 6100
	1    0    0    -1  
$EndComp
$Comp
L pwr:GND #PWR064
U 1 1 5566D5AA
P 3800 4900
F 0 "#PWR064" H 3800 4900 30  0001 C CNN
F 1 "GND" H 3800 4830 30  0001 C CNN
F 2 "" H 3800 4900 60  0000 C CNN
F 3 "" H 3800 4900 60  0000 C CNN
	1    3800 4900
	1    0    0    -1  
$EndComp
$Comp
L pwr:GND #PWR065
U 1 1 5566D5B0
P 7200 6500
F 0 "#PWR065" H 7200 6500 30  0001 C CNN
F 1 "GND" H 7200 6430 30  0001 C CNN
F 2 "" H 7200 6500 60  0000 C CNN
F 3 "" H 7200 6500 60  0000 C CNN
	1    7200 6500
	1    0    0    -1  
$EndComp
$Comp
L pwr:GND #PWR066
U 1 1 5566D5B6
P 6450 5400
F 0 "#PWR066" H 6450 5400 30  0001 C CNN
F 1 "GND" H 6450 5330 30  0001 C CNN
F 2 "" H 6450 5400 60  0000 C CNN
F 3 "" H 6450 5400 60  0000 C CNN
	1    6450 5400
	1    0    0    -1  
$EndComp
$Comp
L testpoint:TESTPOINT TP10
U 1 1 5566D5F2
P 8500 3850
F 0 "TP10" V 8400 3950 60  0000 C CNN
F 1 "TESTPOINT" H 8500 3800 60  0001 C CNN
F 2 "pads:PAD_C_80x80" H 8500 3850 60  0001 C CNN
F 3 "" H 8500 3850 60  0000 C CNN
	1    8500 3850
	0    1    1    0   
$EndComp
Text Notes 8700 3900 0    60   ~ 0
SMCU_nRESET
$Comp
L pwr:GND #PWR067
U 1 1 5566D616
P 6750 5400
F 0 "#PWR067" H 6750 5400 30  0001 C CNN
F 1 "GND" H 6750 5330 30  0001 C CNN
F 2 "" H 6750 5400 60  0000 C CNN
F 3 "" H 6750 5400 60  0000 C CNN
	1    6750 5400
	1    0    0    -1  
$EndComp
Text Label 5550 5850 1    60   ~ 0
SWD_CLK
Text Label 6000 5850 1    60   ~ 0
SWD_DIO
Text Label 7700 3850 0    60   ~ 0
SCMU_nRESET
$Comp
L crystal:CRYSTAL X2
U 1 1 5566D62F
P 8500 4600
F 0 "X2" H 8500 4750 60  0000 C CNN
F 1 "32.768kHz" H 8500 4450 60  0000 C CNN
F 2 "stdpass:xtal2-3.2mmx1.5mm" H 8500 4600 60  0001 C CNN
F 3 "" H 8500 4600 60  0000 C CNN
F 4 "<=16pF" H 8500 4350 60  0000 C CNN "Field4"
	1    8500 4600
	1    0    0    -1  
$EndComp
Text Notes 8150 5050 0    60   ~ 0
CM315D or similar
Wire Wire Line
	6750 5150 6750 5400
Wire Wire Line
	7450 3850 8500 3850
Wire Wire Line
	6000 5150 6000 6000
Wire Wire Line
	5550 5150 5550 6000
Wire Wire Line
	6450 5150 6450 5400
Wire Wire Line
	7200 6300 7200 6500
Wire Wire Line
	3800 4700 3800 4900
$Comp
L kl16-32:KL16-32 U4
U 1 1 5566DEA7
P 5900 3600
F 0 "U4" H 4750 4850 60  0000 C CNN
F 1 "MKL16Z128VFM4" H 5900 3600 60  0000 C CNN
F 2 "qfn:QFN32-Freescale" H 6700 3450 60  0001 C CNN
F 3 "~" H 6700 3450 60  0000 C CNN
	1    5900 3600
	1    0    0    -1  
$EndComp
Text Notes 1500 1250 0    200  ~ 40
Secure MCU
Text HLabel 5400 1900 1    60   Input ~ 0
CARD_SW
Text HLabel 5850 1900 1    60   Output ~ 0
DISP_DnC
Text HLabel 5700 1900 1    60   Output ~ 0
DISP_nRES
Text HLabel 5550 1900 1    60   Output ~ 0
DISP_nCS
Text HLabel 7700 3550 2    60   Output ~ 0
DISP_ON
Text HLabel 7700 3100 2    60   Output ~ 0
CARD_ON
Text HLabel 3500 3250 0    60   3State ~ 0
CARD_DAT0
Text HLabel 3500 3700 0    60   3State ~ 0
CARD_DAT1
Text HLabel 7700 3700 2    60   Output ~ 0
LED
Text HLabel 6300 1900 1    60   Output ~ 0
DISP_SCLK
Text HLabel 6150 1900 1    60   Output ~ 0
DISP_SDIN
Text HLabel 3500 3850 0    60   3State ~ 0
CARD_DAT2
Text HLabel 3500 3550 0    60   3State ~ 0
CARD_DAT3
Text HLabel 3500 3400 0    60   3State ~ 0
CARD_CMD
Text HLabel 3500 3100 0    60   Output ~ 0
CARD_CLK
Text HLabel 6150 5400 3    60   Input ~ 0
CAP_A
Text HLabel 7700 3400 2    60   Input ~ 0
CAP_B
Text HLabel 5700 6000 3    60   Input ~ 0
MCU_SRCT
Text HLabel 5850 6000 3    60   Output ~ 0
MCU_STCR
Text HLabel 6450 1900 1    60   Output ~ 0
CMCU_nRESET
Text HLabel 5550 6000 3    60   BiDi ~ 0
SWD_CLK
Text HLabel 6000 6000 3    60   BiDi ~ 0
SWD_DIO
Wire Wire Line
	3500 3100 4400 3100
Wire Wire Line
	4400 3250 3500 3250
Wire Wire Line
	3500 3400 4400 3400
Wire Wire Line
	4400 3550 3500 3550
Wire Wire Line
	3500 3700 4400 3700
Wire Wire Line
	4400 3850 3500 3850
Wire Wire Line
	8200 4600 8000 4600
Wire Wire Line
	8000 4600 8000 4150
Wire Wire Line
	8000 4150 7450 4150
Wire Wire Line
	7450 4000 9000 4000
Wire Wire Line
	9000 4000 9000 4600
Wire Wire Line
	9000 4600 8800 4600
Wire Wire Line
	5400 1900 5400 2100
Wire Wire Line
	5550 1900 5550 2100
Wire Wire Line
	5700 1900 5700 2100
Wire Wire Line
	5850 1900 5850 2100
Wire Wire Line
	6150 1900 6150 2100
Wire Wire Line
	6300 1900 6300 2100
Wire Wire Line
	6450 1900 6450 2100
Wire Wire Line
	7450 3100 7700 3100
Wire Wire Line
	7450 3250 7700 3250
Wire Wire Line
	7450 3550 7700 3550
Wire Wire Line
	7700 3400 7450 3400
Wire Wire Line
	5700 5150 5700 6000
Wire Wire Line
	5850 5150 5850 6000
Wire Wire Line
	7200 5500 7200 5900
Wire Wire Line
	6300 5150 6300 5700
Wire Wire Line
	6300 5700 7200 5700
Connection ~ 7200 5700
$Comp
L pwr:GND #PWR068
U 1 1 5568D579
P 4200 4900
F 0 "#PWR068" H 4200 4900 30  0001 C CNN
F 1 "GND" H 4200 4830 30  0001 C CNN
F 2 "" H 4200 4900 60  0000 C CNN
F 3 "" H 4200 4900 60  0000 C CNN
	1    4200 4900
	1    0    0    -1  
$EndComp
Wire Wire Line
	3800 2800 3800 4300
Wire Wire Line
	4400 4000 3800 4000
Connection ~ 3800 4000
Wire Wire Line
	4200 4900 4200 4150
Wire Wire Line
	4200 4150 4400 4150
Wire Wire Line
	7450 3700 7700 3700
Text HLabel 7700 3250 2    60   Input ~ 0
CAP_C
Wire Wire Line
	6150 5150 6150 5400
$Comp
L pwr:3V3 #PWR069
U 1 1 56FDEAC1
P 7200 5500
F 0 "#PWR069" H 7200 5460 30  0001 C CNN
F 1 "3V3" H 7200 5650 60  0000 C CNN
F 2 "" H 7200 5500 60  0000 C CNN
F 3 "" H 7200 5500 60  0000 C CNN
	1    7200 5500
	1    0    0    -1  
$EndComp
$Comp
L pwr:3V3 #PWR070
U 1 1 56FDEB79
P 3800 2800
F 0 "#PWR070" H 3800 2760 30  0001 C CNN
F 1 "3V3" H 3800 2950 60  0000 C CNN
F 2 "" H 3800 2800 60  0000 C CNN
F 3 "" H 3800 2800 60  0000 C CNN
	1    3800 2800
	1    0    0    -1  
$EndComp
$Comp
L r:R R1
U 1 1 56FE04F8
P 3100 6150
F 0 "R1" H 3230 6200 60  0000 C CNN
F 1 "3.3M" H 3250 6100 60  0000 C CNN
F 2 "stdpass:0402" H 3100 6150 60  0001 C CNN
F 3 "" H 3100 6150 60  0000 C CNN
	1    3100 6150
	1    0    0    -1  
$EndComp
$Comp
L c:C C7
U 1 1 56FE0580
P 3100 6800
F 0 "C7" H 3150 6900 60  0000 L CNN
F 1 "10uF" H 3150 6700 60  0000 L CNN
F 2 "stdpass:0805" H 3100 6800 60  0001 C CNN
F 3 "" H 3100 6800 60  0000 C CNN
F 4 "0805" H 3150 6600 60  0000 L CNN "Field4"
	1    3100 6800
	1    0    0    -1  
$EndComp
$Comp
L diode:DIODE D5
U 1 1 56FE05C6
P 3100 5300
F 0 "D5" V 3150 5200 60  0000 R CNN
F 1 "DA2S10400L" V 3050 5200 60  0000 R CNN
F 2 "sod:SOD-523" H 3100 5300 60  0001 C CNN
F 3 "" H 3100 5300 60  0000 C CNN
	1    3100 5300
	0    -1   -1   0   
$EndComp
$Comp
L pwr:3V3 #PWR071
U 1 1 56FE0667
P 3100 4900
F 0 "#PWR071" H 3100 4860 30  0001 C CNN
F 1 "3V3" H 3100 5050 60  0000 C CNN
F 2 "" H 3100 4900 60  0000 C CNN
F 3 "" H 3100 4900 60  0000 C CNN
	1    3100 4900
	1    0    0    -1  
$EndComp
Wire Wire Line
	3100 4900 3100 5100
Wire Wire Line
	3100 5500 3100 5900
Wire Wire Line
	3100 6400 3100 6600
$Comp
L pwr:GND #PWR072
U 1 1 56FE072F
P 3100 7200
F 0 "#PWR072" H 3100 7200 30  0001 C CNN
F 1 "GND" H 3100 7130 30  0001 C CNN
F 2 "" H 3100 7200 60  0000 C CNN
F 3 "" H 3100 7200 60  0000 C CNN
	1    3100 7200
	1    0    0    -1  
$EndComp
Wire Wire Line
	3100 7000 3100 7200
Wire Wire Line
	5400 5700 5400 5150
Wire Wire Line
	3100 5700 5400 5700
Connection ~ 3100 5700
$Comp
L c:C C8
U 1 1 56FE08C8
P 4900 6100
F 0 "C8" H 4950 6200 60  0000 L CNN
F 1 "100pF" H 4950 6000 60  0000 L CNN
F 2 "stdpass:0402" H 4900 6100 60  0001 C CNN
F 3 "" H 4900 6100 60  0000 C CNN
	1    4900 6100
	1    0    0    -1  
$EndComp
$Comp
L pwr:GND #PWR073
U 1 1 56FE096D
P 4900 6500
F 0 "#PWR073" H 4900 6500 30  0001 C CNN
F 1 "GND" H 4900 6430 30  0001 C CNN
F 2 "" H 4900 6500 60  0000 C CNN
F 3 "" H 4900 6500 60  0000 C CNN
	1    4900 6500
	1    0    0    -1  
$EndComp
Wire Wire Line
	4900 5900 4900 5700
Connection ~ 4900 5700
Wire Wire Line
	4900 6300 4900 6500
Wire Notes Line
	4700 6350 4600 6350
Wire Notes Line
	4600 6350 4600 5850
Wire Notes Line
	4600 5850 4700 5850
Text Notes 4500 6150 2    60   ~ 0
See file OPTIONS
Text Label 7550 4000 0    60   ~ 0
SXTALO
Text Label 7550 4150 0    60   ~ 0
SXTALI
Text Label 4000 5700 0    60   ~ 0
TIME
Text HLabel 6000 1900 1    60   Output ~ 0
VHIGH
Wire Wire Line
	6000 1900 6000 2100
$EndSCHEMATC
