EESchema Schematic File Version 4
EELAYER 26 0
EELAYER END
$Descr A4 11693 8268
encoding utf-8
Sheet 5 10
Title "Anelok Password Safe"
Date "2016-02-05"
Rev ""
Comp "Werner Almesberger"
Comment1 ""
Comment2 ""
Comment3 ""
Comment4 ""
$EndDescr
$Comp
L micro_usb_b:ZX62-B-5PA CON4
U 1 1 55680277
P 7300 4300
F 0 "CON4" H 7300 4800 60  0000 C CNN
F 1 "ZX62-B-5PA" H 7300 3800 60  0000 C CNN
F 2 "zx62-b-5pa:ZX62-B-5PA" H 7300 4300 60  0001 C CNN
F 3 "" H 7300 4300 60  0000 C CNN
	1    7300 4300
	1    0    0    -1  
$EndComp
$Comp
L pwr:GND #PWR025
U 1 1 5568027D
P 8050 4800
F 0 "#PWR025" H 8050 4800 30  0001 C CNN
F 1 "GND" H 8050 4730 30  0001 C CNN
F 2 "" H 8050 4800 60  0000 C CNN
F 3 "" H 8050 4800 60  0000 C CNN
	1    8050 4800
	1    0    0    -1  
$EndComp
$Comp
L pwr:GND #PWR026
U 1 1 55680283
P 6500 4800
F 0 "#PWR026" H 6500 4800 30  0001 C CNN
F 1 "GND" H 6500 4730 30  0001 C CNN
F 2 "" H 6500 4800 60  0000 C CNN
F 3 "" H 6500 4800 60  0000 C CNN
	1    6500 4800
	1    0    0    -1  
$EndComp
$Comp
L varistor:VARISTOR V7
U 1 1 5568028D
P 6150 5150
F 0 "V7" V 6050 5150 60  0000 C CNN
F 1 "EZJP0V080GA" V 6250 5150 60  0000 C CNN
F 2 "stdpass:0402" H 6150 5150 60  0001 C CNN
F 3 "" H 6150 5150 60  0000 C CNN
	1    6150 5150
	1    0    0    -1  
$EndComp
$Comp
L varistor:VARISTOR V6
U 1 1 55680293
P 5750 5150
F 0 "V6" V 5650 5150 60  0000 C CNN
F 1 "EZJP0V080GA" V 5850 5150 60  0000 C CNN
F 2 "stdpass:0402" H 5750 5150 60  0001 C CNN
F 3 "" H 5750 5150 60  0000 C CNN
	1    5750 5150
	1    0    0    -1  
$EndComp
$Comp
L varistor:VARISTOR V5
U 1 1 55680299
P 5350 5150
F 0 "V5" V 5250 5150 60  0000 C CNN
F 1 "EZJP0V080GA" V 5450 5150 60  0000 C CNN
F 2 "stdpass:0402" H 5350 5150 60  0001 C CNN
F 3 "" H 5350 5150 60  0000 C CNN
	1    5350 5150
	1    0    0    -1  
$EndComp
$Comp
L varistor:VARISTOR V4
U 1 1 5568029F
P 4950 5150
F 0 "V4" V 4850 5150 60  0000 C CNN
F 1 "EZJP0V080GA" V 5050 5150 60  0000 C CNN
F 2 "stdpass:0402" H 4950 5150 60  0001 C CNN
F 3 "" H 4950 5150 60  0000 C CNN
	1    4950 5150
	1    0    0    -1  
$EndComp
$Comp
L pwr:GND #PWR027
U 1 1 556802A5
P 6150 5500
F 0 "#PWR027" H 6150 5500 30  0001 C CNN
F 1 "GND" H 6150 5430 30  0001 C CNN
F 2 "" H 6150 5500 60  0000 C CNN
F 3 "" H 6150 5500 60  0000 C CNN
	1    6150 5500
	1    0    0    -1  
$EndComp
$Comp
L pwr:GND #PWR028
U 1 1 556802AB
P 5750 5500
F 0 "#PWR028" H 5750 5500 30  0001 C CNN
F 1 "GND" H 5750 5430 30  0001 C CNN
F 2 "" H 5750 5500 60  0000 C CNN
F 3 "" H 5750 5500 60  0000 C CNN
	1    5750 5500
	1    0    0    -1  
$EndComp
$Comp
L pwr:GND #PWR029
U 1 1 556802B1
P 5350 5500
F 0 "#PWR029" H 5350 5500 30  0001 C CNN
F 1 "GND" H 5350 5430 30  0001 C CNN
F 2 "" H 5350 5500 60  0000 C CNN
F 3 "" H 5350 5500 60  0000 C CNN
	1    5350 5500
	1    0    0    -1  
$EndComp
$Comp
L pwr:GND #PWR030
U 1 1 556802B7
P 4950 5500
F 0 "#PWR030" H 4950 5500 30  0001 C CNN
F 1 "GND" H 4950 5430 30  0001 C CNN
F 2 "" H 4950 5500 60  0000 C CNN
F 3 "" H 4950 5500 60  0000 C CNN
	1    4950 5500
	1    0    0    -1  
$EndComp
$Comp
L powered:POWERED #FLG031
U 1 1 556802BD
P 3700 3550
F 0 "#FLG031" H 3900 3450 60  0001 C CNN
F 1 "POWERED" H 3700 3600 60  0000 C CNN
F 2 "" H 3700 3550 60  0000 C CNN
F 3 "" H 3700 3550 60  0000 C CNN
	1    3700 3550
	1    0    0    -1  
$EndComp
Wire Wire Line
	7850 4000 8050 4000
Wire Wire Line
	8050 4000 8050 4800
Wire Wire Line
	7850 4100 8050 4100
Connection ~ 8050 4100
Wire Wire Line
	7850 4250 8050 4250
Connection ~ 8050 4250
Wire Wire Line
	7850 4350 8050 4350
Connection ~ 8050 4350
Wire Wire Line
	7850 4500 8050 4500
Connection ~ 8050 4500
Wire Wire Line
	7850 4600 8050 4600
Connection ~ 8050 4600
Wire Wire Line
	6500 4800 6500 4600
Wire Wire Line
	6500 4600 6700 4600
Wire Wire Line
	3400 4300 6700 4300
Wire Wire Line
	3400 4000 4050 4000
Wire Wire Line
	4950 4000 4950 5000
Connection ~ 4950 4000
Wire Wire Line
	5350 5000 5350 4150
Connection ~ 5350 4150
Wire Wire Line
	5750 5000 5750 4300
Connection ~ 5750 4300
Wire Wire Line
	6150 5000 6150 4450
Connection ~ 6150 4450
Wire Wire Line
	4950 5300 4950 5500
Wire Wire Line
	5350 5300 5350 5500
Wire Wire Line
	5750 5300 5750 5500
Wire Wire Line
	6150 5300 6150 5500
Wire Wire Line
	3700 3750 3700 4000
Connection ~ 3700 4000
Wire Wire Line
	3400 4450 6700 4450
Wire Wire Line
	3400 4150 6700 4150
$Comp
L diode:DIODE D3
U 1 1 556802E4
P 4250 4000
F 0 "D3" H 4250 4100 60  0000 C CNN
F 1 "RR264M-400" H 4250 3900 60  0000 C CNN
F 2 "sod:SOD-123" H 4250 4000 60  0001 C CNN
F 3 "" H 4250 4000 60  0000 C CNN
F 4 "If>=400mA" H 4250 4200 60  0000 C CNN "Field4"
	1    4250 4000
	-1   0    0    -1  
$EndComp
Wire Wire Line
	5850 4000 5850 3800
Connection ~ 5850 4000
$Comp
L testpoint:TESTPOINT TP11
U 1 1 556802ED
P 5850 3800
F 0 "TP11" H 5850 4050 60  0000 C CNN
F 1 "TESTPOINT" H 5850 3750 60  0001 C CNN
F 2 "pads:PAD_C_80x80" H 5850 3800 60  0001 C CNN
F 3 "" H 5850 3800 60  0000 C CNN
	1    5850 3800
	1    0    0    -1  
$EndComp
Wire Wire Line
	4450 4000 6700 4000
Connection ~ 4750 4000
Text HLabel 3400 4000 0    60   Output ~ 0
USB_VBUS
Text HLabel 3400 4150 0    60   3State ~ 0
USB_DM
Text HLabel 3400 4300 0    60   3State ~ 0
USB_DP
Text HLabel 3400 4450 0    60   Output ~ 0
USB_ID
Text HLabel 3400 2600 0    60   Output ~ 0
VBUS_RAW
Wire Wire Line
	3400 2600 4750 2600
Wire Wire Line
	4750 2600 4750 4000
Text Notes 1100 1250 0    200  ~ 40
USB
$Comp
L powered:POWERED #FLG032
U 1 1 56D40D8A
P 3700 2200
F 0 "#FLG032" H 3900 2100 60  0001 C CNN
F 1 "POWERED" H 3700 2250 60  0000 C CNN
F 2 "" H 3700 2200 60  0000 C CNN
F 3 "" H 3700 2200 60  0000 C CNN
	1    3700 2200
	1    0    0    -1  
$EndComp
Wire Wire Line
	3700 2400 3700 2600
Connection ~ 3700 2600
$EndSCHEMATC
