EESchema Schematic File Version 2
LIBS:pwr
LIBS:r
LIBS:c
LIBS:led
LIBS:powered
LIBS:kl25-32
LIBS:gencon
LIBS:varistor
LIBS:pmosfet-gsd
LIBS:nmosfet-gsd
LIBS:testpoint
LIBS:inductor
LIBS:xtal-4
LIBS:micro_usb_b
LIBS:fix-cache
EELAYER 26 0
EELAYER END
$Descr A4 11693 8268
encoding utf-8
Sheet 4 4
Title ""
Date "17 may 2015"
Rev ""
Comp ""
Comment1 ""
Comment2 ""
Comment3 ""
Comment4 ""
$EndDescr
$Comp
L CONN_5 CON18
U 1 1 5550AEBF
P 9000 1100
F 0 "CON18" H 9000 1400 60  0000 C CNN
F 1 "5x100mil,  90deg" H 9000 800 60  0000 C CNN
F 2 "header:HDR-5x1-100mil" H 9000 1100 60  0001 C CNN
F 3 "" H 9000 1100 60  0000 C CNN
	1    9000 1100
	1    0    0    -1  
$EndComp
$Comp
L CONN_1 CON7
U 1 1 5550AECE
P 1300 7200
F 0 "CON7" H 1300 7300 60  0000 C CNN
F 1 "0906-3" H 1300 7100 60  0000 C CNN
F 2 "pogo:POGO-0906" H 1300 7200 60  0001 C CNN
F 3 "" H 1300 7200 60  0000 C CNN
	1    1300 7200
	0    -1   1    0   
$EndComp
$Comp
L CONN_1 CON9
U 1 1 5550AEE1
P 1700 7200
F 0 "CON9" H 1700 7300 60  0000 C CNN
F 1 "0906-3" H 1700 7100 60  0000 C CNN
F 2 "pogo:POGO-0906" H 1700 7200 60  0001 C CNN
F 3 "" H 1700 7200 60  0000 C CNN
	1    1700 7200
	0    -1   1    0   
$EndComp
$Comp
L CONN_1 CON5
U 1 1 5550AEED
P 900 1500
F 0 "CON5" H 900 1600 60  0000 C CNN
F 1 "0906-3" H 900 1400 60  0000 C CNN
F 2 "pogo:POGO-0906" H 900 1500 60  0001 C CNN
F 3 "" H 900 1500 60  0000 C CNN
	1    900  1500
	0    -1   -1   0   
$EndComp
$Comp
L CONN_1 CON6
U 1 1 5550AF07
P 1300 1500
F 0 "CON6" H 1300 1600 60  0000 C CNN
F 1 "0906-3" H 1300 1400 60  0000 C CNN
F 2 "pogo:POGO-0906" H 1300 1500 60  0001 C CNN
F 3 "" H 1300 1500 60  0000 C CNN
	1    1300 1500
	0    -1   -1   0   
$EndComp
$Comp
L CONN_1 CON10
U 1 1 5550AF21
P 2100 1500
F 0 "CON10" H 2100 1600 60  0000 C CNN
F 1 "0906-3" H 2100 1400 60  0000 C CNN
F 2 "pogo:POGO-0906" H 2100 1500 60  0001 C CNN
F 3 "" H 2100 1500 60  0000 C CNN
	1    2100 1500
	0    -1   -1   0   
$EndComp
$Comp
L CONN_1 CON8
U 1 1 5550AF27
P 1700 1500
F 0 "CON8" H 1700 1600 60  0000 C CNN
F 1 "0906-3" H 1700 1400 60  0000 C CNN
F 2 "pogo:POGO-0906" H 1700 1500 60  0001 C CNN
F 3 "" H 1700 1500 60  0000 C CNN
	1    1700 1500
	0    -1   -1   0   
$EndComp
$Comp
L CONN_1 CON12
U 1 1 5550AF5F
P 2500 1500
F 0 "CON12" H 2500 1600 60  0000 C CNN
F 1 "0906-3" H 2500 1400 60  0000 C CNN
F 2 "pogo:POGO-0906" H 2500 1500 60  0001 C CNN
F 3 "" H 2500 1500 60  0000 C CNN
	1    2500 1500
	0    -1   -1   0   
$EndComp
$Comp
L CONN_1 CON14
U 1 1 5550AF65
P 2900 1500
F 0 "CON14" H 2900 1600 60  0000 C CNN
F 1 "0906-3" H 2900 1400 60  0000 C CNN
F 2 "pogo:POGO-0906" H 2900 1500 60  0001 C CNN
F 3 "" H 2900 1500 60  0000 C CNN
	1    2900 1500
	0    -1   -1   0   
$EndComp
Text Label 900  2700 1    60   ~ 0
DUT_SCMU_nRESET
Text Label 1300 2700 1    60   ~ 0
DUT_CMCU_nRESET
Text Label 2100 2700 1    60   ~ 0
DUT_MCU_SRCT
Text Label 2500 2700 1    60   ~ 0
DUT_RF_SWDIO
Text Label 2900 2700 1    60   ~ 0
DUT_RF_SWDCLK
$Comp
L CONN_1 CON15
U 1 1 5550AFC4
P 2900 7200
F 0 "CON15" H 2900 7300 60  0000 C CNN
F 1 "0906-3" H 2900 7100 60  0000 C CNN
F 2 "pogo:POGO-0906" H 2900 7200 60  0001 C CNN
F 3 "" H 2900 7200 60  0000 C CNN
	1    2900 7200
	0    -1   1    0   
$EndComp
Text Label 1300 6600 1    60   ~ 0
DUT_VBUS_RAW
Text Label 1700 6600 1    60   ~ 0
DUT_VBAT
Text Label 2900 6600 1    60   ~ 0
DUT_GND
Text Label 7400 1300 0    60   ~ 0
DUT_SMCU_SWD_CLK
$Comp
L CONN_1 CON11
U 1 1 58D805D5
P 2100 7200
F 0 "CON11" H 2100 7300 60  0000 C CNN
F 1 "0906-3" H 2100 7100 60  0000 C CNN
F 2 "pogo:POGO-0906" H 2100 7200 60  0001 C CNN
F 3 "" H 2100 7200 60  0000 C CNN
	1    2100 7200
	0    -1   1    0   
$EndComp
Text Label 2100 6600 1    60   ~ 0
DUT_3V3
Text Label 2500 6600 1    60   ~ 0
DUT_VRF
$Comp
L CONN_1 CON13
U 1 1 58D80AC9
P 2500 7200
F 0 "CON13" H 2500 7300 60  0000 C CNN
F 1 "0906-3" H 2500 7100 60  0000 C CNN
F 2 "pogo:POGO-0906" H 2500 7200 60  0001 C CNN
F 3 "" H 2500 7200 60  0000 C CNN
	1    2500 7200
	0    -1   1    0   
$EndComp
Text Label 1700 2700 1    60   ~ 0
DUT_MCU_STCR
$Comp
L CONN_5 CON19
U 1 1 58D82F1C
P 9000 2000
F 0 "CON19" H 9000 2300 60  0000 C CNN
F 1 "5x100mil,90deg" H 9000 1700 60  0000 C CNN
F 2 "header:HDR-5x1-100mil" H 9000 2000 60  0001 C CNN
F 3 "" H 9000 2000 60  0000 C CNN
	1    9000 2000
	1    0    0    -1  
$EndComp
$Comp
L CONN_5 CON20
U 1 1 58D8390D
P 9000 2900
F 0 "CON20" H 9000 3200 60  0000 C CNN
F 1 "5x100mil, 90deg" H 9000 2600 60  0000 C CNN
F 2 "header:HDR-5x1-100mil" H 9000 2900 60  0001 C CNN
F 3 "" H 9000 2900 60  0000 C CNN
	1    9000 2900
	1    0    0    -1  
$EndComp
NoConn ~ 8600 2700
$Comp
L CONN_3 CON16
U 1 1 58D8A6F6
P 3700 2250
F 0 "CON16" H 3700 2450 60  0000 C CNN
F 1 "3x100mil, 90deg" H 3700 2050 60  0000 C CNN
F 2 "header:HDR-3x1-100mil" H 3700 2250 60  0001 C CNN
F 3 "" H 3700 2250 60  0001 C CNN
	1    3700 2250
	0    -1   -1   0   
$EndComp
$Comp
L CONN_3 CON17
U 1 1 58D8A781
P 4300 2250
F 0 "CON17" H 4300 2450 60  0000 C CNN
F 1 "3x100mil, 90deg" H 4300 2050 60  0000 C CNN
F 2 "header:HDR-3x1-100mil" H 4300 2250 60  0001 C CNN
F 3 "" H 4300 2250 60  0001 C CNN
	1    4300 2250
	0    -1   -1   0   
$EndComp
$Comp
L CONN_8 CON22
U 1 1 58D93AAD
P 10400 5650
F 0 "CON22" H 10400 6100 60  0000 C CNN
F 1 "8x100mil" H 10400 5200 60  0000 C CNN
F 2 "header:HDR-8x1-100mil" H 10400 5650 60  0001 C CNN
F 3 "" H 10400 5650 60  0001 C CNN
	1    10400 5650
	1    0    0    -1  
$EndComp
$Comp
L CONN_8 CON21
U 1 1 58D93AAE
P 10400 4350
F 0 "CON21" H 10400 4800 60  0000 C CNN
F 1 "8x100mil" H 10400 3900 60  0000 C CNN
F 2 "header:HDR-8x1-100mil" H 10400 4350 60  0001 C CNN
F 3 "" H 10400 4350 60  0001 C CNN
	1    10400 4350
	1    0    0    -1  
$EndComp
Text Label 8200 5000 2    60   ~ 0
VBUS_RAW_IN
Text Label 8200 5200 2    60   ~ 0
VBAT_IN
Text Label 8200 5400 2    60   ~ 0
DUT_3V3
Text Label 8200 5600 2    60   ~ 0
DUT_VRF
Text Label 8200 5800 2    60   ~ 0
DUT_GND
Text Label 8200 4700 2    60   ~ 0
DUT_SCMU_nRESET
Text Label 8200 4500 2    60   ~ 0
DUT_CMCU_nRESET
Text Label 8200 4300 2    60   ~ 0
DUT_MCU_STCR
Text Label 8200 4100 2    60   ~ 0
DUT_MCU_SRCT
Text Label 8200 3900 2    60   ~ 0
DUT_RF_SWDIO
Text Label 8200 3700 2    60   ~ 0
DUT_RF_SWDCLK
Wire Wire Line
	900  1900 900  4700
Wire Wire Line
	1300 1900 1300 4500
Wire Wire Line
	2100 1900 2100 4100
Wire Wire Line
	2500 1900 2500 3900
Wire Wire Line
	2900 1900 2900 3700
Wire Wire Line
	2500 5600 8200 5600
Wire Wire Line
	2900 3700 8200 3700
Wire Wire Line
	2500 3900 8200 3900
Wire Wire Line
	2100 4100 8200 4100
Wire Wire Line
	1300 4500 8200 4500
Wire Wire Line
	5600 1300 8600 1300
Wire Wire Line
	5400 1200 8600 1200
Wire Wire Line
	5200 1100 8600 1100
Wire Wire Line
	8500 1000 8500 3300
Wire Wire Line
	8500 1000 8600 1000
Wire Wire Line
	5000 900  8600 900 
Wire Wire Line
	1300 6800 1300 5000
Wire Wire Line
	1700 6800 1700 5200
Wire Wire Line
	2100 6800 2100 5400
Wire Wire Line
	2500 6800 2500 5600
Wire Wire Line
	2900 5800 2900 6800
Wire Wire Line
	2100 5400 8200 5400
Wire Wire Line
	6500 2200 8600 2200
Wire Wire Line
	6300 2100 8600 2100
Wire Wire Line
	6100 2000 8600 2000
Wire Wire Line
	8500 1900 8600 1900
Wire Wire Line
	5900 1800 8600 1800
Wire Wire Line
	7200 3100 8600 3100
Wire Wire Line
	7000 3000 8600 3000
Wire Wire Line
	6800 2900 8600 2900
Wire Wire Line
	8500 2800 8600 2800
Wire Wire Line
	7200 3100 7200 3700
Connection ~ 7200 3700
Wire Wire Line
	7000 3000 7000 3900
Connection ~ 7000 3900
Connection ~ 6800 5600
Wire Wire Line
	1700 1900 1700 4300
Wire Wire Line
	1700 4300 8200 4300
Wire Wire Line
	6500 2200 6500 4300
Connection ~ 6500 4300
Wire Wire Line
	6300 2100 6300 4100
Connection ~ 6300 4100
Wire Wire Line
	900  4700 8200 4700
Wire Wire Line
	6100 2000 6100 5400
Connection ~ 6100 5400
Wire Wire Line
	5900 1800 5900 4500
Connection ~ 5900 4500
Wire Wire Line
	5600 1300 5600 4100
Connection ~ 5600 4100
Wire Wire Line
	5400 1200 5400 4300
Connection ~ 5400 4300
Wire Wire Line
	5200 1100 5200 5400
Connection ~ 5200 5400
Wire Wire Line
	5000 900  5000 4700
Connection ~ 5000 4700
Wire Wire Line
	6800 2900 6800 5600
Wire Wire Line
	2900 5800 8200 5800
Wire Wire Line
	3800 2650 3800 5800
Connection ~ 3800 5800
Wire Wire Line
	4400 2650 4400 5800
Connection ~ 4400 5800
Wire Wire Line
	3600 2650 3600 5000
Wire Wire Line
	3600 5000 1300 5000
Wire Wire Line
	4200 2650 4200 5200
Wire Wire Line
	4200 5200 1700 5200
Wire Wire Line
	3700 2650 3700 5000
Wire Wire Line
	3700 5000 8200 5000
Wire Wire Line
	4300 2650 4300 5200
Wire Wire Line
	4300 5200 8200 5200
Text Label 3600 2800 3    60   ~ 0
DUT_VBUS_RAW
Text Label 4200 2800 3    60   ~ 0
DUT_VBAT
Text Label 3800 2800 3    60   ~ 0
DUT_GND
Text Label 4400 2800 3    60   ~ 0
DUT_GND
Wire Wire Line
	8600 6000 10000 6000
Wire Wire Line
	8600 5700 10000 5700
Wire Wire Line
	8600 5600 10000 5600
Wire Wire Line
	8600 5400 10000 5400
Wire Wire Line
	8600 5300 10000 5300
Wire Wire Line
	8600 4400 10000 4400
Wire Wire Line
	8600 4300 10000 4300
Wire Wire Line
	8600 4200 10000 4200
Wire Wire Line
	8600 4100 10000 4100
Wire Wire Line
	8600 4000 10000 4000
Wire Wire Line
	8600 4500 10000 4500
Wire Wire Line
	8600 4700 10000 4700
Text Label 8600 6000 0    60   ~ 0
DUT_GND
Text Label 8600 5700 0    60   ~ 0
DUT_VRF
Text Label 8600 5600 0    60   ~ 0
DUT_3V3
Text Label 8600 5400 0    60   ~ 0
VBAT_IN
Text Label 8600 5300 0    60   ~ 0
VBUS_RAW_IN
Text Label 8600 4700 0    60   ~ 0
DUT_GND
Text Label 8600 4300 0    60   ~ 0
DUT_SCMU_nRESET
Text Label 8600 4200 0    60   ~ 0
DUT_CMCU_nRESET
Text Label 8600 4400 0    60   ~ 0
DUT_MCU_STCR
Text Label 8600 4500 0    60   ~ 0
DUT_MCU_SRCT
Text Label 8600 4000 0    60   ~ 0
DUT_RF_SWDIO
Text Label 8600 4100 0    60   ~ 0
DUT_RF_SWDCLK
Text Notes 3550 2000 0    60   ~ 0
VBUS
Text Notes 4150 2000 0    60   ~ 0
VBAT
Text Notes 9300 1100 0    60   ~ 0
SMCU
Text Notes 9300 2000 0    60   ~ 0
CMCU
Text Notes 9300 2900 0    60   ~ 0
RF
Text Notes 650  1050 0    200  ~ 40
DUT adapter board
Text Notes 7400 900  0    60   ~ 0
DUT_SMCU_nRESET
Text Notes 7400 1100 0    60   ~ 0
DUT_3V3
Text Notes 7400 1200 0    60   ~ 0
DUT_SMCU_SWD_DIO
Text Notes 7400 1800 0    60   ~ 0
DUT_CMCU_nRESET
Text Notes 7400 2000 0    60   ~ 0
DUT_3V3
Text Notes 7400 2100 0    60   ~ 0
DUT_CMCU_SWD_DIO
Text Notes 7400 2200 0    60   ~ 0
DUT_CMCU_SWD_CLK
Text Notes 7400 2900 0    60   ~ 0
DUT_VRF
Text Notes 7400 3000 0    60   ~ 0
DUT_RF_SWDIO
Text Notes 7400 3100 0    60   ~ 0
DUT_RF_SWDCLK
NoConn ~ 10000 4600
NoConn ~ 10000 5500
NoConn ~ 10000 5800
NoConn ~ 10000 5900
Connection ~ 8500 1900
Connection ~ 8500 2800
Wire Wire Line
	8500 3300 7400 3300
Text Label 7400 3300 0    60   ~ 0
DUT_GND
$EndSCHEMATC
