EESchema Schematic File Version 2
LIBS:pwr
LIBS:r
LIBS:c
LIBS:led
LIBS:powered
LIBS:kl25-32
LIBS:gencon
LIBS:varistor
LIBS:pmosfet-gsd
LIBS:nmosfet-gsd
LIBS:testpoint
LIBS:inductor
LIBS:xtal-4
LIBS:micro_usb_b
LIBS:fix-cache
EELAYER 26 0
EELAYER END
$Descr A4 11693 8268
encoding utf-8
Sheet 1 4
Title ""
Date "17 may 2015"
Rev ""
Comp ""
Comment1 ""
Comment2 ""
Comment3 ""
Comment4 ""
$EndDescr
$Comp
L KL25-32 U1
U 1 1 5550A651
P 5700 3400
F 0 "U1" H 4550 4650 60  0000 C CNN
F 1 "KL25-32" H 5700 3400 60  0000 C CNN
F 2 "qfn:QFN32-Freescale" H 6500 3250 60  0001 C CNN
F 3 "~" H 6500 3250 60  0000 C CNN
	1    5700 3400
	1    0    0    -1  
$EndComp
Text GLabel 7450 3200 2    60   Input ~ 0
SENSE1
Text GLabel 7450 3050 2    60   Input ~ 0
SENSE2
Text GLabel 5500 1700 1    60   Input ~ 0
DUT_VBUS_SENSE
Text GLabel 7450 3500 2    60   Input ~ 0
VBAT_SENSE
Text GLabel 5650 5150 3    60   Output ~ 0
VBAT_OFF
Text GLabel 4000 2900 0    60   Output ~ 0
VBUS_ON
$Comp
L R R1
U 1 1 5550A922
P 2450 3100
F 0 "R1" V 2550 3100 60  0000 C CNN
F 1 "33" V 2450 3100 60  0000 C CNN
F 2 "stdpass:0402" H 2450 3100 60  0001 C CNN
F 3 "" H 2450 3100 60  0000 C CNN
	1    2450 3100
	0    -1   -1   0   
$EndComp
$Comp
L R R2
U 1 1 5550A94A
P 2450 3350
F 0 "R2" V 2550 3350 60  0000 C CNN
F 1 "33" V 2450 3350 60  0000 C CNN
F 2 "stdpass:0402" H 2450 3350 60  0001 C CNN
F 3 "" H 2450 3350 60  0000 C CNN
	1    2450 3350
	0    -1   -1   0   
$EndComp
$Comp
L C C1
U 1 1 5550A952
P 2700 4700
F 0 "C1" H 2750 4800 60  0000 L CNN
F 1 "1uF" H 2750 4600 60  0000 L CNN
F 2 "stdpass:0402" H 2700 4700 60  0001 C CNN
F 3 "" H 2700 4700 60  0000 C CNN
	1    2700 4700
	1    0    0    -1  
$EndComp
$Comp
L C C2
U 1 1 5550A95F
P 3100 4700
F 0 "C2" H 3150 4800 60  0000 L CNN
F 1 "2.2uF" H 3150 4600 60  0000 L CNN
F 2 "stdpass:0603" H 3100 4700 60  0001 C CNN
F 3 "" H 3100 4700 60  0000 C CNN
	1    3100 4700
	1    0    0    -1  
$EndComp
$Comp
L C C3
U 1 1 5550A965
P 3600 4700
F 0 "C3" H 3650 4800 60  0000 L CNN
F 1 "100nF" H 3650 4600 60  0000 L CNN
F 2 "stdpass:0402" H 3600 4700 60  0001 C CNN
F 3 "" H 3600 4700 60  0000 C CNN
	1    3600 4700
	1    0    0    -1  
$EndComp
$Comp
L C C6
U 1 1 5550A96B
P 8900 5000
F 0 "C6" H 8950 5100 60  0000 L CNN
F 1 "12pF" H 8950 4900 60  0000 L CNN
F 2 "stdpass:0402" H 8900 5000 60  0001 C CNN
F 3 "" H 8900 5000 60  0000 C CNN
	1    8900 5000
	1    0    0    -1  
$EndComp
Wire Wire Line
	7250 3650 9300 3650
Text Label 7500 3650 0    60   ~ 0
nRESET
$Comp
L CONN_5 CON1
U 1 1 5550A9A4
P 10400 6600
F 0 "CON1" H 10400 6900 60  0000 C CNN
F 1 "5x100mil, 90deg" H 10400 6300 60  0000 C CNN
F 2 "header:HDR-5x1-100mil" H 10400 6600 60  0001 C CNN
F 3 "" H 10400 6600 60  0000 C CNN
	1    10400 6600
	1    0    0    -1  
$EndComp
Wire Wire Line
	10000 6800 5350 6800
Wire Wire Line
	5350 6800 5350 4950
Wire Wire Line
	5800 4950 5800 6700
Wire Wire Line
	5800 6700 10000 6700
Wire Wire Line
	6100 4950 6100 5700
Wire Wire Line
	9300 3650 9300 6400
Wire Wire Line
	9300 6400 10000 6400
$Comp
L GND #PWR01
U 1 1 5550AA0E
P 6550 5150
F 0 "#PWR01" H 6550 5150 30  0001 C CNN
F 1 "GND" H 6550 5080 30  0001 C CNN
F 2 "" H 6550 5150 60  0000 C CNN
F 3 "" H 6550 5150 60  0000 C CNN
	1    6550 5150
	1    0    0    -1  
$EndComp
$Comp
L GND #PWR02
U 1 1 5550AA1B
P 4000 5100
F 0 "#PWR02" H 4000 5100 30  0001 C CNN
F 1 "GND" H 4000 5030 30  0001 C CNN
F 2 "" H 4000 5100 60  0000 C CNN
F 3 "" H 4000 5100 60  0000 C CNN
	1    4000 5100
	1    0    0    -1  
$EndComp
Wire Wire Line
	4000 3050 4000 5100
Wire Wire Line
	4000 3050 4200 3050
Wire Wire Line
	4200 3950 4000 3950
Connection ~ 4000 3950
$Comp
L C C4
U 1 1 5550AA79
P 6100 5900
F 0 "C4" H 6150 6000 60  0000 L CNN
F 1 "1uF" H 6150 5800 60  0000 L CNN
F 2 "stdpass:0402" H 6100 5900 60  0001 C CNN
F 3 "" H 6100 5900 60  0000 C CNN
	1    6100 5900
	1    0    0    -1  
$EndComp
$Comp
L GND #PWR03
U 1 1 5550AA9D
P 3600 5100
F 0 "#PWR03" H 3600 5100 30  0001 C CNN
F 1 "GND" H 3600 5030 30  0001 C CNN
F 2 "" H 3600 5100 60  0000 C CNN
F 3 "" H 3600 5100 60  0000 C CNN
	1    3600 5100
	1    0    0    -1  
$EndComp
$Comp
L GND #PWR04
U 1 1 5550AAA3
P 3100 5100
F 0 "#PWR04" H 3100 5100 30  0001 C CNN
F 1 "GND" H 3100 5030 30  0001 C CNN
F 2 "" H 3100 5100 60  0000 C CNN
F 3 "" H 3100 5100 60  0000 C CNN
	1    3100 5100
	1    0    0    -1  
$EndComp
$Comp
L GND #PWR05
U 1 1 5550AAA9
P 2700 5100
F 0 "#PWR05" H 2700 5100 30  0001 C CNN
F 1 "GND" H 2700 5030 30  0001 C CNN
F 2 "" H 2700 5100 60  0000 C CNN
F 3 "" H 2700 5100 60  0000 C CNN
	1    2700 5100
	1    0    0    -1  
$EndComp
Wire Wire Line
	3600 4900 3600 5100
Wire Wire Line
	3100 4900 3100 5100
Wire Wire Line
	2700 4900 2700 5100
Wire Wire Line
	3600 3500 3600 4500
Wire Wire Line
	3100 3500 4200 3500
Wire Wire Line
	4200 3800 3600 3800
Connection ~ 3600 3800
Wire Wire Line
	3100 2700 3100 4500
Connection ~ 3600 3500
$Comp
L 3V3 #PWR06
U 1 1 5550AB50
P 3100 2700
F 0 "#PWR06" H 3100 2660 30  0001 C CNN
F 1 "3V3" H 3100 2850 60  0000 C CNN
F 2 "" H 3100 2700 60  0000 C CNN
F 3 "" H 3100 2700 60  0000 C CNN
	1    3100 2700
	1    0    0    -1  
$EndComp
Connection ~ 3100 3500
Wire Wire Line
	4200 3350 2700 3350
Text Label 3300 3350 0    60   ~ 0
MCU_DM
Text Label 3300 3200 0    60   ~ 0
MCU_DP
Wire Wire Line
	4200 3200 2900 3200
$Comp
L C C5
U 1 1 5550AC1B
P 7600 5000
F 0 "C5" H 7650 5100 60  0000 L CNN
F 1 "12pF" H 7650 4900 60  0000 L CNN
F 2 "stdpass:0402" H 7600 5000 60  0001 C CNN
F 3 "" H 7600 5000 60  0000 C CNN
	1    7600 5000
	1    0    0    -1  
$EndComp
$Comp
L XTAL-4 X1
U 1 1 5550ABDA
P 8250 4600
F 0 "X1" H 8250 4950 60  0000 C CNN
F 1 "16MHz" H 8250 4850 60  0000 C CNN
F 2 "xtal-4:xtal4-3.2mmx2.5mm" H 8250 4600 60  0001 C CNN
F 3 "" H 8250 4600 60  0000 C CNN
F 4 "8pF" H 8000 3550 60  0000 L CNN "Field4"
F 5 "<= 40ppm" H 8000 3450 60  0000 L CNN "Field5"
F 6 "ESR<=60R" H 8000 3350 60  0000 L CNN "Field6"
	1    8250 4600
	1    0    0    -1  
$EndComp
Wire Wire Line
	8900 3800 8900 4800
Wire Wire Line
	8900 3800 7250 3800
Wire Wire Line
	7600 3950 7600 4800
Wire Wire Line
	7600 3950 7250 3950
Wire Wire Line
	7800 4600 7600 4600
Wire Wire Line
	8700 4600 8900 4600
Connection ~ 8900 4600
Connection ~ 7600 4600
$Comp
L GND #PWR07
U 1 1 5550ACC7
P 7600 5400
F 0 "#PWR07" H 7600 5400 30  0001 C CNN
F 1 "GND" H 7600 5330 30  0001 C CNN
F 2 "" H 7600 5400 60  0000 C CNN
F 3 "" H 7600 5400 60  0000 C CNN
	1    7600 5400
	1    0    0    -1  
$EndComp
$Comp
L GND #PWR08
U 1 1 5550ACCD
P 8900 5400
F 0 "#PWR08" H 8900 5400 30  0001 C CNN
F 1 "GND" H 8900 5330 30  0001 C CNN
F 2 "" H 8900 5400 60  0000 C CNN
F 3 "" H 8900 5400 60  0000 C CNN
	1    8900 5400
	1    0    0    -1  
$EndComp
Wire Wire Line
	7600 5200 7600 5400
Wire Wire Line
	8900 5200 8900 5400
$Comp
L GND #PWR09
U 1 1 5550AC7C
P 8100 5400
F 0 "#PWR09" H 8100 5400 30  0001 C CNN
F 1 "GND" H 8100 5330 30  0001 C CNN
F 2 "" H 8100 5400 60  0000 C CNN
F 3 "" H 8100 5400 60  0000 C CNN
	1    8100 5400
	1    0    0    -1  
$EndComp
$Comp
L GND #PWR010
U 1 1 5550AC82
P 8400 5400
F 0 "#PWR010" H 8400 5400 30  0001 C CNN
F 1 "GND" H 8400 5330 30  0001 C CNN
F 2 "" H 8400 5400 60  0000 C CNN
F 3 "" H 8400 5400 60  0000 C CNN
	1    8400 5400
	1    0    0    -1  
$EndComp
Wire Wire Line
	8100 5000 8100 5400
Wire Wire Line
	8400 5000 8400 5400
Wire Wire Line
	6550 4950 6550 5150
$Comp
L 3V3 #PWR011
U 1 1 5550AD13
P 7100 5300
F 0 "#PWR011" H 7100 5260 30  0001 C CNN
F 1 "3V3" H 7100 5450 60  0000 C CNN
F 2 "" H 7100 5300 60  0000 C CNN
F 3 "" H 7100 5300 60  0000 C CNN
	1    7100 5300
	1    0    0    -1  
$EndComp
$Comp
L GND #PWR012
U 1 1 5550AD23
P 6100 6300
F 0 "#PWR012" H 6100 6300 30  0001 C CNN
F 1 "GND" H 6100 6230 30  0001 C CNN
F 2 "" H 6100 6300 60  0000 C CNN
F 3 "" H 6100 6300 60  0000 C CNN
	1    6100 6300
	1    0    0    -1  
$EndComp
Wire Wire Line
	6100 6100 6100 6300
$Sheet
S 9900 1700 1100 600 
U 5550AE8D
F0 "ITF" 50
F1 "itf.sch" 50
$EndSheet
$Sheet
S 9900 2600 1100 600 
U 5550B3B0
F0 "Power+USB" 50
F1 "power.sch" 50
$EndSheet
Text Label 8000 6800 0    60   ~ 0
SWD_CLK
Text Label 8000 6700 0    60   ~ 0
SWD_DIO
$Comp
L 3V3 #PWR013
U 1 1 5550B580
P 9600 6200
F 0 "#PWR013" H 9600 6160 30  0001 C CNN
F 1 "3V3" H 9600 6350 60  0000 C CNN
F 2 "" H 9600 6200 60  0000 C CNN
F 3 "" H 9600 6200 60  0000 C CNN
	1    9600 6200
	1    0    0    -1  
$EndComp
Wire Wire Line
	10000 6600 9600 6600
Wire Wire Line
	9600 6600 9600 6200
$Comp
L GND #PWR014
U 1 1 5550B5CE
P 9800 7000
F 0 "#PWR014" H 9800 7000 30  0001 C CNN
F 1 "GND" H 9800 6930 30  0001 C CNN
F 2 "" H 9800 7000 60  0000 C CNN
F 3 "" H 9800 7000 60  0000 C CNN
	1    9800 7000
	1    0    0    -1  
$EndComp
Wire Wire Line
	7100 5500 7100 5300
Wire Wire Line
	6100 5500 7100 5500
$Comp
L GND #PWR015
U 1 1 5550B643
P 6250 5150
F 0 "#PWR015" H 6250 5150 30  0001 C CNN
F 1 "GND" H 6250 5080 30  0001 C CNN
F 2 "" H 6250 5150 60  0000 C CNN
F 3 "" H 6250 5150 60  0000 C CNN
	1    6250 5150
	1    0    0    -1  
$EndComp
Wire Wire Line
	6250 4950 6250 5150
Wire Wire Line
	9800 7000 9800 6500
Wire Wire Line
	9800 6500 10000 6500
Text GLabel 5350 1700 1    60   Input ~ 0
VBUS_SENSE
$Comp
L LED D1
U 1 1 5550D6FC
P 10300 5100
F 0 "D1" H 10300 5200 60  0000 C CNN
F 1 "LED" H 10300 5000 60  0000 C CNN
F 2 "stdpass:0603P" H 10300 5100 60  0001 C CNN
F 3 "" H 10300 5100 60  0000 C CNN
	1    10300 5100
	0    1    1    0   
$EndComp
$Comp
L R R3
U 1 1 5550D709
P 10300 4450
F 0 "R3" V 10400 4450 60  0000 C CNN
F 1 "150" V 10300 4450 60  0000 C CNN
F 2 "stdpass:0402" H 10300 4450 60  0001 C CNN
F 3 "" H 10300 4450 60  0000 C CNN
	1    10300 4450
	-1   0    0    1   
$EndComp
Wire Wire Line
	2000 3350 2200 3350
Connection ~ 2700 3650
Wire Wire Line
	2700 3650 2700 4500
Wire Wire Line
	2700 3100 2900 3100
Wire Wire Line
	2900 3100 2900 3200
Text GLabel 2000 3100 0    60   BiDi ~ 0
DP
Text GLabel 2000 3350 0    60   BiDi ~ 0
DM
Wire Wire Line
	2000 3100 2200 3100
Wire Wire Line
	10300 3700 10300 4200
Wire Wire Line
	10300 4700 10300 4900
Wire Wire Line
	10300 5500 10300 5300
Text Label 10300 4050 1    60   ~ 0
LED
NoConn ~ 5200 4950
Text Label 5200 1700 1    60   ~ 0
LED
$Comp
L GND #PWR016
U 1 1 555184E2
P 10300 5500
F 0 "#PWR016" H 10300 5500 30  0001 C CNN
F 1 "GND" H 10300 5430 30  0001 C CNN
F 2 "" H 10300 5500 60  0000 C CNN
F 3 "" H 10300 5500 60  0000 C CNN
	1    10300 5500
	1    0    0    -1  
$EndComp
Text Notes 5250 5150 3    60   ~ 0
Reserved for DAC_OUT
Wire Wire Line
	6100 1700 6100 1900
Wire Wire Line
	5650 5150 5650 4950
Wire Wire Line
	7450 3500 7250 3500
Wire Wire Line
	7250 3350 7450 3350
Wire Wire Line
	7450 3200 7250 3200
Wire Wire Line
	7250 3050 7450 3050
NoConn ~ 7250 2900
Text Notes 7450 2950 0    60   ~ 0
Reserved for CLKOUT
Wire Wire Line
	6250 1700 6250 1900
Wire Wire Line
	4000 2900 4200 2900
Wire Wire Line
	5350 1700 5350 1900
Wire Wire Line
	5500 1700 5500 1900
Wire Wire Line
	5200 1400 5200 1900
Wire Wire Line
	5500 4950 5500 5150
Connection ~ 6100 5500
$Sheet
S 9900 800  1100 600 
U 58D8E3B4
F0 "DUT" 50
F1 "dut.sch" 50
$EndSheet
Wire Wire Line
	5650 1700 5650 1900
Wire Wire Line
	5800 1700 5800 1900
Wire Wire Line
	5950 1700 5950 1900
Text GLabel 5800 1700 1    60   BiDi ~ 0
IO2
Text GLabel 5950 1700 1    60   BiDi ~ 0
IO3
Text GLabel 6100 1700 1    60   BiDi ~ 0
IO4
Text GLabel 6250 1700 1    60   BiDi ~ 0
IO5
Text GLabel 5500 5150 3    60   BiDi ~ 0
IO6
Text GLabel 5650 1700 1    60   BiDi ~ 0
IO1
Text GLabel 7450 3350 2    60   Input ~ 0
DUT_VBAT_SENSE
NoConn ~ 5950 4950
Text GLabel 2000 3650 0    60   Input ~ 0
VBUS
Wire Wire Line
	2000 3650 4200 3650
Text Notes 8000 6050 0    60   ~ 0
NX3225SA or CX3225GB
Text Notes 700  7600 0    120  ~ 24
TODO: consider using KL27 (for ROM boot loader\nTODO: if KL27, connect NMI to jumper\nTODO: if KL27, consider removing crystal\nTODO: consider moving to 48-QFN
$EndSCHEMATC
