EESchema Schematic File Version 2
LIBS:pwr
LIBS:r
LIBS:c
LIBS:led
LIBS:powered
LIBS:kl25-32
LIBS:gencon
LIBS:varistor
LIBS:pmosfet-gsd
LIBS:nmosfet-gsd
LIBS:testpoint
LIBS:inductor
LIBS:xtal-4
LIBS:micro_usb_b
LIBS:fix-cache
EELAYER 26 0
EELAYER END
$Descr A4 11693 8268
encoding utf-8
Sheet 2 4
Title ""
Date "17 may 2015"
Rev ""
Comp ""
Comment1 ""
Comment2 ""
Comment3 ""
Comment4 ""
$EndDescr
$Comp
L R R4
U 1 1 5550D375
P 2800 5500
F 0 "R4" H 2930 5550 60  0000 C CNN
F 1 "1k" H 2950 5450 60  0000 C CNN
F 2 "stdpass:0402" H 2800 5500 60  0001 C CNN
F 3 "" H 2800 5500 60  0000 C CNN
F 4 "1%" H 2950 5350 60  0000 C CNN "Field4"
	1    2800 5500
	1    0    0    -1  
$EndComp
$Comp
L R R5
U 1 1 5550D37C
P 3200 5500
F 0 "R5" H 3330 5550 60  0000 C CNN
F 1 "1k" H 3350 5450 60  0000 C CNN
F 2 "stdpass:0402" H 3200 5500 60  0001 C CNN
F 3 "" H 3200 5500 60  0000 C CNN
F 4 "1%" H 3350 5350 60  0000 C CNN "Field4"
	1    3200 5500
	1    0    0    -1  
$EndComp
$Comp
L GND #PWR017
U 1 1 5550D389
P 2800 5950
F 0 "#PWR017" H 2800 5950 30  0001 C CNN
F 1 "GND" H 2800 5880 30  0001 C CNN
F 2 "" H 2800 5950 60  0000 C CNN
F 3 "" H 2800 5950 60  0000 C CNN
	1    2800 5950
	1    0    0    -1  
$EndComp
$Comp
L GND #PWR018
U 1 1 5550D38F
P 3200 5950
F 0 "#PWR018" H 3200 5950 30  0001 C CNN
F 1 "GND" H 3200 5880 30  0001 C CNN
F 2 "" H 3200 5950 60  0000 C CNN
F 3 "" H 3200 5950 60  0000 C CNN
	1    3200 5950
	1    0    0    -1  
$EndComp
Wire Wire Line
	2800 5750 2800 5950
Wire Wire Line
	3200 5750 3200 5950
$Comp
L C C7
U 1 1 5558C744
P 3700 5500
F 0 "C7" H 3750 5600 60  0000 L CNN
F 1 "10nF" H 3750 5400 60  0000 L CNN
F 2 "stdpass:0402" H 3700 5500 60  0001 C CNN
F 3 "" H 3700 5500 60  0000 C CNN
	1    3700 5500
	1    0    0    -1  
$EndComp
$Comp
L C C8
U 1 1 5558C768
P 4100 5500
F 0 "C8" H 4150 5600 60  0000 L CNN
F 1 "10nF" H 4150 5400 60  0000 L CNN
F 2 "stdpass:0402" H 4100 5500 60  0001 C CNN
F 3 "" H 4100 5500 60  0000 C CNN
	1    4100 5500
	1    0    0    -1  
$EndComp
$Comp
L GND #PWR019
U 1 1 5558C8A5
P 3700 5950
F 0 "#PWR019" H 3700 5950 30  0001 C CNN
F 1 "GND" H 3700 5880 30  0001 C CNN
F 2 "" H 3700 5950 60  0000 C CNN
F 3 "" H 3700 5950 60  0000 C CNN
	1    3700 5950
	1    0    0    -1  
$EndComp
$Comp
L GND #PWR020
U 1 1 5558C8AB
P 4100 5950
F 0 "#PWR020" H 4100 5950 30  0001 C CNN
F 1 "GND" H 4100 5880 30  0001 C CNN
F 2 "" H 4100 5950 60  0000 C CNN
F 3 "" H 4100 5950 60  0000 C CNN
	1    4100 5950
	1    0    0    -1  
$EndComp
Wire Wire Line
	3700 5700 3700 5950
Wire Wire Line
	4100 5700 4100 5950
$Comp
L CONN_8 CON3
U 1 1 58D829D2
P 8600 5050
F 0 "CON3" H 8600 5500 60  0000 C CNN
F 1 "8x100mil" H 8600 4600 60  0000 C CNN
F 2 "header:HDR-8x1-100mil" H 8600 5050 60  0001 C CNN
F 3 "" H 8600 5050 60  0001 C CNN
	1    8600 5050
	1    0    0    -1  
$EndComp
$Comp
L CONN_8 CON2
U 1 1 58D829D9
P 8600 3250
F 0 "CON2" H 8600 3700 60  0000 C CNN
F 1 "8x100mil" H 8600 2800 60  0000 C CNN
F 2 "header:HDR-8x1-100mil" H 8600 3250 60  0001 C CNN
F 3 "" H 8600 3250 60  0001 C CNN
	1    8600 3250
	1    0    0    -1  
$EndComp
Wire Wire Line
	4900 5100 8200 5100
Wire Wire Line
	1900 4800 8200 4800
Wire Wire Line
	1900 4700 8200 4700
Wire Wire Line
	4900 3300 8200 3300
Wire Wire Line
	4900 3200 8200 3200
Wire Wire Line
	4900 3100 8200 3100
Wire Wire Line
	4900 3000 8200 3000
Wire Wire Line
	4900 2900 8200 2900
Wire Wire Line
	4900 3400 8200 3400
Text Notes 8900 3050 0    60   ~ 0
DUT_RF_SWDCLK
Text Notes 8900 2950 0    60   ~ 0
DUT_RF_SWDIO
Text Notes 8900 3450 0    60   ~ 0
DUT_MCU_SRCT
Text Notes 8900 3350 0    60   ~ 0
DUT_MCU_STCR
Text Notes 8900 3150 0    60   ~ 0
DUT_CMCU_nRESET
Text Notes 8900 3250 0    60   ~ 0
DUT_SCMU_RESET
Text Notes 8900 3650 0    60   ~ 0
DUT_GND
Text Notes 8900 4750 0    60   ~ 0
VBUS_RAW_IN
Text Notes 8900 4850 0    60   ~ 0
VBAT_IN
Text Notes 8900 5050 0    60   ~ 0
DUT_3V3
Text Notes 8900 5150 0    60   ~ 0
DUT_VRF
Text Notes 8900 5450 0    60   ~ 0
DUT_GND
$Comp
L VARISTOR V4
U 1 1 58D83E49
P 5900 5650
F 0 "V4" V 5800 5650 60  0000 C CNN
F 1 "EZJP0V080GA" V 6000 5650 60  0000 C CNN
F 2 "stdpass:0402" H 5900 5650 60  0001 C CNN
F 3 "" H 5900 5650 60  0000 C CNN
	1    5900 5650
	1    0    0    -1  
$EndComp
$Comp
L GND #PWR021
U 1 1 58D83E4F
P 5900 6000
F 0 "#PWR021" H 5900 6000 30  0001 C CNN
F 1 "GND" H 5900 5930 30  0001 C CNN
F 2 "" H 5900 6000 60  0000 C CNN
F 3 "" H 5900 6000 60  0000 C CNN
	1    5900 6000
	1    0    0    -1  
$EndComp
$Comp
L VARISTOR V10
U 1 1 58D83E55
P 6800 5650
F 0 "V10" V 6700 5650 60  0000 C CNN
F 1 "EZJP0V080GA" V 6900 5650 60  0000 C CNN
F 2 "stdpass:0402" H 6800 5650 60  0001 C CNN
F 3 "" H 6800 5650 60  0000 C CNN
	1    6800 5650
	1    0    0    -1  
$EndComp
$Comp
L GND #PWR022
U 1 1 58D83E5B
P 6800 6000
F 0 "#PWR022" H 6800 6000 30  0001 C CNN
F 1 "GND" H 6800 5930 30  0001 C CNN
F 2 "" H 6800 6000 60  0000 C CNN
F 3 "" H 6800 6000 60  0000 C CNN
	1    6800 6000
	1    0    0    -1  
$EndComp
Wire Wire Line
	5900 5800 5900 6000
Wire Wire Line
	6800 5800 6800 6000
$Comp
L VARISTOR V6
U 1 1 58D83E63
P 6200 5650
F 0 "V6" V 6100 5650 60  0000 C CNN
F 1 "EZJP0V080GA" V 6300 5650 60  0000 C CNN
F 2 "stdpass:0402" H 6200 5650 60  0001 C CNN
F 3 "" H 6200 5650 60  0000 C CNN
	1    6200 5650
	1    0    0    -1  
$EndComp
$Comp
L GND #PWR023
U 1 1 58D83E69
P 6200 6000
F 0 "#PWR023" H 6200 6000 30  0001 C CNN
F 1 "GND" H 6200 5930 30  0001 C CNN
F 2 "" H 6200 6000 60  0000 C CNN
F 3 "" H 6200 6000 60  0000 C CNN
	1    6200 6000
	1    0    0    -1  
$EndComp
Wire Wire Line
	6200 5800 6200 6000
$Comp
L VARISTOR V8
U 1 1 58D83E70
P 6500 5650
F 0 "V8" V 6400 5650 60  0000 C CNN
F 1 "EZJP0V080GA" V 6600 5650 60  0000 C CNN
F 2 "stdpass:0402" H 6500 5650 60  0001 C CNN
F 3 "" H 6500 5650 60  0000 C CNN
	1    6500 5650
	1    0    0    -1  
$EndComp
$Comp
L GND #PWR024
U 1 1 58D83E76
P 6500 6000
F 0 "#PWR024" H 6500 6000 30  0001 C CNN
F 1 "GND" H 6500 5930 30  0001 C CNN
F 2 "" H 6500 6000 60  0000 C CNN
F 3 "" H 6500 6000 60  0000 C CNN
	1    6500 6000
	1    0    0    -1  
$EndComp
Wire Wire Line
	6500 5800 6500 6000
$Comp
L VARISTOR V3
U 1 1 58D8428D
P 5900 3950
F 0 "V3" V 5800 3950 60  0000 C CNN
F 1 "EZJP0V080GA" V 6000 3950 60  0000 C CNN
F 2 "stdpass:0402" H 5900 3950 60  0001 C CNN
F 3 "" H 5900 3950 60  0000 C CNN
	1    5900 3950
	1    0    0    -1  
$EndComp
$Comp
L GND #PWR025
U 1 1 58D84293
P 5900 4300
F 0 "#PWR025" H 5900 4300 30  0001 C CNN
F 1 "GND" H 5900 4230 30  0001 C CNN
F 2 "" H 5900 4300 60  0000 C CNN
F 3 "" H 5900 4300 60  0000 C CNN
	1    5900 4300
	1    0    0    -1  
$EndComp
$Comp
L VARISTOR V9
U 1 1 58D84299
P 6800 3950
F 0 "V9" V 6700 3950 60  0000 C CNN
F 1 "EZJP0V080GA" V 6900 3950 60  0000 C CNN
F 2 "stdpass:0402" H 6800 3950 60  0001 C CNN
F 3 "" H 6800 3950 60  0000 C CNN
	1    6800 3950
	1    0    0    -1  
$EndComp
$Comp
L GND #PWR026
U 1 1 58D8429F
P 6800 4300
F 0 "#PWR026" H 6800 4300 30  0001 C CNN
F 1 "GND" H 6800 4230 30  0001 C CNN
F 2 "" H 6800 4300 60  0000 C CNN
F 3 "" H 6800 4300 60  0000 C CNN
	1    6800 4300
	1    0    0    -1  
$EndComp
Wire Wire Line
	5900 4100 5900 4300
Wire Wire Line
	6800 4100 6800 4300
$Comp
L VARISTOR V5
U 1 1 58D842A7
P 6200 3950
F 0 "V5" V 6100 3950 60  0000 C CNN
F 1 "EZJP0V080GA" V 6300 3950 60  0000 C CNN
F 2 "stdpass:0402" H 6200 3950 60  0001 C CNN
F 3 "" H 6200 3950 60  0000 C CNN
	1    6200 3950
	1    0    0    -1  
$EndComp
$Comp
L GND #PWR027
U 1 1 58D842AD
P 6200 4300
F 0 "#PWR027" H 6200 4300 30  0001 C CNN
F 1 "GND" H 6200 4230 30  0001 C CNN
F 2 "" H 6200 4300 60  0000 C CNN
F 3 "" H 6200 4300 60  0000 C CNN
	1    6200 4300
	1    0    0    -1  
$EndComp
Wire Wire Line
	6200 4100 6200 4300
$Comp
L VARISTOR V7
U 1 1 58D842B4
P 6500 3950
F 0 "V7" V 6400 3950 60  0000 C CNN
F 1 "EZJP0V080GA" V 6600 3950 60  0000 C CNN
F 2 "stdpass:0402" H 6500 3950 60  0001 C CNN
F 3 "" H 6500 3950 60  0000 C CNN
	1    6500 3950
	1    0    0    -1  
$EndComp
$Comp
L GND #PWR028
U 1 1 58D842BA
P 6500 4300
F 0 "#PWR028" H 6500 4300 30  0001 C CNN
F 1 "GND" H 6500 4230 30  0001 C CNN
F 2 "" H 6500 4300 60  0000 C CNN
F 3 "" H 6500 4300 60  0000 C CNN
	1    6500 4300
	1    0    0    -1  
$EndComp
Wire Wire Line
	6500 4100 6500 4300
$Comp
L GND #PWR029
U 1 1 58D84319
P 8100 3800
F 0 "#PWR029" H 8100 3800 30  0001 C CNN
F 1 "GND" H 8100 3730 30  0001 C CNN
F 2 "" H 8100 3800 60  0000 C CNN
F 3 "" H 8100 3800 60  0000 C CNN
	1    8100 3800
	1    0    0    -1  
$EndComp
$Comp
L GND #PWR030
U 1 1 58D84364
P 8100 5600
F 0 "#PWR030" H 8100 5600 30  0001 C CNN
F 1 "GND" H 8100 5530 30  0001 C CNN
F 2 "" H 8100 5600 60  0000 C CNN
F 3 "" H 8100 5600 60  0000 C CNN
	1    8100 5600
	1    0    0    -1  
$EndComp
Wire Wire Line
	8100 5600 8100 5400
Wire Wire Line
	8100 5400 8200 5400
Wire Wire Line
	8100 3800 8100 3600
Wire Wire Line
	8100 3600 8200 3600
Wire Wire Line
	6800 5100 6800 5500
Connection ~ 6800 5100
Wire Wire Line
	6500 5000 6500 5500
Connection ~ 6500 5000
Wire Wire Line
	6200 5500 6200 4800
Connection ~ 6200 4800
Wire Wire Line
	5900 5500 5900 4700
Connection ~ 5900 4700
Wire Wire Line
	6800 3800 6800 3400
Connection ~ 6800 3400
Wire Wire Line
	6500 3800 6500 3300
Connection ~ 6500 3300
Wire Wire Line
	6200 3800 6200 3200
Connection ~ 6200 3200
Wire Wire Line
	5900 3800 5900 3100
Connection ~ 5900 3100
$Comp
L VARISTOR V1
U 1 1 58D848E9
P 5300 3950
F 0 "V1" V 5200 3950 60  0000 C CNN
F 1 "EZJP0V080GA" V 5400 3950 60  0000 C CNN
F 2 "stdpass:0402" H 5300 3950 60  0001 C CNN
F 3 "" H 5300 3950 60  0000 C CNN
	1    5300 3950
	1    0    0    -1  
$EndComp
$Comp
L GND #PWR031
U 1 1 58D848EF
P 5300 4300
F 0 "#PWR031" H 5300 4300 30  0001 C CNN
F 1 "GND" H 5300 4230 30  0001 C CNN
F 2 "" H 5300 4300 60  0000 C CNN
F 3 "" H 5300 4300 60  0000 C CNN
	1    5300 4300
	1    0    0    -1  
$EndComp
Wire Wire Line
	5300 4100 5300 4300
$Comp
L VARISTOR V2
U 1 1 58D848F6
P 5600 3950
F 0 "V2" V 5500 3950 60  0000 C CNN
F 1 "EZJP0V080GA" V 5700 3950 60  0000 C CNN
F 2 "stdpass:0402" H 5600 3950 60  0001 C CNN
F 3 "" H 5600 3950 60  0000 C CNN
	1    5600 3950
	1    0    0    -1  
$EndComp
$Comp
L GND #PWR032
U 1 1 58D848FC
P 5600 4300
F 0 "#PWR032" H 5600 4300 30  0001 C CNN
F 1 "GND" H 5600 4230 30  0001 C CNN
F 2 "" H 5600 4300 60  0000 C CNN
F 3 "" H 5600 4300 60  0000 C CNN
	1    5600 4300
	1    0    0    -1  
$EndComp
Wire Wire Line
	5600 4100 5600 4300
Wire Wire Line
	5600 3800 5600 3000
Connection ~ 5600 3000
Wire Wire Line
	5300 3800 5300 2900
Connection ~ 5300 2900
$Comp
L R R11
U 1 1 58D84CF1
P 4650 3400
F 0 "R11" V 4700 3650 60  0000 L CNN
F 1 "100" V 4650 3400 60  0000 C CNN
F 2 "stdpass:0402" H 4650 3400 60  0001 C CNN
F 3 "" H 4650 3400 60  0000 C CNN
	1    4650 3400
	0    -1   -1   0   
$EndComp
$Comp
L R R13
U 1 1 58D84D84
P 4650 5100
F 0 "R13" V 4700 5350 60  0000 L CNN
F 1 "1k" V 4650 5100 60  0000 C CNN
F 2 "stdpass:0402" H 4650 5100 60  0001 C CNN
F 3 "" H 4650 5100 60  0000 C CNN
F 4 "1%" V 4700 4850 60  0000 R CNN "Field4"
	1    4650 5100
	0    -1   -1   0   
$EndComp
$Comp
L R R9
U 1 1 58D8556A
P 4650 3200
F 0 "R9" V 4700 3450 60  0000 L CNN
F 1 "100" V 4650 3200 60  0000 C CNN
F 2 "stdpass:0402" H 4650 3200 60  0001 C CNN
F 3 "" H 4650 3200 60  0000 C CNN
	1    4650 3200
	0    -1   -1   0   
$EndComp
$Comp
L R R10
U 1 1 58D856FD
P 4650 3300
F 0 "R10" V 4700 3550 60  0000 L CNN
F 1 "100" V 4650 3300 60  0000 C CNN
F 2 "stdpass:0402" H 4650 3300 60  0001 C CNN
F 3 "" H 4650 3300 60  0000 C CNN
	1    4650 3300
	0    -1   -1   0   
$EndComp
$Comp
L R R8
U 1 1 58D857FD
P 4650 3100
F 0 "R8" V 4700 3350 60  0000 L CNN
F 1 "100" V 4650 3100 60  0000 C CNN
F 2 "stdpass:0402" H 4650 3100 60  0001 C CNN
F 3 "" H 4650 3100 60  0000 C CNN
	1    4650 3100
	0    -1   -1   0   
$EndComp
$Comp
L R R7
U 1 1 58D8585F
P 4650 3000
F 0 "R7" V 4700 3250 60  0000 L CNN
F 1 "100" V 4650 3000 60  0000 C CNN
F 2 "stdpass:0402" H 4650 3000 60  0001 C CNN
F 3 "" H 4650 3000 60  0000 C CNN
	1    4650 3000
	0    -1   -1   0   
$EndComp
$Comp
L R R6
U 1 1 58D858BF
P 4650 2900
F 0 "R6" V 4700 3150 60  0000 L CNN
F 1 "100" V 4650 2900 60  0000 C CNN
F 2 "stdpass:0402" H 4650 2900 60  0001 C CNN
F 3 "" H 4650 2900 60  0000 C CNN
	1    4650 2900
	0    -1   -1   0   
$EndComp
$Comp
L R R12
U 1 1 58D85B7A
P 4650 5000
F 0 "R12" V 4700 5250 60  0000 L CNN
F 1 "1k" V 4650 5000 60  0000 C CNN
F 2 "stdpass:0402" H 4650 5000 60  0001 C CNN
F 3 "" H 4650 5000 60  0000 C CNN
F 4 "1%" V 4700 4750 60  0000 R CNN "Field4"
	1    4650 5000
	0    -1   -1   0   
$EndComp
Wire Wire Line
	1900 5000 4400 5000
Wire Wire Line
	1900 5100 4400 5100
Wire Wire Line
	2800 5250 2800 5000
Connection ~ 2800 5000
Wire Wire Line
	3200 5250 3200 5100
Connection ~ 3200 5100
Wire Wire Line
	3700 5300 3700 5000
Connection ~ 3700 5000
Wire Wire Line
	4100 5300 4100 5100
Connection ~ 4100 5100
Wire Wire Line
	1900 2900 4400 2900
Wire Wire Line
	1900 3000 4400 3000
Wire Wire Line
	1900 3100 4400 3100
Wire Wire Line
	1900 3200 4400 3200
Wire Wire Line
	1900 3300 4400 3300
Wire Wire Line
	1900 3400 4400 3400
Text Label 7300 5100 0    60   ~ 0
TGT_SENSE2
Text Label 7300 5000 0    60   ~ 0
TGT_SENSE1
Text Label 7300 4700 0    60   ~ 0
TGT_VBUS
Text Label 7300 4800 0    60   ~ 0
TGT_VBAT
Text Label 7300 2900 0    60   ~ 0
TGT_IO1
Text Label 7300 3000 0    60   ~ 0
TGT_IO2
Text Label 7300 3100 0    60   ~ 0
TGT_IO3
Text Label 7300 3200 0    60   ~ 0
TGT_IO4
Text Label 7300 3300 0    60   ~ 0
TGT_IO5
Text Label 7300 3400 0    60   ~ 0
TGT_IO6
Text Notes 800  1100 0    200  ~ 40
Interface to adapter board
Text GLabel 1900 2900 0    60   BiDi ~ 0
IO1
Text GLabel 1900 3000 0    60   BiDi ~ 0
IO2
Text GLabel 1900 3100 0    60   BiDi ~ 0
IO3
Text GLabel 1900 3200 0    60   BiDi ~ 0
IO4
Text GLabel 1900 3300 0    60   BiDi ~ 0
IO5
Text GLabel 1900 3400 0    60   BiDi ~ 0
IO6
Text GLabel 1900 4700 0    60   Input ~ 0
TGT_VBUS
Text GLabel 1900 4800 0    60   Input ~ 0
TGT_VBAT
Text GLabel 1900 5000 0    60   Output ~ 0
SENSE1
Text GLabel 1900 5100 0    60   Output ~ 0
SENSE2
Wire Wire Line
	7200 3500 8200 3500
Text Label 7300 3500 0    60   ~ 0
TGT_IO7
Wire Wire Line
	4900 5000 8200 5000
NoConn ~ 7200 3500
Wire Wire Line
	7200 5200 8200 5200
Wire Wire Line
	7200 5300 8200 5300
NoConn ~ 7200 5200
NoConn ~ 7200 5300
Wire Wire Line
	7200 4900 8200 4900
NoConn ~ 7200 4900
Text Label 7300 4900 0    60   ~ 0
TGT_V3
Text Label 7300 5200 0    60   ~ 0
TGT_SENSE3
Text Label 7300 5300 0    60   ~ 0
TGT_SENSE4
Text Notes 1350 7200 0    120  ~ 24
TODO: add ESD protection for currently unused lines
$EndSCHEMATC
