EESchema Schematic File Version 2
LIBS:pwr
LIBS:r
LIBS:c
LIBS:led
LIBS:powered
LIBS:kl25-32
LIBS:gencon
LIBS:varistor
LIBS:pmosfet-gsd
LIBS:nmosfet-gsd
LIBS:testpoint
LIBS:inductor
LIBS:xtal-4
LIBS:micro_usb_b
LIBS:fix-cache
EELAYER 26 0
EELAYER END
$Descr A4 11693 8268
encoding utf-8
Sheet 3 4
Title ""
Date "17 may 2015"
Rev ""
Comp ""
Comment1 ""
Comment2 ""
Comment3 ""
Comment4 ""
$EndDescr
Text GLabel 10200 4500 2    60   Output ~ 0
TGT_VBUS
Text GLabel 10200 2300 2    60   Output ~ 0
TGT_VBAT
Text GLabel 5600 2900 0    60   Input ~ 0
VBAT_OFF
$Comp
L R R15
U 1 1 5550B3E9
P 7450 2300
F 0 "R15" V 7550 2300 60  0000 C CNN
F 1 "10" V 7450 2300 60  0000 C CNN
F 2 "stdpass:0402" H 7450 2300 60  0001 C CNN
F 3 "" H 7450 2300 60  0000 C CNN
F 4 "1%" V 7350 2300 60  0000 C CNN "Field4"
	1    7450 2300
	0    -1   -1   0   
$EndComp
$Comp
L PMOSFET-GSD Q1
U 1 1 5550B3F0
P 5800 2400
F 0 "Q1" V 6150 2400 60  0000 C CNN
F 1 "DMG1013T" V 5650 2950 60  0000 C CNN
F 2 "sot:SOT-523" H 5800 2400 60  0001 C CNN
F 3 "" H 5800 2400 60  0000 C CNN
	1    5800 2400
	0    1    -1   0   
$EndComp
$Comp
L 3V3 #PWR033
U 1 1 5550B3F7
P 5000 2100
F 0 "#PWR033" H 5000 2060 30  0001 C CNN
F 1 "3V3" H 5000 2250 60  0000 C CNN
F 2 "" H 5000 2100 60  0000 C CNN
F 3 "" H 5000 2100 60  0000 C CNN
	1    5000 2100
	1    0    0    -1  
$EndComp
$Comp
L PMOSFET-GSD Q3
U 1 1 5550C883
P 5900 4600
F 0 "Q3" V 6250 4600 60  0000 C CNN
F 1 "DMG1013T" V 5750 5150 60  0000 C CNN
F 2 "sot:SOT-523" H 5900 4600 60  0001 C CNN
F 3 "" H 5900 4600 60  0000 C CNN
	1    5900 4600
	0    1    -1   0   
$EndComp
$Comp
L NMOSFET-GSD Q2
U 1 1 5550C9EA
P 5800 6000
F 0 "Q2" H 5650 6325 60  0000 C CNN
F 1 "DMG1012T" H 5450 5700 60  0000 C CNN
F 2 "sot:SOT-523" H 5800 6000 60  0001 C CNN
F 3 "" H 5800 6000 60  0000 C CNN
	1    5800 6000
	1    0    0    -1  
$EndComp
$Comp
L R R14
U 1 1 5550C9F9
P 5000 4950
F 0 "R14" H 5130 5000 60  0000 C CNN
F 1 "1M" H 5150 4900 60  0000 C CNN
F 2 "stdpass:0402" H 5000 4950 60  0001 C CNN
F 3 "" H 5000 4950 60  0000 C CNN
	1    5000 4950
	1    0    0    -1  
$EndComp
Text GLabel 4800 4500 0    60   Input ~ 0
VBUS
$Comp
L GND #PWR034
U 1 1 5550CA67
P 5900 6600
F 0 "#PWR034" H 5900 6600 30  0001 C CNN
F 1 "GND" H 5900 6530 30  0001 C CNN
F 2 "" H 5900 6600 60  0000 C CNN
F 3 "" H 5900 6600 60  0000 C CNN
	1    5900 6600
	1    0    0    -1  
$EndComp
Text GLabel 5200 6000 0    60   Input ~ 0
VBUS_ON
$Comp
L R R16
U 1 1 5550CABA
P 7450 4500
F 0 "R16" V 7550 4500 60  0000 C CNN
F 1 "10" V 7450 4500 60  0000 C CNN
F 2 "stdpass:0402" H 7450 4500 60  0001 C CNN
F 3 "" H 7450 4500 60  0000 C CNN
F 4 "1%" V 7350 4500 60  0000 C CNN "Field4"
	1    7450 4500
	0    -1   -1   0   
$EndComp
$Comp
L GND #PWR035
U 1 1 5550CB0E
P 8800 6200
F 0 "#PWR035" H 8800 6200 30  0001 C CNN
F 1 "GND" H 8800 6130 30  0001 C CNN
F 2 "" H 8800 6200 60  0000 C CNN
F 3 "" H 8800 6200 60  0000 C CNN
	1    8800 6200
	1    0    0    -1  
$EndComp
$Comp
L GND #PWR036
U 1 1 5550CB14
P 9200 6200
F 0 "#PWR036" H 9200 6200 30  0001 C CNN
F 1 "GND" H 9200 6130 30  0001 C CNN
F 2 "" H 9200 6200 60  0000 C CNN
F 3 "" H 9200 6200 60  0000 C CNN
	1    9200 6200
	1    0    0    -1  
$EndComp
Text GLabel 10200 4900 2    60   Output ~ 0
DUT_VBUS_SENSE
Text GLabel 10200 5300 2    60   Output ~ 0
VBUS_SENSE
$Comp
L R R24
U 1 1 5550CC7C
P 9200 5750
F 0 "R24" H 9330 5800 60  0000 C CNN
F 1 "1k" H 9350 5700 60  0000 C CNN
F 2 "stdpass:0402" H 9200 5750 60  0001 C CNN
F 3 "" H 9200 5750 60  0000 C CNN
F 4 "1%" H 9350 5600 60  0000 C CNN "Field4"
	1    9200 5750
	1    0    0    -1  
$EndComp
$Comp
L R R22
U 1 1 5550CC83
P 8800 5750
F 0 "R22" H 8930 5800 60  0000 C CNN
F 1 "1k" H 8950 5700 60  0000 C CNN
F 2 "stdpass:0402" H 8800 5750 60  0001 C CNN
F 3 "" H 8800 5750 60  0000 C CNN
F 4 "1%" H 8950 5600 60  0000 C CNN "Field4"
	1    8800 5750
	1    0    0    -1  
$EndComp
$Comp
L R R19
U 1 1 5550D5C6
P 8350 4900
F 0 "R19" V 8450 4900 60  0000 C CNN
F 1 "1k" V 8350 4900 60  0000 C CNN
F 2 "stdpass:0402" H 8350 4900 60  0001 C CNN
F 3 "" H 8350 4900 60  0000 C CNN
F 4 "1%" V 8250 4900 60  0000 C CNN "Field4"
	1    8350 4900
	0    -1   -1   0   
$EndComp
$Comp
L R R20
U 1 1 5550D5E3
P 8350 5300
F 0 "R20" V 8450 5300 60  0000 C CNN
F 1 "1k" V 8350 5300 60  0000 C CNN
F 2 "stdpass:0402" H 8350 5300 60  0001 C CNN
F 3 "" H 8350 5300 60  0000 C CNN
F 4 "1%" V 8250 5300 60  0000 C CNN "Field4"
	1    8350 5300
	0    -1   -1   0   
$EndComp
$Comp
L ZX62-B-5PA CON4
U 1 1 5550DB0E
P 1500 4800
F 0 "CON4" H 1500 5300 60  0000 C CNN
F 1 "ZX62-B-5PA" H 1500 4300 60  0000 C CNN
F 2 "zx62-b-5pa:ZX62-B-5PA" H 1500 4800 60  0001 C CNN
F 3 "" H 1500 4800 60  0000 C CNN
	1    1500 4800
	-1   0    0    -1  
$EndComp
NoConn ~ 2100 4950
$Comp
L GND #PWR037
U 1 1 5550DB18
P 2300 5300
F 0 "#PWR037" H 2300 5300 30  0001 C CNN
F 1 "GND" H 2300 5230 30  0001 C CNN
F 2 "" H 2300 5300 60  0000 C CNN
F 3 "" H 2300 5300 60  0000 C CNN
	1    2300 5300
	1    0    0    -1  
$EndComp
$Comp
L VARISTOR V12
U 1 1 5550DC4E
P 3100 5350
F 0 "V12" V 3000 5350 60  0000 C CNN
F 1 "EZJP0V080GA" V 3200 5350 60  0000 C CNN
F 2 "stdpass:0402" H 3100 5350 60  0001 C CNN
F 3 "" H 3100 5350 60  0000 C CNN
	1    3100 5350
	1    0    0    -1  
$EndComp
$Comp
L VARISTOR V11
U 1 1 5550DC55
P 2700 5350
F 0 "V11" V 2600 5350 60  0000 C CNN
F 1 "EZJP0V080GA" V 2800 5350 60  0000 C CNN
F 2 "stdpass:0402" H 2700 5350 60  0001 C CNN
F 3 "" H 2700 5350 60  0000 C CNN
	1    2700 5350
	1    0    0    -1  
$EndComp
$Comp
L VARISTOR V13
U 1 1 5550DC5B
P 3500 5350
F 0 "V13" V 3400 5350 60  0000 C CNN
F 1 "EZJP0V080GA" V 3600 5350 60  0000 C CNN
F 2 "stdpass:0402" H 3500 5350 60  0001 C CNN
F 3 "" H 3500 5350 60  0000 C CNN
	1    3500 5350
	1    0    0    -1  
$EndComp
$Comp
L GND #PWR038
U 1 1 5550DC61
P 750 5300
F 0 "#PWR038" H 750 5300 30  0001 C CNN
F 1 "GND" H 750 5230 30  0001 C CNN
F 2 "" H 750 5300 60  0000 C CNN
F 3 "" H 750 5300 60  0000 C CNN
	1    750  5300
	1    0    0    -1  
$EndComp
Text GLabel 3800 4650 2    60   BiDi ~ 0
DM
Text GLabel 3800 4800 2    60   BiDi ~ 0
DP
Text GLabel 3800 4500 2    60   Output ~ 0
VBUS
$Comp
L GND #PWR039
U 1 1 5550DE83
P 2700 5800
F 0 "#PWR039" H 2700 5800 30  0001 C CNN
F 1 "GND" H 2700 5730 30  0001 C CNN
F 2 "" H 2700 5800 60  0000 C CNN
F 3 "" H 2700 5800 60  0000 C CNN
	1    2700 5800
	1    0    0    -1  
$EndComp
$Comp
L GND #PWR040
U 1 1 5550DE89
P 3100 5800
F 0 "#PWR040" H 3100 5800 30  0001 C CNN
F 1 "GND" H 3100 5730 30  0001 C CNN
F 2 "" H 3100 5800 60  0000 C CNN
F 3 "" H 3100 5800 60  0000 C CNN
	1    3100 5800
	1    0    0    -1  
$EndComp
$Comp
L GND #PWR041
U 1 1 5550DE8F
P 3500 5800
F 0 "#PWR041" H 3500 5800 30  0001 C CNN
F 1 "GND" H 3500 5730 30  0001 C CNN
F 2 "" H 3500 5800 60  0000 C CNN
F 3 "" H 3500 5800 60  0000 C CNN
	1    3500 5800
	1    0    0    -1  
$EndComp
$Comp
L C C10
U 1 1 5558C9E7
P 9600 5750
F 0 "C10" H 9650 5850 60  0000 L CNN
F 1 "10nF" H 9650 5650 60  0000 L CNN
F 2 "stdpass:0402" H 9600 5750 60  0001 C CNN
F 3 "" H 9600 5750 60  0000 C CNN
	1    9600 5750
	1    0    0    -1  
$EndComp
$Comp
L C C12
U 1 1 5558C9ED
P 10000 5750
F 0 "C12" H 10050 5850 60  0000 L CNN
F 1 "10nF" H 10050 5650 60  0000 L CNN
F 2 "stdpass:0402" H 10000 5750 60  0001 C CNN
F 3 "" H 10000 5750 60  0000 C CNN
	1    10000 5750
	1    0    0    -1  
$EndComp
$Comp
L GND #PWR042
U 1 1 5558C9F3
P 9600 6200
F 0 "#PWR042" H 9600 6200 30  0001 C CNN
F 1 "GND" H 9600 6130 30  0001 C CNN
F 2 "" H 9600 6200 60  0000 C CNN
F 3 "" H 9600 6200 60  0000 C CNN
	1    9600 6200
	1    0    0    -1  
$EndComp
$Comp
L GND #PWR043
U 1 1 5558C9F9
P 10000 6200
F 0 "#PWR043" H 10000 6200 30  0001 C CNN
F 1 "GND" H 10000 6130 30  0001 C CNN
F 2 "" H 10000 6200 60  0000 C CNN
F 3 "" H 10000 6200 60  0000 C CNN
	1    10000 6200
	1    0    0    -1  
$EndComp
Wire Wire Line
	5000 2300 5400 2300
Wire Wire Line
	6200 2300 7200 2300
Wire Wire Line
	5000 2300 5000 2100
Wire Wire Line
	5600 2900 5800 2900
Wire Wire Line
	5800 2900 5800 2700
Wire Wire Line
	5900 4900 5900 5600
Wire Wire Line
	5000 5200 5000 5400
Wire Wire Line
	5000 5400 5900 5400
Connection ~ 5900 5400
Wire Wire Line
	4800 4500 5500 4500
Wire Wire Line
	5000 4700 5000 4500
Connection ~ 5000 4500
Wire Wire Line
	5900 6400 5900 6600
Wire Wire Line
	5200 6000 5500 6000
Wire Wire Line
	6300 4500 7200 4500
Wire Wire Line
	7000 4500 7000 5300
Connection ~ 7000 4500
Wire Wire Line
	7900 4500 7900 4900
Wire Wire Line
	9200 6000 9200 6200
Wire Wire Line
	8800 6000 8800 6200
Connection ~ 7900 4500
Connection ~ 7900 2300
Wire Wire Line
	7900 4900 8100 4900
Wire Wire Line
	7000 5300 8100 5300
Wire Wire Line
	8600 4900 10200 4900
Wire Wire Line
	8600 5300 10200 5300
Wire Wire Line
	8800 4900 8800 5500
Connection ~ 8800 4900
Wire Wire Line
	9200 5500 9200 5300
Connection ~ 9200 5300
Wire Wire Line
	2100 4650 3800 4650
Wire Wire Line
	2100 4800 3800 4800
Wire Wire Line
	2100 5100 2300 5100
Wire Wire Line
	750  4500 750  5300
Wire Wire Line
	750  4500 950  4500
Wire Wire Line
	950  4600 750  4600
Connection ~ 750  4600
Wire Wire Line
	950  4750 750  4750
Connection ~ 750  4750
Wire Wire Line
	950  4850 750  4850
Connection ~ 750  4850
Wire Wire Line
	950  5000 750  5000
Connection ~ 750  5000
Wire Wire Line
	950  5100 750  5100
Connection ~ 750  5100
Wire Wire Line
	2300 5100 2300 5300
Wire Wire Line
	3500 4500 3500 5200
Connection ~ 3500 4500
Wire Wire Line
	2700 4800 2700 5200
Wire Wire Line
	3100 4650 3100 5200
Wire Wire Line
	2700 5500 2700 5800
Wire Wire Line
	3100 5500 3100 5800
Wire Wire Line
	3500 5500 3500 5800
Connection ~ 3100 4650
Connection ~ 2700 4800
Wire Wire Line
	9600 5550 9600 4900
Connection ~ 9600 4900
Wire Wire Line
	9600 5950 9600 6200
Wire Wire Line
	10000 5950 10000 6200
Wire Wire Line
	7700 2300 10200 2300
Wire Wire Line
	7700 4500 10200 4500
Wire Wire Line
	10000 5550 10000 5300
Connection ~ 10000 5300
$Comp
L GND #PWR044
U 1 1 58D8396F
P 8800 4000
F 0 "#PWR044" H 8800 4000 30  0001 C CNN
F 1 "GND" H 8800 3930 30  0001 C CNN
F 2 "" H 8800 4000 60  0000 C CNN
F 3 "" H 8800 4000 60  0000 C CNN
	1    8800 4000
	1    0    0    -1  
$EndComp
$Comp
L GND #PWR045
U 1 1 58D83975
P 9200 4000
F 0 "#PWR045" H 9200 4000 30  0001 C CNN
F 1 "GND" H 9200 3930 30  0001 C CNN
F 2 "" H 9200 4000 60  0000 C CNN
F 3 "" H 9200 4000 60  0000 C CNN
	1    9200 4000
	1    0    0    -1  
$EndComp
Text GLabel 10200 2700 2    60   Output ~ 0
DUT_VBAT_SENSE
Text GLabel 10200 3100 2    60   Output ~ 0
VBAT_SENSE
$Comp
L R R23
U 1 1 58D8397E
P 9200 3550
F 0 "R23" H 9330 3600 60  0000 C CNN
F 1 "1k" H 9350 3500 60  0000 C CNN
F 2 "stdpass:0402" H 9200 3550 60  0001 C CNN
F 3 "" H 9200 3550 60  0000 C CNN
F 4 "1%" H 9350 3400 60  0000 C CNN "Field4"
	1    9200 3550
	1    0    0    -1  
$EndComp
$Comp
L R R21
U 1 1 58D83985
P 8800 3550
F 0 "R21" H 8930 3600 60  0000 C CNN
F 1 "1k" H 8950 3500 60  0000 C CNN
F 2 "stdpass:0402" H 8800 3550 60  0001 C CNN
F 3 "" H 8800 3550 60  0000 C CNN
F 4 "1%" H 8950 3400 60  0000 C CNN "Field4"
	1    8800 3550
	1    0    0    -1  
$EndComp
$Comp
L R R17
U 1 1 58D8398C
P 8350 2700
F 0 "R17" V 8450 2700 60  0000 C CNN
F 1 "1k" V 8350 2700 60  0000 C CNN
F 2 "stdpass:0402" H 8350 2700 60  0001 C CNN
F 3 "" H 8350 2700 60  0000 C CNN
F 4 "1%" V 8250 2700 60  0000 C CNN "Field4"
	1    8350 2700
	0    -1   -1   0   
$EndComp
$Comp
L R R18
U 1 1 58D83993
P 8350 3100
F 0 "R18" V 8450 3100 60  0000 C CNN
F 1 "1k" V 8350 3100 60  0000 C CNN
F 2 "stdpass:0402" H 8350 3100 60  0001 C CNN
F 3 "" H 8350 3100 60  0000 C CNN
F 4 "1%" V 8250 3100 60  0000 C CNN "Field4"
	1    8350 3100
	0    -1   -1   0   
$EndComp
$Comp
L C C9
U 1 1 58D83999
P 9600 3550
F 0 "C9" H 9650 3650 60  0000 L CNN
F 1 "10nF" H 9650 3450 60  0000 L CNN
F 2 "stdpass:0402" H 9600 3550 60  0001 C CNN
F 3 "" H 9600 3550 60  0000 C CNN
	1    9600 3550
	1    0    0    -1  
$EndComp
$Comp
L C C11
U 1 1 58D8399F
P 10000 3550
F 0 "C11" H 10050 3650 60  0000 L CNN
F 1 "10nF" H 10050 3450 60  0000 L CNN
F 2 "stdpass:0402" H 10000 3550 60  0001 C CNN
F 3 "" H 10000 3550 60  0000 C CNN
	1    10000 3550
	1    0    0    -1  
$EndComp
$Comp
L GND #PWR046
U 1 1 58D839A5
P 9600 4000
F 0 "#PWR046" H 9600 4000 30  0001 C CNN
F 1 "GND" H 9600 3930 30  0001 C CNN
F 2 "" H 9600 4000 60  0000 C CNN
F 3 "" H 9600 4000 60  0000 C CNN
	1    9600 4000
	1    0    0    -1  
$EndComp
$Comp
L GND #PWR047
U 1 1 58D839AB
P 10000 4000
F 0 "#PWR047" H 10000 4000 30  0001 C CNN
F 1 "GND" H 10000 3930 30  0001 C CNN
F 2 "" H 10000 4000 60  0000 C CNN
F 3 "" H 10000 4000 60  0000 C CNN
	1    10000 4000
	1    0    0    -1  
$EndComp
Wire Wire Line
	7900 2300 7900 2700
Wire Wire Line
	9200 3800 9200 4000
Wire Wire Line
	8800 3800 8800 4000
Wire Wire Line
	7900 2700 8100 2700
Wire Wire Line
	7000 3100 8100 3100
Wire Wire Line
	8600 2700 10200 2700
Wire Wire Line
	8600 3100 10200 3100
Wire Wire Line
	8800 2700 8800 3300
Connection ~ 8800 2700
Wire Wire Line
	9200 3300 9200 3100
Connection ~ 9200 3100
Wire Wire Line
	9600 3350 9600 2700
Connection ~ 9600 2700
Wire Wire Line
	9600 3750 9600 4000
Wire Wire Line
	10000 3750 10000 4000
Wire Wire Line
	10000 3350 10000 3100
Connection ~ 10000 3100
Wire Wire Line
	7000 3100 7000 2300
Connection ~ 7000 2300
Text Notes 2950 3600 0    120  ~ 24
TODO: use LDO to provide VBAT from VBUS, with an\noutput range from 0 V - 3.3 V, governed by DAC
Text Notes 900  1250 0    200  ~ 40
Power+USB
$Comp
L POWERED #FLG048
U 1 1 58D84189
P 1400 6700
F 0 "#FLG048" H 1600 6600 60  0001 C CNN
F 1 "POWERED" H 1400 6750 60  0000 C CNN
F 2 "" H 1400 6700 60  0001 C CNN
F 3 "" H 1400 6700 60  0001 C CNN
	1    1400 6700
	1    0    0    -1  
$EndComp
$Comp
L GND #PWR049
U 1 1 58D842F4
P 1400 7100
F 0 "#PWR049" H 1400 7100 30  0001 C CNN
F 1 "GND" H 1400 7030 30  0001 C CNN
F 2 "" H 1400 7100 60  0000 C CNN
F 3 "" H 1400 7100 60  0000 C CNN
	1    1400 7100
	1    0    0    -1  
$EndComp
Wire Wire Line
	1400 6900 1400 7100
Wire Wire Line
	2100 4500 3800 4500
$Comp
L POWERED #FLG050
U 1 1 58D83332
P 2600 4100
F 0 "#FLG050" H 2800 4000 60  0001 C CNN
F 1 "POWERED" H 2600 4150 60  0000 C CNN
F 2 "" H 2600 4100 60  0001 C CNN
F 3 "" H 2600 4100 60  0001 C CNN
	1    2600 4100
	1    0    0    -1  
$EndComp
Wire Wire Line
	2600 4300 2600 4500
Connection ~ 2600 4500
Text Notes 2350 7300 0    120  ~ 24
TODO: add SENSE3/4 channels\nTODO: add 3rd supply (from ext connector)
$EndSCHEMATC
