EESchema Schematic File Version 2
LIBS:pwr
LIBS:r
LIBS:c
LIBS:led
LIBS:powered
LIBS:kl25-48
LIBS:memcard8
LIBS:micro_usb_b
LIBS:varistor
LIBS:pmosfet-gsd
LIBS:antenna
LIBS:er-oled-fpc30
LIBS:at86rf231
LIBS:balun-smt6
LIBS:xtal-4
LIBS:testpoint
LIBS:tswa
LIBS:device_sot
LIBS:gencon
LIBS:aat1217
LIBS:inductor
LIBS:switch
LIBS:anelok-cache
EELAYER 24 0
EELAYER END
$Descr A4 11693 8268
encoding utf-8
Sheet 3 5
Title "Anelok Password Safe"
Date "5 oct 2013"
Rev ""
Comp "Werner Almesberger"
Comment1 ""
Comment2 ""
Comment3 ""
Comment4 ""
$EndDescr
Text GLabel 10100 3700 2    60   Input ~ 0
RF_nSS
Text GLabel 10100 3850 2    60   Input ~ 0
RF_MOSI
Text GLabel 10100 4150 2    60   Output ~ 0
RF_MISO
Text GLabel 10100 4300 2    60   Input ~ 0
RF_SCLK
Text GLabel 10100 5700 2    60   Output ~ 0
RF_CLK
Text GLabel 7500 6300 3    60   Input ~ 0
RF_SLP_TR
Text GLabel 5700 4600 0    60   Input ~ 0
RF_nRST
Text GLabel 7350 6300 3    60   Output ~ 0
RF_DIG2
Connection ~ 9900 5700
Wire Wire Line
	10100 5700 9900 5700
Wire Wire Line
	9900 5500 9900 5900
Wire Wire Line
	2200 4350 2200 4550
Connection ~ 5900 3700
Wire Wire Line
	5900 3700 6400 3700
Wire Wire Line
	6400 4450 6200 4450
Wire Wire Line
	6200 4450 6200 4800
Wire Wire Line
	2850 4950 2850 4150
Wire Wire Line
	4050 4950 4050 4750
Wire Wire Line
	3850 3950 4050 3950
Wire Wire Line
	4650 4150 4850 4150
Wire Wire Line
	4850 4150 4850 4000
Wire Wire Line
	4850 4000 6400 4000
Wire Wire Line
	4650 3750 5050 3750
Wire Wire Line
	5050 3750 5050 4150
Wire Wire Line
	5050 4150 6400 4150
Wire Wire Line
	1100 3750 1500 3750
Wire Wire Line
	1300 4550 1300 3850
Connection ~ 8100 6100
Wire Wire Line
	8300 6100 8100 6100
Wire Wire Line
	7300 2000 7300 1800
Wire Wire Line
	7800 2600 7800 1200
Wire Wire Line
	7950 2600 7950 2400
Wire Wire Line
	7650 2600 7650 2400
Connection ~ 9400 2400
Wire Wire Line
	9600 2400 8250 2400
Wire Wire Line
	8250 2400 8250 2600
Connection ~ 10200 1900
Wire Wire Line
	10200 1900 9800 1900
Wire Wire Line
	10200 2600 10200 1100
Wire Wire Line
	10200 1100 10000 1100
Wire Wire Line
	9400 1300 9400 1100
Connection ~ 7200 2400
Wire Wire Line
	5900 2400 7500 2400
Wire Wire Line
	5900 2400 5900 4800
Connection ~ 5900 4300
Wire Wire Line
	6400 4300 5900 4300
Wire Wire Line
	7800 6900 7800 6700
Wire Wire Line
	7200 5400 7200 5800
Connection ~ 9400 4450
Wire Wire Line
	9400 4800 9400 4000
Wire Wire Line
	9200 4450 9400 4450
Wire Wire Line
	10100 3550 9200 3550
Wire Wire Line
	10100 3850 9200 3850
Wire Wire Line
	10100 4300 9200 4300
Wire Wire Line
	8250 5800 8250 5400
Wire Wire Line
	8100 6300 8100 5400
Wire Wire Line
	7800 6300 7800 5400
Wire Wire Line
	7950 5400 7950 5600
Wire Wire Line
	7950 5600 7800 5600
Connection ~ 7800 5600
Wire Wire Line
	5700 4600 6400 4600
Wire Wire Line
	9200 4150 10100 4150
Wire Wire Line
	9200 3700 10100 3700
Wire Wire Line
	9400 4000 9200 4000
Wire Wire Line
	7650 5800 7650 5400
Wire Wire Line
	7350 5400 7350 6300
Wire Wire Line
	8100 6700 8100 6900
Wire Wire Line
	8700 5800 8700 5400
Wire Wire Line
	5900 3850 6400 3850
Connection ~ 5900 3850
Wire Wire Line
	7500 2400 7500 2600
Wire Wire Line
	7200 2400 7200 2600
Wire Wire Line
	7350 2600 7350 2400
Connection ~ 7350 2400
Wire Wire Line
	9400 2200 9400 2400
Wire Wire Line
	10200 2400 10000 2400
Connection ~ 10200 2400
Wire Wire Line
	9800 1600 10200 1600
Connection ~ 10200 1600
Wire Wire Line
	8100 2600 8100 1100
Wire Wire Line
	8100 1100 9600 1100
Connection ~ 9400 1100
Wire Wire Line
	7650 2000 7650 1800
Wire Wire Line
	7500 6300 7500 5400
Wire Wire Line
	7300 1400 7300 1200
Wire Wire Line
	7300 1200 7800 1200
Wire Wire Line
	7550 1000 7550 1200
Connection ~ 7550 1200
Wire Wire Line
	1300 3850 1100 3850
Wire Wire Line
	2000 3750 3050 3750
Wire Wire Line
	3850 3750 4250 3750
Wire Wire Line
	3850 4150 4250 4150
Wire Wire Line
	2850 4150 3050 4150
Wire Wire Line
	4050 3550 4050 4350
Connection ~ 4050 3950
Wire Wire Line
	3050 4250 2850 4250
Connection ~ 2850 4250
Wire Wire Line
	5900 3550 6400 3550
Connection ~ 5900 3550
Wire Wire Line
	2200 3950 2200 3750
Connection ~ 2200 3750
Wire Wire Line
	9200 4600 9900 4600
Wire Wire Line
	9900 4600 9900 5000
Wire Wire Line
	9900 6300 9900 6500
$Comp
L C C24
U 1 1 5236C3E2
P 9900 6100
F 0 "C24" H 9950 6200 50  0000 L CNN
F 1 "2.2pF" H 9950 6000 50  0000 L CNN
F 2 "0402" H 9900 6100 60  0001 C CNN
F 3 "" H 9900 6100 60  0001 C CNN
	1    9900 6100
	-1   0    0    -1  
$EndComp
$Comp
L R R8
U 1 1 5236C3E8
P 9900 5250
F 0 "R8" V 9980 5250 50  0000 C CNN
F 1 "180" V 9900 5250 50  0000 C CNN
F 2 "0402" H 9900 5250 60  0001 C CNN
F 3 "" H 9900 5250 60  0001 C CNN
	1    9900 5250
	-1   0    0    -1  
$EndComp
$Comp
L C C21
U 1 1 5236C3F4
P 2200 4150
F 0 "C21" H 2250 4250 50  0000 L CNN
F 1 "NC" H 2250 4050 50  0000 L CNN
F 2 "0402" H 2200 4150 60  0001 C CNN
F 3 "" H 2200 4150 60  0001 C CNN
	1    2200 4150
	1    0    0    -1  
$EndComp
$Comp
L AT86RF231 U2
U 1 1 5236C400
P 7800 4000
F 0 "U2" H 6800 5200 60  0000 C CNN
F 1 "AT86RF232" H 7800 4000 60  0000 C CNN
F 2 "QFN32-VHHD-6" H 7800 4000 60  0001 C CNN
F 3 "" H 7800 4000 60  0001 C CNN
	1    7800 4000
	1    0    0    -1  
$EndComp
Text Label 2550 3750 0    60   ~ 0
FEED
$Comp
L R R7
U 1 1 5236C419
P 1750 3750
F 0 "R7" V 1830 3750 50  0000 C CNN
F 1 "0R" V 1750 3750 50  0000 C CNN
F 2 "0402" H 1750 3750 60  0001 C CNN
F 3 "" H 1750 3750 60  0001 C CNN
	1    1750 3750
	0    -1   -1   0   
$EndComp
$Comp
L BALUN-SMT6 B1
U 1 1 5236C41F
P 3450 3950
F 0 "B1" H 3150 4300 60  0000 C CNN
F 1 "2450FB15L0001" H 3450 3500 60  0000 C CNN
F 2 "0805-6" H 3450 3950 60  0001 C CNN
F 3 "" H 3450 3950 60  0001 C CNN
	1    3450 3950
	1    0    0    -1  
$EndComp
Text Label 9650 4600 0    60   ~ 0
CLKM
Text Label 5450 4150 0    60   ~ 0
RFN
Text Label 5450 4000 0    60   ~ 0
RPF
$Comp
L C C23
U 1 1 5236C440
P 4050 4550
F 0 "C23" H 4100 4650 50  0000 L CNN
F 1 "22pF/RF" H 4100 4450 50  0000 L CNN
F 2 "0402" H 4050 4550 60  0001 C CNN
F 3 "" H 4050 4550 60  0001 C CNN
	1    4050 4550
	1    0    0    -1  
$EndComp
$Comp
L C C22
U 1 1 5236C446
P 4450 4150
F 0 "C22" H 4500 4250 50  0000 L CNN
F 1 "22pF/RF" H 4500 4050 50  0000 L CNN
F 2 "0402" H 4450 4150 60  0001 C CNN
F 3 "" H 4450 4150 60  0001 C CNN
	1    4450 4150
	0    -1   -1   0   
$EndComp
$Comp
L C C20
U 1 1 5236C44C
P 4450 3750
F 0 "C20" H 4500 3850 50  0000 L CNN
F 1 "22pF/RF" H 4500 3650 50  0000 L CNN
F 2 "0402" H 4450 3750 60  0001 C CNN
F 3 "" H 4450 3750 60  0001 C CNN
	1    4450 3750
	0    -1   -1   0   
$EndComp
Text Notes 1000 1350 0    200  ~ 40
RF
$Comp
L C C18
U 1 1 5236C478
P 7650 2200
F 0 "C18" H 7700 2300 50  0000 L CNN
F 1 "1uF" H 7700 2100 50  0000 L CNN
F 2 "0402" H 7650 2200 60  0001 C CNN
F 3 "" H 7650 2200 60  0001 C CNN
	1    7650 2200
	-1   0    0    -1  
$EndComp
$Comp
L C C25
U 1 1 5236C4B4
P 7800 6500
F 0 "C25" H 7850 6600 50  0000 L CNN
F 1 "1uF" H 7850 6400 50  0000 L CNN
F 2 "0402" H 7800 6500 60  0001 C CNN
F 3 "" H 7800 6500 60  0001 C CNN
	1    7800 6500
	1    0    0    -1  
$EndComp
$Comp
L C C26
U 1 1 5236C4BA
P 8100 6500
F 0 "C26" H 8150 6600 50  0000 L CNN
F 1 "1uF" H 8150 6400 50  0000 L CNN
F 2 "0402" H 8100 6500 60  0001 C CNN
F 3 "" H 8100 6500 60  0001 C CNN
	1    8100 6500
	1    0    0    -1  
$EndComp
$Comp
L C C19
U 1 1 5236C4C0
P 9800 2400
F 0 "C19" H 9850 2500 50  0000 L CNN
F 1 "12pF" H 9850 2300 50  0000 L CNN
F 2 "0402" H 9800 2400 60  0001 C CNN
F 3 "" H 9800 2400 60  0001 C CNN
	1    9800 2400
	0    -1   1    0   
$EndComp
$Comp
L C C17
U 1 1 5236C4C6
P 7300 1600
F 0 "C17" H 7350 1700 50  0000 L CNN
F 1 "1uF" H 7350 1500 50  0000 L CNN
F 2 "0402" H 7300 1600 60  0001 C CNN
F 3 "" H 7300 1600 60  0001 C CNN
	1    7300 1600
	-1   0    0    -1  
$EndComp
$Comp
L C C16
U 1 1 5236C4CC
P 9800 1100
F 0 "C16" H 9850 1200 50  0000 L CNN
F 1 "12pF" H 9850 1000 50  0000 L CNN
F 2 "0402" H 9800 1100 60  0001 C CNN
F 3 "" H 9800 1100 60  0001 C CNN
	1    9800 1100
	0    -1   1    0   
$EndComp
$Comp
L ANTENNA ANT1
U 1 1 5236C4D2
P 800 3800
F 0 "ANT1" H 800 4050 60  0000 C CNN
F 1 "50R" H 800 3550 60  0000 C CNN
F 2 "meander" H 800 3800 60  0001 C CNN
F 3 "" H 800 3800 60  0001 C CNN
	1    800  3800
	1    0    0    -1  
$EndComp
$Comp
L XTAL-4 X1
U 1 1 5236C4DB
P 9400 1750
F 0 "X1" V 9550 2450 60  0000 R CNN
F 1 "16MHz" V 9400 2450 60  0000 R CNN
F 2 "xtal4-3.2mmx2.5mm" H 9400 1750 60  0001 C CNN
F 3 "" H 9400 1750 60  0001 C CNN
F 4 "8pF" V 9250 2450 60  0000 R CNN "Field1"
F 5 "40ppm" V 9150 2450 60  0000 R CNN "Field2"
F 6 "ESR<=100R" V 9050 2450 60  0000 R CNN "Field3"
	1    9400 1750
	0    -1   -1   0   
$EndComp
$Comp
L GND #PWR022
U 1 1 5236C4E3
P 2850 4950
F 0 "#PWR022" H 2850 4950 30  0001 C CNN
F 1 "GND" H 2850 4880 30  0001 C CNN
F 2 "" H 2850 4950 60  0000 C CNN
F 3 "" H 2850 4950 60  0000 C CNN
	1    2850 4950
	1    0    0    -1  
$EndComp
$Comp
L GND #PWR023
U 1 1 5236C4F0
P 2200 4550
F 0 "#PWR023" H 2200 4550 30  0001 C CNN
F 1 "GND" H 2200 4480 30  0001 C CNN
F 2 "" H 2200 4550 60  0000 C CNN
F 3 "" H 2200 4550 60  0000 C CNN
	1    2200 4550
	1    0    0    -1  
$EndComp
$Comp
L GND #PWR024
U 1 1 5236C4F6
P 1300 4550
F 0 "#PWR024" H 1300 4550 30  0001 C CNN
F 1 "GND" H 1300 4480 30  0001 C CNN
F 2 "" H 1300 4550 60  0000 C CNN
F 3 "" H 1300 4550 60  0000 C CNN
	1    1300 4550
	1    0    0    -1  
$EndComp
$Comp
L GND #PWR025
U 1 1 5236C4FC
P 4050 4950
F 0 "#PWR025" H 4050 4950 30  0001 C CNN
F 1 "GND" H 4050 4880 30  0001 C CNN
F 2 "" H 4050 4950 60  0000 C CNN
F 3 "" H 4050 4950 60  0000 C CNN
	1    4050 4950
	1    0    0    -1  
$EndComp
$Comp
L GND #PWR026
U 1 1 5236C502
P 5900 4800
F 0 "#PWR026" H 5900 4800 30  0001 C CNN
F 1 "GND" H 5900 4730 30  0001 C CNN
F 2 "" H 5900 4800 60  0000 C CNN
F 3 "" H 5900 4800 60  0000 C CNN
	1    5900 4800
	1    0    0    -1  
$EndComp
$Comp
L GND #PWR027
U 1 1 5236C508
P 6200 4800
F 0 "#PWR027" H 6200 4800 30  0001 C CNN
F 1 "GND" H 6200 4730 30  0001 C CNN
F 2 "" H 6200 4800 60  0000 C CNN
F 3 "" H 6200 4800 60  0000 C CNN
	1    6200 4800
	1    0    0    -1  
$EndComp
$Comp
L GND #PWR028
U 1 1 5236C50E
P 7200 5800
F 0 "#PWR028" H 7200 5800 30  0001 C CNN
F 1 "GND" H 7200 5730 30  0001 C CNN
F 2 "" H 7200 5800 60  0000 C CNN
F 3 "" H 7200 5800 60  0000 C CNN
	1    7200 5800
	1    0    0    -1  
$EndComp
$Comp
L GND #PWR029
U 1 1 5236C514
P 7650 5800
F 0 "#PWR029" H 7650 5800 30  0001 C CNN
F 1 "GND" H 7650 5730 30  0001 C CNN
F 2 "" H 7650 5800 60  0000 C CNN
F 3 "" H 7650 5800 60  0000 C CNN
	1    7650 5800
	1    0    0    -1  
$EndComp
$Comp
L GND #PWR030
U 1 1 5236C51A
P 8250 5800
F 0 "#PWR030" H 8250 5800 30  0001 C CNN
F 1 "GND" H 8250 5730 30  0001 C CNN
F 2 "" H 8250 5800 60  0000 C CNN
F 3 "" H 8250 5800 60  0000 C CNN
	1    8250 5800
	1    0    0    -1  
$EndComp
$Comp
L GND #PWR031
U 1 1 5236C520
P 8700 5800
F 0 "#PWR031" H 8700 5800 30  0001 C CNN
F 1 "GND" H 8700 5730 30  0001 C CNN
F 2 "" H 8700 5800 60  0000 C CNN
F 3 "" H 8700 5800 60  0000 C CNN
	1    8700 5800
	1    0    0    -1  
$EndComp
$Comp
L GND #PWR032
U 1 1 5236C526
P 9400 4800
F 0 "#PWR032" H 9400 4800 30  0001 C CNN
F 1 "GND" H 9400 4730 30  0001 C CNN
F 2 "" H 9400 4800 60  0000 C CNN
F 3 "" H 9400 4800 60  0000 C CNN
	1    9400 4800
	1    0    0    -1  
$EndComp
$Comp
L GND #PWR033
U 1 1 5236C52C
P 9900 6500
F 0 "#PWR033" H 9900 6500 30  0001 C CNN
F 1 "GND" H 9900 6430 30  0001 C CNN
F 2 "" H 9900 6500 60  0000 C CNN
F 3 "" H 9900 6500 60  0000 C CNN
	1    9900 6500
	1    0    0    -1  
$EndComp
$Comp
L GND #PWR034
U 1 1 5236C532
P 10200 2600
F 0 "#PWR034" H 10200 2600 30  0001 C CNN
F 1 "GND" H 10200 2530 30  0001 C CNN
F 2 "" H 10200 2600 60  0000 C CNN
F 3 "" H 10200 2600 60  0000 C CNN
	1    10200 2600
	1    0    0    -1  
$EndComp
$Comp
L GND #PWR035
U 1 1 5236C538
P 7300 2000
F 0 "#PWR035" H 7300 2000 30  0001 C CNN
F 1 "GND" H 7300 1930 30  0001 C CNN
F 2 "" H 7300 2000 60  0000 C CNN
F 3 "" H 7300 2000 60  0000 C CNN
	1    7300 2000
	1    0    0    -1  
$EndComp
$Comp
L GND #PWR036
U 1 1 5236C53E
P 7950 2400
F 0 "#PWR036" H 7950 2400 30  0001 C CNN
F 1 "GND" H 7950 2330 30  0001 C CNN
F 2 "" H 7950 2400 60  0000 C CNN
F 3 "" H 7950 2400 60  0000 C CNN
	1    7950 2400
	-1   0    0    1   
$EndComp
$Comp
L GND #PWR037
U 1 1 5236C544
P 7650 1800
F 0 "#PWR037" H 7650 1800 30  0001 C CNN
F 1 "GND" H 7650 1730 30  0001 C CNN
F 2 "" H 7650 1800 60  0000 C CNN
F 3 "" H 7650 1800 60  0000 C CNN
	1    7650 1800
	-1   0    0    1   
$EndComp
Text GLabel 8300 6100 2    60   Input ~ 0
VSYS
Text GLabel 7550 1000 1    60   Input ~ 0
VSYS
$Comp
L GND #PWR038
U 1 1 5236C54D
P 8100 6900
F 0 "#PWR038" H 8100 6900 30  0001 C CNN
F 1 "GND" H 8100 6830 30  0001 C CNN
F 2 "" H 8100 6900 60  0000 C CNN
F 3 "" H 8100 6900 60  0000 C CNN
	1    8100 6900
	1    0    0    -1  
$EndComp
$Comp
L GND #PWR039
U 1 1 5236C553
P 7800 6900
F 0 "#PWR039" H 7800 6900 30  0001 C CNN
F 1 "GND" H 7800 6830 30  0001 C CNN
F 2 "" H 7800 6900 60  0000 C CNN
F 3 "" H 7800 6900 60  0000 C CNN
	1    7800 6900
	1    0    0    -1  
$EndComp
Text GLabel 10100 3550 2    60   Output ~ 0
RF_IRQ
$Comp
L POWERED #FLG040
U 1 1 5236C5CE
P 4050 3350
F 0 "#FLG040" H 4250 3250 60  0001 C CNN
F 1 "POWERED" H 4050 3400 60  0000 C CNN
F 2 "" H 4050 3350 60  0000 C CNN
F 3 "" H 4050 3350 60  0000 C CNN
	1    4050 3350
	1    0    0    -1  
$EndComp
$EndSCHEMATC
