EESchema Schematic File Version 2
LIBS:pwr
LIBS:r
LIBS:c
LIBS:led
LIBS:powered
LIBS:kl25-48
LIBS:memcard8
LIBS:micro_usb_b
LIBS:varistor
LIBS:pmosfet-gsd
LIBS:antenna
LIBS:er-oled-fpc30
LIBS:cc2543
LIBS:balun-smt6
LIBS:xtal-4
LIBS:testpoint
LIBS:nmosfet-gsd
LIBS:diode
LIBS:gencon
LIBS:aat1217
LIBS:inductor
LIBS:crystal
LIBS:switch
LIBS:anelok-cache
EELAYER 24 0
EELAYER END
$Descr A4 11693 8268
encoding utf-8
Sheet 3 6
Title "Anelok Password Safe"
Date "15 aug 2014"
Rev ""
Comp "Werner Almesberger"
Comment1 ""
Comment2 ""
Comment3 ""
Comment4 ""
$EndDescr
Wire Wire Line
	9200 2400 9000 2400
Wire Wire Line
	9000 2400 9000 5500
$Comp
L GND #PWR037
U 1 1 5235E2BE
P 9000 5500
F 0 "#PWR037" H 9000 5500 30  0001 C CNN
F 1 "GND" H 9000 5430 30  0001 C CNN
F 2 "" H 9000 5500 60  0000 C CNN
F 3 "" H 9000 5500 60  0000 C CNN
	1    9000 5500
	1    0    0    -1  
$EndComp
Wire Wire Line
	9200 3100 9000 3100
Connection ~ 9000 3100
Wire Wire Line
	9200 3300 9000 3300
Connection ~ 9000 3300
Wire Wire Line
	9200 3400 9000 3400
Connection ~ 9000 3400
Wire Wire Line
	9200 3500 9000 3500
Connection ~ 9000 3500
Wire Wire Line
	9200 5200 9000 5200
Connection ~ 9000 5200
NoConn ~ 9200 4300
Wire Wire Line
	9200 4400 9000 4400
Connection ~ 9000 4400
Wire Wire Line
	9200 4500 9000 4500
Connection ~ 9000 4500
Wire Wire Line
	9200 4600 9000 4600
Connection ~ 9000 4600
Wire Wire Line
	9200 4700 9000 4700
Connection ~ 9000 4700
Wire Wire Line
	9200 4800 9000 4800
Connection ~ 9000 4800
$Comp
L R R12
U 1 1 5235E35C
P 8600 5550
F 0 "R12" H 8730 5600 60  0000 C CNN
F 1 "82k" H 8750 5500 60  0000 C CNN
F 2 "" H 8600 5550 60  0000 C CNN
F 3 "" H 8600 5550 60  0000 C CNN
	1    8600 5550
	1    0    0    -1  
$EndComp
$Comp
L R R14
U 1 1 5235E36B
P 8600 6250
F 0 "R14" H 8730 6300 60  0000 C CNN
F 1 "680k" H 8750 6200 60  0000 C CNN
F 2 "" H 8600 6250 60  0000 C CNN
F 3 "" H 8600 6250 60  0000 C CNN
	1    8600 6250
	1    0    0    -1  
$EndComp
$Comp
L GND #PWR038
U 1 1 5235E396
P 8600 6700
F 0 "#PWR038" H 8600 6700 30  0001 C CNN
F 1 "GND" H 8600 6630 30  0001 C CNN
F 2 "" H 8600 6700 60  0000 C CNN
F 3 "" H 8600 6700 60  0000 C CNN
	1    8600 6700
	1    0    0    -1  
$EndComp
Wire Wire Line
	9200 4900 8600 4900
Wire Wire Line
	8600 4900 8600 5300
Wire Wire Line
	8600 5800 8600 6000
Wire Wire Line
	8600 6500 8600 6700
Wire Wire Line
	9200 3900 9000 3900
Connection ~ 9000 3900
Wire Wire Line
	9200 4000 9000 4000
Connection ~ 9000 4000
$Comp
L C C14
U 1 1 5235E437
P 7500 5500
F 0 "C14" H 7550 5600 60  0000 L CNN
F 1 "4.7uF" H 7550 5400 60  0000 L CNN
F 2 "" H 7500 5500 60  0000 C CNN
F 3 "" H 7500 5500 60  0000 C CNN
F 4 "16V" H 7650 5300 60  0000 C CNN "V"
	1    7500 5500
	1    0    0    -1  
$EndComp
Wire Wire Line
	9200 5100 8000 5100
Wire Wire Line
	8000 4900 8000 5300
Wire Wire Line
	9200 5000 7500 5000
Wire Wire Line
	7500 5000 7500 5300
$Comp
L GND #PWR039
U 1 1 5235E47D
P 8000 5900
F 0 "#PWR039" H 8000 5900 30  0001 C CNN
F 1 "GND" H 8000 5830 30  0001 C CNN
F 2 "" H 8000 5900 60  0000 C CNN
F 3 "" H 8000 5900 60  0000 C CNN
	1    8000 5900
	1    0    0    -1  
$EndComp
$Comp
L GND #PWR040
U 1 1 5235E483
P 7500 5900
F 0 "#PWR040" H 7500 5900 30  0001 C CNN
F 1 "GND" H 7500 5830 30  0001 C CNN
F 2 "" H 7500 5900 60  0000 C CNN
F 3 "" H 7500 5900 60  0000 C CNN
	1    7500 5900
	1    0    0    -1  
$EndComp
Wire Wire Line
	7500 5700 7500 5900
Wire Wire Line
	8000 5700 8000 5900
$Comp
L C C15
U 1 1 5235E51A
P 8000 5500
F 0 "C15" H 8050 5600 60  0000 L CNN
F 1 "2.2uF" H 8050 5400 60  0000 L CNN
F 2 "" H 8000 5500 60  0000 C CNN
F 3 "" H 8000 5500 60  0000 C CNN
F 4 "16V" H 8150 5300 60  0000 C CNN "V"
	1    8000 5500
	1    0    0    -1  
$EndComp
Text GLabel 8800 4100 0    60   Input ~ 0
DISP_SCLK
Text GLabel 8800 4250 0    60   Input ~ 0
DISP_SDIN
Wire Wire Line
	8800 4100 9200 4100
Wire Wire Line
	8800 4250 8900 4250
Wire Wire Line
	8900 4250 8900 4200
Wire Wire Line
	8900 4200 9200 4200
Text GLabel 8800 3700 0    60   Input ~ 0
DISP_nRES
Text GLabel 8800 3850 0    60   Input ~ 0
DISP_DnC
Text GLabel 8800 3550 0    60   Input ~ 0
DISP_nCS
Wire Wire Line
	8800 3700 9200 3700
Wire Wire Line
	8800 3550 8900 3550
Wire Wire Line
	8900 3550 8900 3600
Wire Wire Line
	8900 3600 9200 3600
Wire Wire Line
	8800 3850 8900 3850
Wire Wire Line
	8900 3850 8900 3800
Wire Wire Line
	8900 3800 9200 3800
$Comp
L C C10
U 1 1 5235E5FB
P 8550 2300
F 0 "C10" H 8600 2400 60  0000 L CNN
F 1 "1uF" H 8600 2200 60  0000 L CNN
F 2 "" H 8550 2300 60  0000 C CNN
F 3 "" H 8550 2300 60  0000 C CNN
	1    8550 2300
	1    0    0    -1  
$EndComp
$Comp
L C C11
U 1 1 5235E614
P 8000 2500
F 0 "C11" H 8050 2600 60  0000 L CNN
F 1 "1uF" H 8050 2400 60  0000 L CNN
F 2 "" H 8000 2500 60  0000 C CNN
F 3 "" H 8000 2500 60  0000 C CNN
	1    8000 2500
	1    0    0    -1  
$EndComp
Wire Wire Line
	9200 2500 8850 2500
Wire Wire Line
	8850 2500 8850 2000
Wire Wire Line
	8850 2000 8550 2000
Wire Wire Line
	8550 2000 8550 2100
Wire Wire Line
	9200 2600 8550 2600
Wire Wire Line
	8550 2600 8550 2500
Wire Wire Line
	9200 2700 8300 2700
Wire Wire Line
	8300 2700 8300 2200
Wire Wire Line
	8300 2200 8000 2200
Wire Wire Line
	8000 2200 8000 2300
Wire Wire Line
	9200 2800 8000 2800
Wire Wire Line
	8000 2800 8000 2700
$Comp
L C C13
U 1 1 5235E707
P 7400 3600
F 0 "C13" H 7450 3700 60  0000 L CNN
F 1 "1uF" H 7450 3500 60  0000 L CNN
F 2 "" H 7400 3600 60  0000 C CNN
F 3 "" H 7400 3600 60  0000 C CNN
	1    7400 3600
	1    0    0    -1  
$EndComp
$Comp
L C C12
U 1 1 5235E723
P 7000 3600
F 0 "C12" H 7050 3700 60  0000 L CNN
F 1 "1uF" H 7050 3500 60  0000 L CNN
F 2 "" H 7000 3600 60  0000 C CNN
F 3 "" H 7000 3600 60  0000 C CNN
	1    7000 3600
	1    0    0    -1  
$EndComp
Wire Wire Line
	9200 3200 7400 3200
Wire Wire Line
	9200 2900 7000 2900
Wire Wire Line
	7000 2100 7000 3400
$Comp
L GND #PWR041
U 1 1 5235E7AF
P 7400 3900
F 0 "#PWR041" H 7400 3900 30  0001 C CNN
F 1 "GND" H 7400 3830 30  0001 C CNN
F 2 "" H 7400 3900 60  0000 C CNN
F 3 "" H 7400 3900 60  0000 C CNN
	1    7400 3900
	1    0    0    -1  
$EndComp
$Comp
L GND #PWR042
U 1 1 5235E7B5
P 7000 3900
F 0 "#PWR042" H 7000 3900 30  0001 C CNN
F 1 "GND" H 7000 3830 30  0001 C CNN
F 2 "" H 7000 3900 60  0000 C CNN
F 3 "" H 7000 3900 60  0000 C CNN
	1    7000 3900
	1    0    0    -1  
$EndComp
Wire Wire Line
	7400 3800 7400 3900
Wire Wire Line
	7000 3800 7000 3900
Connection ~ 7000 2900
$Comp
L LED D2
U 1 1 5236121F
P 2900 6400
F 0 "D2" H 2900 6500 60  0000 C CNN
F 1 "LTST-C190KRKT" H 2900 6250 60  0000 C CNN
F 2 "" H 2900 6400 60  0000 C CNN
F 3 "" H 2900 6400 60  0000 C CNN
	1    2900 6400
	0    -1   1    0   
$EndComp
$Comp
L R R13
U 1 1 52361225
P 2900 5750
F 0 "R13" H 3030 5800 60  0000 C CNN
F 1 "270" H 3050 5700 60  0000 C CNN
F 2 "" H 2900 5750 60  0000 C CNN
F 3 "" H 2900 5750 60  0000 C CNN
	1    2900 5750
	1    0    0    -1  
$EndComp
Wire Wire Line
	2900 6000 2900 6200
$Comp
L GND #PWR043
U 1 1 5236122C
P 2900 6800
F 0 "#PWR043" H 2900 6800 30  0001 C CNN
F 1 "GND" H 2900 6730 30  0001 C CNN
F 2 "" H 2900 6800 60  0000 C CNN
F 3 "" H 2900 6800 60  0000 C CNN
	1    2900 6800
	1    0    0    -1  
$EndComp
Wire Wire Line
	2900 6600 2900 6800
Text GLabel 2700 5300 0    60   Input ~ 0
LED
Wire Wire Line
	2700 5300 2900 5300
Wire Wire Line
	2900 5300 2900 5500
Text Notes 900  1150 0    200  ~ 40
Display
$Comp
L ER-OLED-FPC30 CON2
U 1 1 5236C9B8
P 9500 3850
F 0 "CON2" H 9600 5500 60  0000 C CNN
F 1 "ER-OLED013-1" H 9650 2200 60  0000 C CNN
F 2 "~" H 9600 3850 60  0000 C CNN
F 3 "~" H 9600 3850 60  0000 C CNN
	1    9500 3850
	1    0    0    -1  
$EndComp
Wire Wire Line
	9200 5300 9000 5300
Connection ~ 9000 5300
$Comp
L POWERED #FLG044
U 1 1 523D3752
P 8000 4700
F 0 "#FLG044" H 8200 4600 60  0001 C CNN
F 1 "POWERED" H 8000 4750 60  0000 C CNN
F 2 "" H 8000 4700 60  0000 C CNN
F 3 "" H 8000 4700 60  0000 C CNN
	1    8000 4700
	1    0    0    -1  
$EndComp
Connection ~ 8000 5100
Wire Wire Line
	7400 2100 7400 3400
Connection ~ 7400 3200
Text Label 7000 2700 1    60   ~ 0
DISP_VDD
Text Label 7400 2700 1    60   ~ 0
DISP_VDD
$Comp
L PMOSFET-GSD Q3
U 1 1 536FDAD3
P 4100 2900
F 0 "Q3" H 3850 2600 60  0000 C CNN
F 1 "DMG1013T" H 3800 3200 60  0000 C CNN
F 2 "" H 4100 2900 60  0000 C CNN
F 3 "" H 4100 2900 60  0000 C CNN
	1    4100 2900
	1    0    0    1   
$EndComp
Text GLabel 2550 3600 0    60   Input ~ 0
DISP_ON
Wire Wire Line
	3400 2900 3800 2900
$Comp
L 3V3 #PWR045
U 1 1 536FDADC
P 4200 1800
F 0 "#PWR045" H 4200 1760 30  0001 C CNN
F 1 "3V3" H 4200 1950 60  0000 C CNN
F 2 "" H 4200 1800 60  0000 C CNN
F 3 "" H 4200 1800 60  0000 C CNN
	1    4200 1800
	1    0    0    -1  
$EndComp
Wire Wire Line
	4200 1800 4200 2500
$Comp
L NMOSFET-GSD Q4
U 1 1 536FDAE4
P 3300 3600
F 0 "Q4" H 3150 3925 60  0000 C CNN
F 1 "DMG1012T" H 2950 3300 60  0000 C CNN
F 2 "" H 3300 3600 60  0000 C CNN
F 3 "" H 3300 3600 60  0000 C CNN
	1    3300 3600
	1    0    0    -1  
$EndComp
$Comp
L GND #PWR046
U 1 1 536FDAEA
P 3400 4200
F 0 "#PWR046" H 3400 4200 30  0001 C CNN
F 1 "GND" H 3400 4130 30  0001 C CNN
F 2 "" H 3400 4200 60  0000 C CNN
F 3 "" H 3400 4200 60  0000 C CNN
	1    3400 4200
	1    0    0    -1  
$EndComp
Wire Wire Line
	3400 4000 3400 4200
Wire Wire Line
	2550 3600 3000 3600
Wire Wire Line
	3400 2700 3400 3200
$Comp
L R R11
U 1 1 536FDAF3
P 3400 2450
F 0 "R11" H 3530 2500 60  0000 C CNN
F 1 "1M" H 3550 2400 60  0000 C CNN
F 2 "" H 3400 2450 60  0000 C CNN
F 3 "" H 3400 2450 60  0000 C CNN
	1    3400 2450
	-1   0    0    -1  
$EndComp
Wire Wire Line
	3400 2200 3400 2000
Wire Wire Line
	3400 2000 4200 2000
Connection ~ 4200 2000
Connection ~ 3400 2900
Text Label 5900 3500 2    60   ~ 0
DISP_VDD
Wire Wire Line
	4200 3300 4200 3500
Wire Wire Line
	4200 3500 6100 3500
$Comp
L POWERED #FLG047
U 1 1 53709365
P 4800 3100
F 0 "#FLG047" H 5000 3000 60  0001 C CNN
F 1 "POWERED" H 4800 3150 60  0000 C CNN
F 2 "" H 4800 3100 60  0000 C CNN
F 3 "" H 4800 3100 60  0000 C CNN
	1    4800 3100
	1    0    0    -1  
$EndComp
Wire Wire Line
	4800 3300 4800 3500
Connection ~ 4800 3500
$Comp
L TESTPOINT TP9
U 1 1 5371B7E4
P 5300 3300
F 0 "TP9" H 5300 3550 60  0000 C CNN
F 1 "TESTPOINT" H 5300 3250 60  0001 C CNN
F 2 "" H 5300 3300 60  0000 C CNN
F 3 "" H 5300 3300 60  0000 C CNN
	1    5300 3300
	1    0    0    -1  
$EndComp
Wire Wire Line
	5300 3300 5300 3500
Connection ~ 5300 3500
Text Notes 3300 5750 0    60   ~ 0
5 mA @ 3.3 V
Text Notes 3300 5850 0    60   ~ 0
4 mA @ 3.0 V
$EndSCHEMATC
