#define enter_width 12
#define enter_height 12
static unsigned char enter_bits[] = {
   0x00, 0x0e, 0x00, 0x0a, 0x00, 0x0a, 0x30, 0x0a, 0x28, 0x0a, 0x24, 0x0a,
   0xe2, 0x0b, 0x01, 0x08, 0xe2, 0x0f, 0x24, 0x00, 0x28, 0x00, 0x30, 0x00};
