#define next_width 12
#define next_height 12
static unsigned char next_bits[] = {
   0x00, 0x00, 0x00, 0x00, 0xff, 0x01, 0x01, 0x03, 0x01, 0x06, 0x01, 0x0c,
   0x01, 0x06, 0x01, 0x03, 0xff, 0x01, 0x00, 0x00, 0x00, 0x00, 0x00, 0x00};
