#define radio_bold_width 12
#define radio_bold_height 12
static unsigned char radio_bold_bits[] = {
   0x06, 0x03, 0x53, 0x06, 0xdb, 0x06, 0x8b, 0x06, 0xab, 0x06, 0x23, 0x06,
   0x76, 0x03, 0x70, 0x00, 0x70, 0x00, 0xf8, 0x00, 0xf8, 0x00, 0xf8, 0x00};
