#define setup_bold_width 12
#define setup_bold_height 12
static unsigned char setup_bold_bits[] = {
   0x60, 0x00, 0x64, 0x02, 0xfe, 0x07, 0xfc, 0x03, 0x9c, 0x03, 0x0f, 0x0f,
   0x0f, 0x0f, 0x9c, 0x03, 0xfc, 0x03, 0xfe, 0x07, 0x64, 0x02, 0x60, 0x00};
