#define zap_width 12
#define zap_height 12
static unsigned char zap_bits[] = {
   0x00, 0x00, 0x80, 0x01, 0xc0, 0x00, 0x60, 0x00, 0x30, 0x00, 0xf8, 0x01,
   0xc0, 0x00, 0x64, 0x00, 0x3c, 0x00, 0x1c, 0x00, 0x3c, 0x00, 0x00, 0x00};
