#define busy_width 28
#define busy_height 5
static unsigned char busy_bits[] = {
   0x03, 0x18, 0xc0, 0x00, 0x0d, 0x68, 0x40, 0x03, 0x31, 0x88, 0x41, 0x0c,
   0x0d, 0x68, 0x40, 0x03, 0x03, 0x18, 0xc0, 0x00};
