#FIG 3.2  Produced by xfig version 3.2.5b
Landscape
Center
Metric
A4      
100.00
Single
-2
1200 2
6 2880 3555 3420 5355
2 1 0 2 0 7 50 -1 15 0.000 0 0 -1 0 0 6
	 2925 3690 2925 4500 3105 4500 3105 4275 3375 4275 3375 3600
2 1 0 2 0 7 50 -1 15 0.000 0 0 -1 0 0 6
	 2925 5220 2925 4545 3150 4545 3150 4320 3375 4320 3375 5310
-6
6 4005 3510 5670 5355
2 1 0 2 0 7 50 -1 15 0.000 0 0 -1 0 0 6
	 4995 5220 4995 4545 5400 4545 5400 4275 5625 4275 5625 5310
2 1 0 2 0 7 50 -1 45 0.000 0 0 -1 0 0 4
	 4050 4275 5130 4275 5130 4500 4095 4500
2 1 0 2 0 7 50 -1 15 0.000 0 0 -1 0 0 8
	 4995 3645 4995 4230 5175 4230 5175 4500 5355 4500 5355 4230
	 5625 4230 5625 3555
-6
6 6255 3510 7695 5355
2 1 0 2 0 7 50 -1 15 0.000 0 0 -1 0 0 6
	 7200 5220 7200 4545 7425 4545 7425 4050 7650 4050 7650 5310
2 1 0 2 0 7 50 -1 15 0.000 0 0 -1 0 0 6
	 7200 3645 7200 4230 7380 4230 7380 4005 7650 4005 7650 3555
2 1 0 2 0 7 50 -1 45 0.000 0 0 -1 0 0 4
	 6300 4275 7380 4275 7380 4500 6345 4500
-6
4 1 0 50 -1 18 15 0.0000 4 180 180 3150 5670 A\001
4 1 0 50 -1 18 15 0.0000 4 180 180 4950 5670 B\001
4 1 0 50 -1 18 15 0.0000 4 180 180 6975 5670 C\001
