#FIG 3.2  Produced by xfig version 3.2.5c
Landscape
Center
Metric
A4      
100.00
Single
-2
1200 2
0 32 #808080
1 3 0 0 0 7 50 -1 0 0.000 1 0.0000 2700 1845 45 45 2700 1845 2745 1845
1 3 0 0 0 7 50 -1 0 0.000 1 0.0000 2970 1845 45 45 2970 1845 3015 1845
1 3 0 0 0 7 50 -1 0 0.000 1 0.0000 2430 1845 45 45 2430 1845 2475 1845
1 3 0 0 0 7 50 -1 0 0.000 1 0.0000 2205 2655 45 45 2205 2655 2250 2655
1 3 0 0 0 7 50 -1 0 0.000 1 0.0000 2475 2655 45 45 2475 2655 2520 2655
1 3 0 0 0 7 50 -1 0 0.000 1 0.0000 2745 2655 45 45 2745 2655 2790 2655
1 3 0 0 0 7 50 -1 0 0.000 1 0.0000 7380 3465 45 45 7380 3465 7425 3465
1 3 0 0 0 7 50 -1 0 0.000 1 0.0000 7650 3465 45 45 7650 3465 7695 3465
1 3 0 0 0 7 50 -1 0 0.000 1 0.0000 7920 3465 45 45 7920 3465 7965 3465
2 1 0 2 0 7 50 -1 -1 0.000 0 0 -1 0 0 3
	 4275 675 900 675 900 2430
2 1 0 2 0 7 50 -1 -1 0.000 0 0 -1 0 0 2
	 1125 1665 4275 1665
2 1 0 2 0 7 50 -1 -1 0.000 0 0 -1 0 0 2
	 675 2430 4275 2430
2 1 0 2 32 7 55 -1 -1 0.000 0 0 -1 0 0 4
	 675 2880 675 3105 4275 3105 4275 2880
2 2 0 2 0 7 50 -1 -1 0.000 0 0 -1 0 0 5
	 675 450 4275 450 4275 2880 675 2880 675 450
2 1 0 2 0 7 50 -1 -1 0.000 0 0 -1 0 0 3
	 4275 1260 1125 1260 1125 2025
2 1 0 2 0 7 50 -1 -1 0.000 0 0 -1 0 0 2
	 4275 2025 900 2025
2 1 0 2 0 7 50 -1 -1 0.000 0 0 -1 1 1 2
	1 1 2.00 60.00 60.00
	1 1 2.00 60.00 60.00
	 4455 2250 5445 2250
2 1 0 2 0 7 50 -1 -1 0.000 0 0 -1 0 0 3
	 9225 2430 6075 2430 6075 2655
2 1 0 2 0 7 50 -1 -1 0.000 0 0 -1 0 0 2
	 5850 2655 9225 2655
2 1 0 2 0 7 50 -1 -1 0.000 0 0 -1 0 0 3
	 6075 3285 6075 3060 9225 3060
2 1 0 2 0 7 50 -1 -1 0.000 0 0 -1 0 0 2
	 5850 3285 9225 3285
2 1 0 2 0 7 50 -1 -1 0.000 0 0 -1 0 0 4
	 9315 2025 9360 2025 9360 2655 9315 2655
2 1 0 2 0 7 50 -1 -1 0.000 0 0 -1 0 0 3
	 9315 2835 9360 2835 9360 2655
2 1 0 2 0 7 50 -1 -1 0.000 0 0 -1 0 0 2
	 9360 2745 9855 2745
2 1 0 2 0 7 50 -1 -1 0.000 0 0 -1 0 0 2
	 9900 3150 11475 3150
2 1 0 2 0 7 50 -1 -1 0.000 0 0 -1 0 0 2
	 5850 2025 5850 3645
2 2 0 2 0 7 50 -1 -1 0.000 0 0 -1 0 0 5
	 5625 2025 9225 2025 9225 3645 5625 3645 5625 2025
2 1 0 2 0 7 50 -1 -1 0.000 0 0 -1 0 0 4
	 5625 3735 5625 3780 5850 3780 5850 3735
2 1 0 2 0 7 50 -1 -1 0.000 0 0 -1 0 0 2
	 5760 3780 5760 4050
2 2 0 0 0 7 60 -1 18 0.000 0 0 -1 0 0 5
	 900 2025 4275 2025 4275 2430 900 2430 900 2025
2 2 0 0 0 7 60 -1 18 0.000 0 0 -1 0 0 5
	 1125 1440 4275 1440 4275 1665 1125 1665 1125 1440
4 0 0 50 -1 22 12 0.0000 4 180 1170 900 630 Length (bytes)\001
4 0 0 50 -1 22 12 0.0000 4 180 1455 1125 855 Writer's public key\001
4 0 0 50 -1 22 12 0.0000 4 135 510 1125 1035 Nonce\001
4 0 0 50 -1 22 12 0.0000 4 135 1470 1125 1215 Number of readers\001
4 2 0 50 -1 22 12 0.0000 4 180 1515 4050 630 2 bytes, big-endian\001
4 2 0 50 -1 22 12 0.0000 4 180 660 4050 855 32 bytes\001
4 2 0 50 -1 22 12 0.0000 4 180 660 4050 1035 24 bytes\001
4 2 0 50 -1 22 12 0.0000 4 180 480 4050 1215 1 byte\001
4 0 0 50 -1 22 12 0.0000 4 180 1545 1350 1440 Reader's public key\001
4 0 0 50 -1 22 12 0.0000 4 180 1680 1350 1620 Encrypted record key\001
4 2 0 50 -1 22 12 0.0000 4 180 660 4050 1440 32 bytes\001
4 2 0 50 -1 22 12 0.0000 4 180 660 4050 1620 32 bytes\001
4 0 0 50 -1 22 12 0.0000 4 135 840 1125 2295 Secret box\001
4 2 0 50 -1 22 12 0.0000 4 180 885 4050 2295 >= 16 bytes\001
4 0 32 50 -1 22 12 0.0000 4 180 1815 900 3060 EOF marker (if needed)\001
4 0 0 50 -1 18 12 0.0000 4 195 6060 675 225 Anelok account database format (2016-05-18 version, will change)\001
4 2 32 50 -1 22 12 0.0000 4 180 945 4050 3060 2 zero bytes\001
4 1 0 50 -1 23 12 0.0000 4 180 615 4950 2205 Encrypt\001
4 0 0 50 -1 18 12 0.0000 4 150 1425 5625 1935 Account record\001
4 0 0 50 -1 22 12 0.0000 4 180 390 6075 2205 Type\001
4 0 0 50 -1 22 12 0.0000 4 180 1170 6075 2385 Length (bytes)\001
4 2 0 50 -1 22 12 0.0000 4 180 855 9000 2205 1 zero byte\001
4 2 0 50 -1 22 12 0.0000 4 180 1515 9000 2385 2 bytes, big-endian\001
4 2 0 50 -1 22 12 0.0000 4 180 795 9000 2610 >= 0 bytes\001
4 0 0 50 -1 22 12 0.0000 4 135 1050 6300 2610 Record name\001
4 0 0 50 -1 22 12 0.0000 4 180 390 6075 2835 Type\001
4 0 0 50 -1 22 12 0.0000 4 180 1170 6075 3015 Length (bytes)\001
4 2 0 50 -1 22 12 0.0000 4 180 480 9000 2835 1 byte\001
4 2 0 50 -1 22 12 0.0000 4 180 1515 9000 3015 2 bytes, big-endian\001
4 0 0 50 -1 22 12 0.0000 4 135 435 6300 3240 Value\001
4 2 0 50 -1 22 12 0.0000 4 180 795 9045 3240 >= 0 bytes\001
4 0 0 50 -1 23 12 0.0000 4 180 2190 9450 2340 The name field must always\001
4 0 0 50 -1 23 12 0.0000 4 180 2235 9450 2520 be present and must be first\001
4 0 0 50 -1 18 12 0.0000 4 195 1065 9900 2835 Type codes\001
4 0 0 50 -1 22 12 0.0000 4 180 390 9900 3105 Type\001
4 0 0 50 -1 22 12 0.0000 4 135 1050 9900 3330 Record name\001
4 1 0 50 -1 22 12 0.0000 4 135 420 11250 3105 Code\001
4 0 0 50 -1 22 12 0.0000 4 135 345 9900 3510 URL\001
4 0 0 50 -1 22 12 0.0000 4 180 945 9900 3690 Login name\001
4 0 0 50 -1 22 12 0.0000 4 135 765 9900 3870 Password\001
4 1 0 50 -1 22 12 0.0000 4 135 90 11250 3330 0\001
4 1 0 50 -1 22 12 0.0000 4 135 90 11250 3510 1\001
4 1 0 50 -1 22 12 0.0000 4 135 90 11250 3690 2\001
4 1 0 50 -1 22 12 0.0000 4 135 90 11250 3870 3\001
4 0 0 50 -1 23 12 0.0000 4 180 2535 5625 4230 Length is known from container\001
